%!PS-Adobe-2.0
%%Title: unpopular-accu-clueweb.eps
%%Creator: gnuplot 4.6 patchlevel 4
%%CreationDate: Sun Jun 14 23:56:30 2015
%%DocumentFonts: (atend)
%%BoundingBox: 251 50 554 482
%%Orientation: Landscape
%%Pages: (atend)
%%EndComments
%%BeginProlog
/gnudict 256 dict def
gnudict begin
%
% The following true/false flags may be edited by hand if desired.
% The unit line width and grayscale image gamma correction may also be changed.
%
/Color true def
/Blacktext false def
/Solid false def
/Dashlength 1 def
/Landscape true def
/Level1 false def
/Rounded false def
/ClipToBoundingBox false def
/SuppressPDFMark false def
/TransparentPatterns false def
/gnulinewidth 5.000 def
/userlinewidth gnulinewidth def
/Gamma 1.0 def
/BackgroundColor {-1.000 -1.000 -1.000} def
%
/vshift -46 def
/dl1 {
  10.0 Dashlength mul mul
  Rounded { currentlinewidth 0.75 mul sub dup 0 le { pop 0.01 } if } if
} def
/dl2 {
  10.0 Dashlength mul mul
  Rounded { currentlinewidth 0.75 mul add } if
} def
/hpt_ 31.5 def
/vpt_ 31.5 def
/hpt hpt_ def
/vpt vpt_ def
/doclip {
  ClipToBoundingBox {
    newpath 251 50 moveto 554 50 lineto 554 482 lineto 251 482 lineto closepath
    clip
  } if
} def
%
% Gnuplot Prolog Version 4.6 (September 2012)
%
%/SuppressPDFMark true def
%
/M {moveto} bind def
/L {lineto} bind def
/R {rmoveto} bind def
/V {rlineto} bind def
/N {newpath moveto} bind def
/Z {closepath} bind def
/C {setrgbcolor} bind def
/f {rlineto fill} bind def
/g {setgray} bind def
/Gshow {show} def   % May be redefined later in the file to support UTF-8
/vpt2 vpt 2 mul def
/hpt2 hpt 2 mul def
/Lshow {currentpoint stroke M 0 vshift R 
	Blacktext {gsave 0 setgray show grestore} {show} ifelse} def
/Rshow {currentpoint stroke M dup stringwidth pop neg vshift R
	Blacktext {gsave 0 setgray show grestore} {show} ifelse} def
/Cshow {currentpoint stroke M dup stringwidth pop -2 div vshift R 
	Blacktext {gsave 0 setgray show grestore} {show} ifelse} def
/UP {dup vpt_ mul /vpt exch def hpt_ mul /hpt exch def
  /hpt2 hpt 2 mul def /vpt2 vpt 2 mul def} def
/DL {Color {setrgbcolor Solid {pop []} if 0 setdash}
 {pop pop pop 0 setgray Solid {pop []} if 0 setdash} ifelse} def
/BL {stroke userlinewidth 2 mul setlinewidth
	Rounded {1 setlinejoin 1 setlinecap} if} def
/AL {stroke userlinewidth 2 div setlinewidth
	Rounded {1 setlinejoin 1 setlinecap} if} def
/UL {dup gnulinewidth mul /userlinewidth exch def
	dup 1 lt {pop 1} if 10 mul /udl exch def} def
/PL {stroke userlinewidth setlinewidth
	Rounded {1 setlinejoin 1 setlinecap} if} def
3.8 setmiterlimit
% Default Line colors
/LCw {1 1 1} def
/LCb {0 0 0} def
/LCa {0 0 0} def
/LC0 {1 0 0} def
/LC1 {0 1 0} def
/LC2 {0 0 1} def
/LC3 {1 0 1} def
/LC4 {0 1 1} def
/LC5 {1 1 0} def
/LC6 {0 0 0} def
/LC7 {1 0.3 0} def
/LC8 {0.5 0.5 0.5} def
% Default Line Types
/LTw {PL [] 1 setgray} def
/LTb {BL [] LCb DL} def
/LTa {AL [1 udl mul 2 udl mul] 0 setdash LCa setrgbcolor} def
/LT0 {PL [] LC0 DL} def
/LT1 {PL [4 dl1 2 dl2] LC1 DL} def
/LT2 {PL [2 dl1 3 dl2] LC2 DL} def
/LT3 {PL [1 dl1 1.5 dl2] LC3 DL} def
/LT4 {PL [6 dl1 2 dl2 1 dl1 2 dl2] LC4 DL} def
/LT5 {PL [3 dl1 3 dl2 1 dl1 3 dl2] LC5 DL} def
/LT6 {PL [2 dl1 2 dl2 2 dl1 6 dl2] LC6 DL} def
/LT7 {PL [1 dl1 2 dl2 6 dl1 2 dl2 1 dl1 2 dl2] LC7 DL} def
/LT8 {PL [2 dl1 2 dl2 2 dl1 2 dl2 2 dl1 2 dl2 2 dl1 4 dl2] LC8 DL} def
/Pnt {stroke [] 0 setdash gsave 1 setlinecap M 0 0 V stroke grestore} def
/Dia {stroke [] 0 setdash 2 copy vpt add M
  hpt neg vpt neg V hpt vpt neg V
  hpt vpt V hpt neg vpt V closepath stroke
  Pnt} def
/Pls {stroke [] 0 setdash vpt sub M 0 vpt2 V
  currentpoint stroke M
  hpt neg vpt neg R hpt2 0 V stroke
 } def
/Box {stroke [] 0 setdash 2 copy exch hpt sub exch vpt add M
  0 vpt2 neg V hpt2 0 V 0 vpt2 V
  hpt2 neg 0 V closepath stroke
  Pnt} def
/Crs {stroke [] 0 setdash exch hpt sub exch vpt add M
  hpt2 vpt2 neg V currentpoint stroke M
  hpt2 neg 0 R hpt2 vpt2 V stroke} def
/TriU {stroke [] 0 setdash 2 copy vpt 1.12 mul add M
  hpt neg vpt -1.62 mul V
  hpt 2 mul 0 V
  hpt neg vpt 1.62 mul V closepath stroke
  Pnt} def
/Star {2 copy Pls Crs} def
/BoxF {stroke [] 0 setdash exch hpt sub exch vpt add M
  0 vpt2 neg V hpt2 0 V 0 vpt2 V
  hpt2 neg 0 V closepath fill} def
/TriUF {stroke [] 0 setdash vpt 1.12 mul add M
  hpt neg vpt -1.62 mul V
  hpt 2 mul 0 V
  hpt neg vpt 1.62 mul V closepath fill} def
/TriD {stroke [] 0 setdash 2 copy vpt 1.12 mul sub M
  hpt neg vpt 1.62 mul V
  hpt 2 mul 0 V
  hpt neg vpt -1.62 mul V closepath stroke
  Pnt} def
/TriDF {stroke [] 0 setdash vpt 1.12 mul sub M
  hpt neg vpt 1.62 mul V
  hpt 2 mul 0 V
  hpt neg vpt -1.62 mul V closepath fill} def
/DiaF {stroke [] 0 setdash vpt add M
  hpt neg vpt neg V hpt vpt neg V
  hpt vpt V hpt neg vpt V closepath fill} def
/Pent {stroke [] 0 setdash 2 copy gsave
  translate 0 hpt M 4 {72 rotate 0 hpt L} repeat
  closepath stroke grestore Pnt} def
/PentF {stroke [] 0 setdash gsave
  translate 0 hpt M 4 {72 rotate 0 hpt L} repeat
  closepath fill grestore} def
/Circle {stroke [] 0 setdash 2 copy
  hpt 0 360 arc stroke Pnt} def
/CircleF {stroke [] 0 setdash hpt 0 360 arc fill} def
/C0 {BL [] 0 setdash 2 copy moveto vpt 90 450 arc} bind def
/C1 {BL [] 0 setdash 2 copy moveto
	2 copy vpt 0 90 arc closepath fill
	vpt 0 360 arc closepath} bind def
/C2 {BL [] 0 setdash 2 copy moveto
	2 copy vpt 90 180 arc closepath fill
	vpt 0 360 arc closepath} bind def
/C3 {BL [] 0 setdash 2 copy moveto
	2 copy vpt 0 180 arc closepath fill
	vpt 0 360 arc closepath} bind def
/C4 {BL [] 0 setdash 2 copy moveto
	2 copy vpt 180 270 arc closepath fill
	vpt 0 360 arc closepath} bind def
/C5 {BL [] 0 setdash 2 copy moveto
	2 copy vpt 0 90 arc
	2 copy moveto
	2 copy vpt 180 270 arc closepath fill
	vpt 0 360 arc} bind def
/C6 {BL [] 0 setdash 2 copy moveto
	2 copy vpt 90 270 arc closepath fill
	vpt 0 360 arc closepath} bind def
/C7 {BL [] 0 setdash 2 copy moveto
	2 copy vpt 0 270 arc closepath fill
	vpt 0 360 arc closepath} bind def
/C8 {BL [] 0 setdash 2 copy moveto
	2 copy vpt 270 360 arc closepath fill
	vpt 0 360 arc closepath} bind def
/C9 {BL [] 0 setdash 2 copy moveto
	2 copy vpt 270 450 arc closepath fill
	vpt 0 360 arc closepath} bind def
/C10 {BL [] 0 setdash 2 copy 2 copy moveto vpt 270 360 arc closepath fill
	2 copy moveto
	2 copy vpt 90 180 arc closepath fill
	vpt 0 360 arc closepath} bind def
/C11 {BL [] 0 setdash 2 copy moveto
	2 copy vpt 0 180 arc closepath fill
	2 copy moveto
	2 copy vpt 270 360 arc closepath fill
	vpt 0 360 arc closepath} bind def
/C12 {BL [] 0 setdash 2 copy moveto
	2 copy vpt 180 360 arc closepath fill
	vpt 0 360 arc closepath} bind def
/C13 {BL [] 0 setdash 2 copy moveto
	2 copy vpt 0 90 arc closepath fill
	2 copy moveto
	2 copy vpt 180 360 arc closepath fill
	vpt 0 360 arc closepath} bind def
/C14 {BL [] 0 setdash 2 copy moveto
	2 copy vpt 90 360 arc closepath fill
	vpt 0 360 arc} bind def
/C15 {BL [] 0 setdash 2 copy vpt 0 360 arc closepath fill
	vpt 0 360 arc closepath} bind def
/Rec {newpath 4 2 roll moveto 1 index 0 rlineto 0 exch rlineto
	neg 0 rlineto closepath} bind def
/Square {dup Rec} bind def
/Bsquare {vpt sub exch vpt sub exch vpt2 Square} bind def
/S0 {BL [] 0 setdash 2 copy moveto 0 vpt rlineto BL Bsquare} bind def
/S1 {BL [] 0 setdash 2 copy vpt Square fill Bsquare} bind def
/S2 {BL [] 0 setdash 2 copy exch vpt sub exch vpt Square fill Bsquare} bind def
/S3 {BL [] 0 setdash 2 copy exch vpt sub exch vpt2 vpt Rec fill Bsquare} bind def
/S4 {BL [] 0 setdash 2 copy exch vpt sub exch vpt sub vpt Square fill Bsquare} bind def
/S5 {BL [] 0 setdash 2 copy 2 copy vpt Square fill
	exch vpt sub exch vpt sub vpt Square fill Bsquare} bind def
/S6 {BL [] 0 setdash 2 copy exch vpt sub exch vpt sub vpt vpt2 Rec fill Bsquare} bind def
/S7 {BL [] 0 setdash 2 copy exch vpt sub exch vpt sub vpt vpt2 Rec fill
	2 copy vpt Square fill Bsquare} bind def
/S8 {BL [] 0 setdash 2 copy vpt sub vpt Square fill Bsquare} bind def
/S9 {BL [] 0 setdash 2 copy vpt sub vpt vpt2 Rec fill Bsquare} bind def
/S10 {BL [] 0 setdash 2 copy vpt sub vpt Square fill 2 copy exch vpt sub exch vpt Square fill
	Bsquare} bind def
/S11 {BL [] 0 setdash 2 copy vpt sub vpt Square fill 2 copy exch vpt sub exch vpt2 vpt Rec fill
	Bsquare} bind def
/S12 {BL [] 0 setdash 2 copy exch vpt sub exch vpt sub vpt2 vpt Rec fill Bsquare} bind def
/S13 {BL [] 0 setdash 2 copy exch vpt sub exch vpt sub vpt2 vpt Rec fill
	2 copy vpt Square fill Bsquare} bind def
/S14 {BL [] 0 setdash 2 copy exch vpt sub exch vpt sub vpt2 vpt Rec fill
	2 copy exch vpt sub exch vpt Square fill Bsquare} bind def
/S15 {BL [] 0 setdash 2 copy Bsquare fill Bsquare} bind def
/D0 {gsave translate 45 rotate 0 0 S0 stroke grestore} bind def
/D1 {gsave translate 45 rotate 0 0 S1 stroke grestore} bind def
/D2 {gsave translate 45 rotate 0 0 S2 stroke grestore} bind def
/D3 {gsave translate 45 rotate 0 0 S3 stroke grestore} bind def
/D4 {gsave translate 45 rotate 0 0 S4 stroke grestore} bind def
/D5 {gsave translate 45 rotate 0 0 S5 stroke grestore} bind def
/D6 {gsave translate 45 rotate 0 0 S6 stroke grestore} bind def
/D7 {gsave translate 45 rotate 0 0 S7 stroke grestore} bind def
/D8 {gsave translate 45 rotate 0 0 S8 stroke grestore} bind def
/D9 {gsave translate 45 rotate 0 0 S9 stroke grestore} bind def
/D10 {gsave translate 45 rotate 0 0 S10 stroke grestore} bind def
/D11 {gsave translate 45 rotate 0 0 S11 stroke grestore} bind def
/D12 {gsave translate 45 rotate 0 0 S12 stroke grestore} bind def
/D13 {gsave translate 45 rotate 0 0 S13 stroke grestore} bind def
/D14 {gsave translate 45 rotate 0 0 S14 stroke grestore} bind def
/D15 {gsave translate 45 rotate 0 0 S15 stroke grestore} bind def
/DiaE {stroke [] 0 setdash vpt add M
  hpt neg vpt neg V hpt vpt neg V
  hpt vpt V hpt neg vpt V closepath stroke} def
/BoxE {stroke [] 0 setdash exch hpt sub exch vpt add M
  0 vpt2 neg V hpt2 0 V 0 vpt2 V
  hpt2 neg 0 V closepath stroke} def
/TriUE {stroke [] 0 setdash vpt 1.12 mul add M
  hpt neg vpt -1.62 mul V
  hpt 2 mul 0 V
  hpt neg vpt 1.62 mul V closepath stroke} def
/TriDE {stroke [] 0 setdash vpt 1.12 mul sub M
  hpt neg vpt 1.62 mul V
  hpt 2 mul 0 V
  hpt neg vpt -1.62 mul V closepath stroke} def
/PentE {stroke [] 0 setdash gsave
  translate 0 hpt M 4 {72 rotate 0 hpt L} repeat
  closepath stroke grestore} def
/CircE {stroke [] 0 setdash 
  hpt 0 360 arc stroke} def
/Opaque {gsave closepath 1 setgray fill grestore 0 setgray closepath} def
/DiaW {stroke [] 0 setdash vpt add M
  hpt neg vpt neg V hpt vpt neg V
  hpt vpt V hpt neg vpt V Opaque stroke} def
/BoxW {stroke [] 0 setdash exch hpt sub exch vpt add M
  0 vpt2 neg V hpt2 0 V 0 vpt2 V
  hpt2 neg 0 V Opaque stroke} def
/TriUW {stroke [] 0 setdash vpt 1.12 mul add M
  hpt neg vpt -1.62 mul V
  hpt 2 mul 0 V
  hpt neg vpt 1.62 mul V Opaque stroke} def
/TriDW {stroke [] 0 setdash vpt 1.12 mul sub M
  hpt neg vpt 1.62 mul V
  hpt 2 mul 0 V
  hpt neg vpt -1.62 mul V Opaque stroke} def
/PentW {stroke [] 0 setdash gsave
  translate 0 hpt M 4 {72 rotate 0 hpt L} repeat
  Opaque stroke grestore} def
/CircW {stroke [] 0 setdash 
  hpt 0 360 arc Opaque stroke} def
/BoxFill {gsave Rec 1 setgray fill grestore} def
/Density {
  /Fillden exch def
  currentrgbcolor
  /ColB exch def /ColG exch def /ColR exch def
  /ColR ColR Fillden mul Fillden sub 1 add def
  /ColG ColG Fillden mul Fillden sub 1 add def
  /ColB ColB Fillden mul Fillden sub 1 add def
  ColR ColG ColB setrgbcolor} def
/BoxColFill {gsave Rec PolyFill} def
/PolyFill {gsave Density fill grestore grestore} def
/h {rlineto rlineto rlineto gsave closepath fill grestore} bind def
%
% PostScript Level 1 Pattern Fill routine for rectangles
% Usage: x y w h s a XX PatternFill
%	x,y = lower left corner of box to be filled
%	w,h = width and height of box
%	  a = angle in degrees between lines and x-axis
%	 XX = 0/1 for no/yes cross-hatch
%
/PatternFill {gsave /PFa [ 9 2 roll ] def
  PFa 0 get PFa 2 get 2 div add PFa 1 get PFa 3 get 2 div add translate
  PFa 2 get -2 div PFa 3 get -2 div PFa 2 get PFa 3 get Rec
  TransparentPatterns {} {gsave 1 setgray fill grestore} ifelse
  clip
  currentlinewidth 0.5 mul setlinewidth
  /PFs PFa 2 get dup mul PFa 3 get dup mul add sqrt def
  0 0 M PFa 5 get rotate PFs -2 div dup translate
  0 1 PFs PFa 4 get div 1 add floor cvi
	{PFa 4 get mul 0 M 0 PFs V} for
  0 PFa 6 get ne {
	0 1 PFs PFa 4 get div 1 add floor cvi
	{PFa 4 get mul 0 2 1 roll M PFs 0 V} for
 } if
  stroke grestore} def
%
/languagelevel where
 {pop languagelevel} {1} ifelse
 2 lt
	{/InterpretLevel1 true def}
	{/InterpretLevel1 Level1 def}
 ifelse
%
% PostScript level 2 pattern fill definitions
%
/Level2PatternFill {
/Tile8x8 {/PaintType 2 /PatternType 1 /TilingType 1 /BBox [0 0 8 8] /XStep 8 /YStep 8}
	bind def
/KeepColor {currentrgbcolor [/Pattern /DeviceRGB] setcolorspace} bind def
<< Tile8x8
 /PaintProc {0.5 setlinewidth pop 0 0 M 8 8 L 0 8 M 8 0 L stroke} 
>> matrix makepattern
/Pat1 exch def
<< Tile8x8
 /PaintProc {0.5 setlinewidth pop 0 0 M 8 8 L 0 8 M 8 0 L stroke
	0 4 M 4 8 L 8 4 L 4 0 L 0 4 L stroke}
>> matrix makepattern
/Pat2 exch def
<< Tile8x8
 /PaintProc {0.5 setlinewidth pop 0 0 M 0 8 L
	8 8 L 8 0 L 0 0 L fill}
>> matrix makepattern
/Pat3 exch def
<< Tile8x8
 /PaintProc {0.5 setlinewidth pop -4 8 M 8 -4 L
	0 12 M 12 0 L stroke}
>> matrix makepattern
/Pat4 exch def
<< Tile8x8
 /PaintProc {0.5 setlinewidth pop -4 0 M 8 12 L
	0 -4 M 12 8 L stroke}
>> matrix makepattern
/Pat5 exch def
<< Tile8x8
 /PaintProc {0.5 setlinewidth pop -2 8 M 4 -4 L
	0 12 M 8 -4 L 4 12 M 10 0 L stroke}
>> matrix makepattern
/Pat6 exch def
<< Tile8x8
 /PaintProc {0.5 setlinewidth pop -2 0 M 4 12 L
	0 -4 M 8 12 L 4 -4 M 10 8 L stroke}
>> matrix makepattern
/Pat7 exch def
<< Tile8x8
 /PaintProc {0.5 setlinewidth pop 8 -2 M -4 4 L
	12 0 M -4 8 L 12 4 M 0 10 L stroke}
>> matrix makepattern
/Pat8 exch def
<< Tile8x8
 /PaintProc {0.5 setlinewidth pop 0 -2 M 12 4 L
	-4 0 M 12 8 L -4 4 M 8 10 L stroke}
>> matrix makepattern
/Pat9 exch def
/Pattern1 {PatternBgnd KeepColor Pat1 setpattern} bind def
/Pattern2 {PatternBgnd KeepColor Pat2 setpattern} bind def
/Pattern3 {PatternBgnd KeepColor Pat3 setpattern} bind def
/Pattern4 {PatternBgnd KeepColor Landscape {Pat5} {Pat4} ifelse setpattern} bind def
/Pattern5 {PatternBgnd KeepColor Landscape {Pat4} {Pat5} ifelse setpattern} bind def
/Pattern6 {PatternBgnd KeepColor Landscape {Pat9} {Pat6} ifelse setpattern} bind def
/Pattern7 {PatternBgnd KeepColor Landscape {Pat8} {Pat7} ifelse setpattern} bind def
} def
%
%
%End of PostScript Level 2 code
%
/PatternBgnd {
  TransparentPatterns {} {gsave 1 setgray fill grestore} ifelse
} def
%
% Substitute for Level 2 pattern fill codes with
% grayscale if Level 2 support is not selected.
%
/Level1PatternFill {
/Pattern1 {0.250 Density} bind def
/Pattern2 {0.500 Density} bind def
/Pattern3 {0.750 Density} bind def
/Pattern4 {0.125 Density} bind def
/Pattern5 {0.375 Density} bind def
/Pattern6 {0.625 Density} bind def
/Pattern7 {0.875 Density} bind def
} def
%
% Now test for support of Level 2 code
%
Level1 {Level1PatternFill} {Level2PatternFill} ifelse
%
/Symbol-Oblique /Symbol findfont [1 0 .167 1 0 0] makefont
dup length dict begin {1 index /FID eq {pop pop} {def} ifelse} forall
currentdict end definefont pop
Level1 SuppressPDFMark or 
{} {
/SDict 10 dict def
systemdict /pdfmark known not {
  userdict /pdfmark systemdict /cleartomark get put
} if
SDict begin [
  /Title (unpopular-accu-clueweb.eps)
  /Subject (gnuplot plot)
  /Creator (gnuplot 4.6 patchlevel 4)
  /Author (zhaochen)
%  /Producer (gnuplot)
%  /Keywords ()
  /CreationDate (Sun Jun 14 23:56:30 2015)
  /DOCINFO pdfmark
end
} ifelse
end
%%EndProlog
%%Page: 1 1
gnudict begin
gsave
doclip
50 50 translate
0.100 0.100 scale
90 rotate
0 -5040 translate
0 setgray
newpath
(Helvetica) findfont 140 scalefont setfont
BackgroundColor 0 lt 3 1 roll 0 lt exch 0 lt or or not {gsave BackgroundColor C clippath fill grestore} if
1.000 UL
LTb
LCb setrgbcolor
686 657 M
63 0 V
3318 0 R
-63 0 V
602 657 M
( 0) Rshow
1.000 UL
LTb
LCb setrgbcolor
686 1076 M
63 0 V
3318 0 R
-63 0 V
-3402 0 R
( 20) Rshow
1.000 UL
LTb
LCb setrgbcolor
686 1495 M
63 0 V
3318 0 R
-63 0 V
-3402 0 R
( 40) Rshow
1.000 UL
LTb
LCb setrgbcolor
686 1913 M
63 0 V
3318 0 R
-63 0 V
-3402 0 R
( 60) Rshow
1.000 UL
LTb
LCb setrgbcolor
686 2332 M
63 0 V
3318 0 R
-63 0 V
-3402 0 R
( 80) Rshow
1.000 UL
LTb
LCb setrgbcolor
686 2750 M
63 0 V
3318 0 R
-63 0 V
-3402 0 R
( 100) Rshow
1.000 UL
LTb
LCb setrgbcolor
874 448 M
0 63 V
0 2344 R
0 -63 V
874 308 M
( 0.2) Cshow
1.000 UL
LTb
LCb setrgbcolor
1250 448 M
0 63 V
0 2344 R
0 -63 V
0 -2484 R
( 0.3) Cshow
1.000 UL
LTb
LCb setrgbcolor
1625 448 M
0 63 V
0 2344 R
0 -63 V
0 -2484 R
( 0.4) Cshow
1.000 UL
LTb
LCb setrgbcolor
2001 448 M
0 63 V
0 2344 R
0 -63 V
0 -2484 R
( 0.5) Cshow
1.000 UL
LTb
LCb setrgbcolor
2377 448 M
0 63 V
0 2344 R
0 -63 V
0 -2484 R
( 0.6) Cshow
1.000 UL
LTb
LCb setrgbcolor
2752 448 M
0 63 V
0 2344 R
0 -63 V
0 -2484 R
( 0.7) Cshow
1.000 UL
LTb
LCb setrgbcolor
3128 448 M
0 63 V
0 2344 R
0 -63 V
0 -2484 R
( 0.8) Cshow
1.000 UL
LTb
LCb setrgbcolor
3503 448 M
0 63 V
0 2344 R
0 -63 V
0 -2484 R
( 0.9) Cshow
1.000 UL
LTb
LCb setrgbcolor
3879 448 M
0 63 V
0 2344 R
0 -63 V
0 -2484 R
( 1) Cshow
1.000 UL
LTb
LCb setrgbcolor
1.000 UL
LTb
LCb setrgbcolor
686 2855 N
686 448 L
3381 0 V
0 2407 V
-3381 0 V
Z stroke
LCb setrgbcolor
112 1651 M
currentpoint gsave translate -270 rotate 0 0 M
(Accuracy) Cshow
grestore
LTb
LCb setrgbcolor
2376 98 M
(Popularity) Cshow
LTb
1.000 UP
1.000 UL
LTb
LCb setrgbcolor
% Begin plot #1
1.000 UP
3.000 UL
LT0
1.00 0.00 0.00 C LCb setrgbcolor
/Helvetica findfont 100 scalefont setfont
/vshift -33 def
2807 1141 M
(REL-RW) Rshow
/Helvetica findfont 140 scalefont setfont
/vshift -46 def
LT0
1.00 0.00 0.00 C 2891 1141 M
231 0 V
874 1668 M
376 363 V
375 50 V
376 -10 V
376 150 V
375 124 V
376 87 V
376 10 V
375 208 V
874 1668 Pls
1250 2031 Pls
1625 2081 Pls
2001 2071 Pls
2377 2221 Pls
2752 2345 Pls
3128 2432 Pls
3504 2442 Pls
3879 2650 Pls
3006 1141 Pls
% End plot #1
% Begin plot #2
1.000 UP
3.000 UL
LT1
0.00 1.00 0.00 C LCb setrgbcolor
/Helvetica findfont 100 scalefont setfont
/vshift -33 def
2807 1001 M
(L2R-CoNLL) Rshow
/Helvetica findfont 140 scalefont setfont
/vshift -46 def
LT1
0.00 1.00 0.00 C 2891 1001 M
231 0 V
874 1899 M
376 189 V
375 72 V
376 -35 V
376 80 V
375 87 V
376 108 V
376 4 V
375 177 V
874 1899 Crs
1250 2088 Crs
1625 2160 Crs
2001 2125 Crs
2377 2205 Crs
2752 2292 Crs
3128 2400 Crs
3504 2404 Crs
3879 2581 Crs
3006 1001 Crs
% End plot #2
% Begin plot #3
1.000 UP
3.000 UL
LT2
0.00 0.00 0.00 C LCb setrgbcolor
/Helvetica findfont 100 scalefont setfont
/vshift -33 def
2807 861 M
(Han11) Rshow
/Helvetica findfont 140 scalefont setfont
/vshift -46 def
LT2
0.00 0.00 0.00 C 2891 861 M
231 0 V
874 1709 M
376 286 V
375 -53 V
376 -86 V
376 36 V
375 16 V
376 50 V
376 -2 V
375 76 V
874 1709 Star
1250 1995 Star
1625 1942 Star
2001 1856 Star
2377 1892 Star
2752 1908 Star
3128 1958 Star
3504 1956 Star
3879 2032 Star
3006 861 Star
% End plot #3
% Begin plot #4
1.000 UP
3.000 UL
LT3
0.00 0.00 1.00 C LCb setrgbcolor
/Helvetica findfont 100 scalefont setfont
/vshift -33 def
2807 721 M
(M&W) Rshow
/Helvetica findfont 140 scalefont setfont
/vshift -46 def
LT3
0.00 0.00 1.00 C 2891 721 M
231 0 V
874 1484 M
376 307 V
375 -60 V
376 58 V
376 219 V
375 118 V
376 40 V
376 118 V
375 151 V
874 1484 Box
1250 1791 Box
1625 1731 Box
2001 1789 Box
2377 2008 Box
2752 2126 Box
3128 2166 Box
3504 2284 Box
3879 2435 Box
3006 721 Box
% End plot #4
% Begin plot #5
1.000 UP
3.000 UL
LT4
0.65 0.16 0.16 C LCb setrgbcolor
/Helvetica findfont 100 scalefont setfont
/vshift -33 def
2807 581 M
(RI) Rshow
/Helvetica findfont 140 scalefont setfont
/vshift -46 def
LT4
0.65 0.16 0.16 C 2891 581 M
231 0 V
874 1616 M
376 147 V
375 128 V
376 59 V
376 132 V
375 177 V
376 9 V
376 139 V
375 63 V
874 1616 BoxF
1250 1763 BoxF
1625 1891 BoxF
2001 1950 BoxF
2377 2082 BoxF
2752 2259 BoxF
3128 2268 BoxF
3504 2407 BoxF
3879 2470 BoxF
3006 581 BoxF
% End plot #5
% Begin plot #6
1.000 UP
3.000 UL
LT5
1.00 0.65 0.00 C LCb setrgbcolor
/Helvetica findfont 100 scalefont setfont
/vshift -33 def
3584 1141 M
(Cucerzan) Rshow
/Helvetica findfont 140 scalefont setfont
/vshift -46 def
LT5
1.00 0.65 0.00 C 3668 1141 M
231 0 V
874 1480 M
376 231 V
375 101 V
376 58 V
376 85 V
375 51 V
376 47 V
376 -24 V
375 172 V
874 1480 Circle
1250 1711 Circle
1625 1812 Circle
2001 1870 Circle
2377 1955 Circle
2752 2006 Circle
3128 2053 Circle
3504 2029 Circle
3879 2201 Circle
3783 1141 Circle
% End plot #6
% Begin plot #7
1.000 UP
3.000 UL
LT6
0.86 0.08 0.24 C LCb setrgbcolor
/Helvetica findfont 100 scalefont setfont
/vshift -33 def
3584 1001 M
(GLOW) Rshow
/Helvetica findfont 140 scalefont setfont
/vshift -46 def
LT6
0.86 0.08 0.24 C 3668 1001 M
231 0 V
874 1424 M
376 95 V
375 98 V
376 22 V
376 182 V
375 158 V
376 18 V
376 190 V
375 109 V
874 1424 CircleF
1250 1519 CircleF
1625 1617 CircleF
2001 1639 CircleF
2377 1821 CircleF
2752 1979 CircleF
3128 1997 CircleF
3504 2187 CircleF
3879 2296 CircleF
3783 1001 CircleF
% End plot #7
% Begin plot #8
1.000 UP
3.000 UL
LT7
0.50 0.00 0.00 C LCb setrgbcolor
/Helvetica findfont 100 scalefont setfont
/vshift -33 def
3584 861 M
(Local) Rshow
/Helvetica findfont 140 scalefont setfont
/vshift -46 def
LT7
0.50 0.00 0.00 C 3668 861 M
231 0 V
874 1377 M
376 270 V
375 -103 V
376 -67 V
376 21 V
375 -42 V
376 95 V
376 -48 V
375 164 V
874 1377 TriU
1250 1647 TriU
1625 1544 TriU
2001 1477 TriU
2377 1498 TriU
2752 1456 TriU
3128 1551 TriU
3504 1503 TriU
3879 1667 TriU
3783 861 TriU
% End plot #8
% Begin plot #9
1.000 UP
3.000 UL
LT8
0.75 0.50 1.00 C LCb setrgbcolor
/Helvetica findfont 100 scalefont setfont
/vshift -33 def
3584 721 M
(AIDA) Rshow
/Helvetica findfont 140 scalefont setfont
/vshift -46 def
LT8
0.75 0.50 1.00 C 3668 721 M
231 0 V
874 1437 M
376 318 V
375 83 V
376 57 V
376 20 V
375 125 V
376 -36 V
376 107 V
375 -16 V
874 1437 TriUF
1250 1755 TriUF
1625 1838 TriUF
2001 1895 TriUF
2377 1915 TriUF
2752 2040 TriUF
3128 2004 TriUF
3504 2111 TriUF
3879 2095 TriUF
3783 721 TriUF
% End plot #9
% Begin plot #10
1.000 UP
3.000 UL
LT0
0.00 0.50 0.50 C LCb setrgbcolor
/Helvetica findfont 100 scalefont setfont
/vshift -33 def
3584 581 M
(PriorProb) Rshow
/Helvetica findfont 140 scalefont setfont
/vshift -46 def
LT0
0.00 0.50 0.50 C 3668 581 M
231 0 V
874 1194 M
376 235 V
375 180 V
376 213 V
376 218 V
375 211 V
376 179 V
376 193 V
375 127 V
874 1194 TriD
1250 1429 TriD
1625 1609 TriD
2001 1822 TriD
2377 2040 TriD
2752 2251 TriD
3128 2430 TriD
3504 2623 TriD
3879 2750 TriD
3783 581 TriD
% End plot #10
% Begin plot #11
1.000 UL
LT1
LC1 setrgbcolor
874 553 M
0 2 V
0 2 V
0 2 V
0 2 V
0 2 V
0 2 V
0 2 V
0 3 V
0 2 V
0 2 V
0 2 V
0 2 V
0 2 V
0 2 V
0 2 V
0 2 V
0 3 V
0 2 V
0 2 V
0 2 V
0 2 V
0 2 V
0 2 V
0 2 V
0 3 V
0 2 V
0 2 V
0 2 V
0 2 V
0 2 V
0 2 V
0 2 V
0 2 V
0 3 V
0 2 V
0 2 V
0 2 V
0 2 V
0 2 V
0 2 V
0 2 V
0 2 V
0 3 V
0 2 V
0 2 V
0 2 V
0 2 V
0 2 V
0 2 V
0 2 V
0 2 V
0 3 V
0 2 V
0 2 V
0 2 V
0 2 V
0 2 V
0 2 V
0 2 V
0 3 V
0 2 V
0 2 V
0 2 V
0 2 V
0 2 V
0 2 V
0 2 V
0 2 V
0 3 V
0 2 V
0 2 V
0 2 V
0 2 V
0 2 V
0 2 V
0 2 V
0 2 V
0 3 V
0 2 V
0 2 V
0 2 V
0 2 V
0 2 V
0 2 V
0 2 V
0 2 V
0 3 V
0 2 V
0 2 V
0 2 V
0 2 V
0 2 V
0 2 V
0 2 V
0 2 V
0 3 V
0 2 V
0 2 V
0 2 V
% End plot #11
stroke
LTb
LCb setrgbcolor
686 2855 N
686 448 L
3381 0 V
0 2407 V
-3381 0 V
Z stroke
1.000 UP
1.000 UL
LTb
LCb setrgbcolor
stroke
grestore
end
showpage
%%Trailer
%%DocumentFonts: Helvetica
%%Pages: 1
