fileName	bracket	sentenceNum	tokenNum	mentionNum	avgCandidateNum	nodeNum	edgeNum	avgDegree
20001115_AFP_ARB.0093.eng	0.8	9	298	7	120.86	432080	1256340	2.91
PRI20001128.2000.0055	0.8	31	552	10	107.40	223324	955838	4.28
20001115_AFP_ARB.0072.eng	1.0	5	188	3	75.33	75357	267314	3.55
20001115_AFP_ARB.0210.eng	0.8	1	37	5	308.40	442808	1448874	3.27
20000815_AFP_ARB.0071.eng	1.0	9	298	6	86.17	112911	437496	3.87
VOA20001020.2100.1853	1.0	2	62	3	97.00	105684	334784	3.17
20001115_AFP_ARB.0184.eng	1.0	10	334	4	47.50	68538	231752	3.38
PRI20001122.2000.0320	0.7	4	72	4	199.25	168943	516108	3.05
20001115_AFP_ARB.0061.eng	1.0	3	123	4	21.25	25442	69174	2.72
20000715_AFP_ARB.0072.eng	0.8	14	449	6	106.83	225837	985240	4.36
20001015_AFP_ARB.0053.eng	0.8	8	320	8	87.12	166598	628990	3.78
VOA20001220.2000.0060	1.0	10	167	3	203.67	440872	1419178	3.22
chtb_165.eng	0.8	12	422	11	111.82	502155	2302656	4.59
20001115_AFP_ARB.0089.eng	0.9	9	361	13	52.46	101231	399384	3.95
PRI20001201.2000.1828	0.7	10	246	8	158.50	360092	1566956	4.35
20001115_AFP_ARB.0060.eng	1.0	16	524	4	65.00	79367	233684	2.94
NYT20001124.2050.0257	1.0	36	812	16	175.56	499927	2592430	5.19
20001115_AFP_ARB.0217.eng	0.8	6	224	6	82.00	142573	408674	2.87
chtb_267.eng	1.0	22	619	18	94.33	507277	2556928	5.04
20001015_AFP_ARB.0229.eng	0.8	3	141	5	113.60	238370	716440	3.01
NYT20001129.2040.0383	0.6	29	943	7	47.29	134793	441376	3.27
NYT20001217.2241.0165	0.6	63	916	16	120.44	398308	2637220	6.62
APW20001001.2021.0521	0.8	22	547	9	204.56	269467	1574146	5.84
20001115_AFP_ARB.0212.eng	0.8	5	191	10	26.30	451590	1536356	3.40
20001115_AFP_ARB.0065.eng	0.7	10	385	11	109.18	290531	1423246	4.90
NYT20001125.1558.0117	0.8	32	734	8	146.38	313331	1617072	5.16
VOA20001129.2000.0364	0.6	32	743	9	178.11	260720	1377938	5.29
20001115_AFP_ARB.0030.eng	0.7	7	209	4	87.75	92505	307932	3.33
NYT20001101.2212.0429	0.6	29	793	19	84.32	307843	1776420	5.77
20001115_AFP_ARB.0013.eng	1.0	6	293	4	37.50	106345	277746	2.61
PRI20001031.2000.1824	1.0	11	192	5	177.20	371813	1559806	4.20
NYT20001106.1705.0187	0.9	31	810	11	240.00	325791	2176052	6.68
NYT20001109.1946.0315	0.8	44	956	17	126.88	472177	2396566	5.08
NYT20001123.1511.0062	0.7	28	887	27	25.89	238518	1203910	5.05
VOA20001223.2000.0139	0.6	4	73	3	96.67	15124	40422	2.67
