%!PS-Adobe-3.0 EPSF-3.0
%%DocumentNeededResources: font Helvetica
%%+ font Helvetica-Bold
%%+ font Helvetica-Oblique
%%+ font Helvetica-BoldOblique
%%+ font Symbol
%%Title: R Graphics Output
%%Creator: R Software
%%Pages: (atend)
%%BoundingBox: 0 0 360 252
%%EndComments
%%BeginProlog
/bp  { gs sRGB gs } def
% begin .ps.prolog
/gs  { gsave } bind def
/gr  { grestore } bind def
/ep  { showpage gr gr } bind def
/m   { moveto } bind def
/l  { rlineto } bind def
/np  { newpath } bind def
/cp  { closepath } bind def
/f   { fill } bind def
/o   { stroke } bind def
/c   { newpath 0 360 arc } bind def
/r   { 4 2 roll moveto 1 copy 3 -1 roll exch 0 exch rlineto 0 rlineto -1 mul 0 exch rlineto closepath } bind def
/p1  { stroke } bind def
/p2  { gsave bg fill grestore newpath } bind def
/p3  { gsave bg fill grestore stroke } bind def
/p6  { gsave bg eofill grestore newpath } bind def
/p7  { gsave bg eofill grestore stroke } bind def
/t   { 5 -2 roll moveto gsave rotate
       1 index stringwidth pop
       mul neg 0 rmoveto show grestore } bind def
/ta  { 4 -2 roll moveto gsave rotate show } bind def
/tb  { 2 -1 roll 0 rmoveto show } bind def
/cl  { grestore gsave newpath 3 index 3 index moveto 1 index
       4 -1 roll lineto  exch 1 index lineto lineto
       closepath clip newpath } bind def
/rgb { setrgbcolor } bind def
/s   { scalefont setfont } bind def
% end   .ps.prolog
/sRGB { [ /CIEBasedABC
          << /DecodeLMN
               [ { dup 0.03928 le
                        {12.92321 div}
                        {0.055 add 1.055 div 2.4 exp }
                     ifelse
                 } bind dup dup
               ]
             /MatrixLMN [0.412457 0.212673 0.019334
                         0.357576 0.715152 0.119192
                         0.180437 0.072175 0.950301]
             /WhitePoint [0.9505 1.0 1.0890]
           >>
         ] setcolorspace } bind def
/srgb { setcolor } bind def
%%IncludeResource: font Helvetica
/Helvetica findfont
dup length dict begin
  {1 index /FID ne {def} {pop pop} ifelse} forall
  /Encoding ISOLatin1Encoding def
  currentdict
  end
/Font1 exch definefont pop
%%IncludeResource: font Helvetica-Bold
/Helvetica-Bold findfont
dup length dict begin
  {1 index /FID ne {def} {pop pop} ifelse} forall
  /Encoding ISOLatin1Encoding def
  currentdict
  end
/Font2 exch definefont pop
%%IncludeResource: font Helvetica-Oblique
/Helvetica-Oblique findfont
dup length dict begin
  {1 index /FID ne {def} {pop pop} ifelse} forall
  /Encoding ISOLatin1Encoding def
  currentdict
  end
/Font3 exch definefont pop
%%IncludeResource: font Helvetica-BoldOblique
/Helvetica-BoldOblique findfont
dup length dict begin
  {1 index /FID ne {def} {pop pop} ifelse} forall
  /Encoding ISOLatin1Encoding def
  currentdict
  end
/Font4 exch definefont pop
%%IncludeResource: font Symbol
/Symbol findfont
dup length dict begin
  {1 index /FID ne {def} {pop pop} ifelse} forall
  currentdict
  end
/Font5 exch definefont pop
%%EndProlog
%%Page: 1 1
bp
0.00 0.00 360.00 252.00 cl
0.00 0.00 360.00 252.00 cl
0.00 0.00 360.00 252.00 cl
/bg { 1 1 1 srgb } def
1 1 1 srgb
1.06 setlinewidth
[] 0 setdash
1 setlinecap
1 setlinejoin
10.00 setmiterlimit
0.00 -0.00 360.00 252.00 r p3
0.00 0.00 360.00 252.00 cl
0.00 0.00 360.00 252.00 cl
0.00 0.00 360.00 252.00 cl
44.00 37.28 345.60 237.60 cl
/bg { 1 1 1 srgb } def
44.00 37.28 301.60 200.32 r p2
0.9804 0.9804 0.9804 srgb
1.06 setlinewidth
[] 0 setdash
0 setlinecap
1 setlinejoin
10.00 setmiterlimit
np
44.00 46.39 m
301.60 0 l
o
np
44.00 98.42 m
301.60 0 l
o
np
44.00 150.45 m
301.60 0 l
o
np
44.00 202.48 m
301.60 0 l
o
np
57.71 37.28 m
0 200.32 l
o
np
136.05 37.28 m
0 200.32 l
o
np
214.39 37.28 m
0 200.32 l
o
np
292.72 37.28 m
0 200.32 l
o
0.8980 0.8980 0.8980 srgb
0.43 setlinewidth
[] 0 setdash
np
44.00 72.40 m
301.60 0 l
o
np
44.00 124.43 m
301.60 0 l
o
np
44.00 176.46 m
301.60 0 l
o
np
44.00 228.49 m
301.60 0 l
o
np
96.88 37.28 m
0 200.32 l
o
np
175.22 37.28 m
0 200.32 l
o
np
253.55 37.28 m
0 200.32 l
o
np
331.89 37.28 m
0 200.32 l
o
0.1333 0.1333 0.1333 srgb
1.59 setlinewidth
[] 0 setdash
1.00 setmiterlimit
np
57.71 139.33 m
39.17 -4.23 l
39.17 22.18 l
39.17 7.35 l
39.17 1.69 l
39.16 21.53 l
39.17 10.08 l
39.17 13.33 l
o
1.59 setlinewidth
[ 3.19 3.19] 0 setdash
np
57.71 121.57 m
39.17 2.86 l
39.17 18.34 l
39.17 19.65 l
39.17 13.65 l
39.16 16.59 l
39.17 10.53 l
39.17 17.89 l
o
1.59 setlinewidth
[ 6.38 3.19] 0 setdash
np
57.71 92.43 m
39.17 10.28 l
39.17 14.76 l
39.17 25.43 l
39.17 16.00 l
39.16 13.34 l
39.17 17.69 l
39.17 3.12 l
o
1.59 setlinewidth
[ 6.38 6.38] 0 setdash
np
57.71 110.71 m
39.17 -6.57 l
39.17 7.03 l
39.17 19.38 l
39.17 2.21 l
39.16 22.37 l
39.17 18.86 l
39.17 6.96 l
o
1.59 setlinewidth
[ 1.59 4.78] 0 setdash
np
57.71 122.29 m
39.17 -19.25 l
39.17 19.64 l
39.17 10.08 l
39.17 -9.04 l
39.16 9.49 l
39.17 5.14 l
39.17 -1.17 l
o
0.75 setlinewidth
[] 0 setdash
1 setlinecap
10.00 setmiterlimit
55.05 119.63 5.31 5.31 r p1
np
55.05 119.63 m
5.32 5.31 l
o
np
55.05 124.94 m
5.32 -5.31 l
o
np
53.95 110.71 m
7.52 0 l
o
np
57.71 106.95 m
0 7.52 l
o
/bg { 0.1333 0.1333 0.1333 srgb } def
np
 55.05 89.78 m
5.32 0 l
0 5.31 l
-5.32 0 l
cp p2
np
 57.71 125.70 m
3.58 -6.19 l
-7.16 0 l
cp p2
57.71 139.33 2.66 c p2
94.22 100.38 5.31 5.31 r p1
np
94.22 100.38 m
5.32 5.31 l
o
np
94.22 105.69 m
5.32 -5.31 l
o
np
93.12 104.14 m
7.52 0 l
o
np
96.88 100.38 m
0 7.52 l
o
np
 94.22 100.05 m
5.32 0 l
0 5.32 l
-5.32 0 l
cp p2
np
 96.88 128.57 m
3.58 -6.20 l
-7.16 0 l
cp p2
96.88 135.10 2.66 c p2
133.39 120.02 5.31 5.31 r p1
np
133.39 120.02 m
5.32 5.32 l
o
np
133.39 125.34 m
5.32 -5.32 l
o
np
132.29 111.17 m
7.52 0 l
o
np
136.05 107.41 m
0 7.51 l
o
np
 133.39 114.82 m
5.32 0 l
0 5.31 l
-5.32 0 l
cp p2
np
 136.05 146.91 m
3.58 -6.20 l
-7.16 0 l
cp p2
136.05 157.28 2.66 c p2
172.56 130.10 5.31 5.31 r p1
np
172.56 130.10 m
5.31 5.32 l
o
np
172.56 135.42 m
5.31 -5.32 l
o
np
171.46 130.55 m
7.52 0 l
o
np
175.22 126.79 m
0 7.52 l
o
np
 172.56 140.25 m
5.31 0 l
0 5.31 l
-5.31 0 l
cp p2
np
 175.22 166.55 m
3.58 -6.20 l
-7.16 0 l
cp p2
175.22 164.63 2.66 c p2
211.73 121.06 5.31 5.31 r p1
np
211.73 121.06 m
5.31 5.32 l
o
np
211.73 126.38 m
5.31 -5.32 l
o
np
210.63 132.76 m
7.51 0 l
o
np
214.39 129.00 m
0 7.52 l
o
np
 211.73 156.25 m
5.31 0 l
0 5.31 l
-5.31 0 l
cp p2
np
 214.39 180.21 m
3.57 -6.20 l
-7.15 0 l
cp p2
214.39 166.32 2.66 c p2
250.90 130.56 5.31 5.31 r p1
np
250.90 130.56 m
5.31 5.31 l
o
np
250.90 135.87 m
5.31 -5.31 l
o
np
249.80 155.13 m
7.51 0 l
o
np
253.55 151.37 m
0 7.52 l
o
np
 250.90 169.58 m
5.31 0 l
0 5.31 l
-5.31 0 l
cp p2
np
 253.55 196.79 m
3.58 -6.20 l
-7.15 0 l
cp p2
253.55 187.85 2.66 c p2
290.07 135.69 5.31 5.31 r p1
np
290.07 135.69 m
5.31 5.32 l
o
np
290.07 141.01 m
5.31 -5.32 l
o
np
288.96 173.99 m
7.52 0 l
o
np
292.72 170.23 m
0 7.52 l
o
np
 290.07 187.27 m
5.31 0 l
0 5.31 l
-5.31 0 l
cp p2
np
 292.72 207.33 m
3.58 -6.20 l
-7.16 0 l
cp p2
292.72 197.93 2.66 c p2
329.23 134.52 5.31 5.31 r p1
np
329.23 134.52 m
5.32 5.32 l
o
np
329.23 139.84 m
5.32 -5.32 l
o
np
328.13 180.95 m
7.52 0 l
o
np
331.89 177.19 m
0 7.52 l
o
np
 329.23 190.39 m
5.32 0 l
0 5.32 l
-5.32 0 l
cp p2
np
 331.89 225.21 m
3.58 -6.20 l
-7.16 0 l
cp p2
331.89 211.26 2.66 c p2
0 0 0 srgb
0.53 setlinewidth
[ 0.53 1.59] 0 setdash
0 setlinecap
1.00 setmiterlimit
np
57.71 46.39 m
2.74 1.82 l
2.75 1.82 l
2.74 1.82 l
2.74 1.82 l
2.74 1.82 l
2.74 1.82 l
2.74 1.83 l
2.75 1.82 l
2.74 1.82 l
2.74 1.82 l
2.74 1.82 l
2.74 1.82 l
2.74 1.82 l
2.75 1.82 l
2.74 1.82 l
2.74 1.83 l
2.74 1.82 l
2.74 1.82 l
2.75 1.82 l
2.74 1.82 l
2.74 1.82 l
2.74 1.82 l
2.74 1.82 l
2.74 1.82 l
2.75 1.82 l
2.74 1.83 l
2.74 1.82 l
2.74 1.82 l
2.74 1.82 l
2.75 1.82 l
2.74 1.82 l
2.74 1.82 l
2.74 1.82 l
2.74 1.82 l
2.74 1.83 l
2.75 1.82 l
2.74 1.82 l
2.74 1.82 l
2.74 1.82 l
2.74 1.82 l
2.75 1.82 l
2.74 1.82 l
2.74 1.82 l
2.74 1.82 l
2.74 1.83 l
2.74 1.82 l
2.75 1.82 l
2.74 1.82 l
2.74 1.82 l
2.74 1.82 l
2.74 1.82 l
2.74 1.82 l
2.75 1.82 l
2.74 1.83 l
2.74 1.82 l
2.74 1.82 l
2.74 1.82 l
2.75 1.82 l
2.74 1.82 l
2.74 1.82 l
2.74 1.82 l
2.74 1.82 l
2.74 1.83 l
2.75 1.82 l
2.74 1.82 l
2.74 1.82 l
2.74 1.82 l
2.74 1.82 l
2.75 1.82 l
2.74 1.82 l
2.74 1.82 l
2.74 1.82 l
2.74 1.83 l
2.74 1.82 l
2.75 1.82 l
2.74 1.82 l
2.74 1.82 l
2.74 1.82 l
2.74 1.82 l
2.75 1.82 l
2.74 1.82 l
2.74 1.83 l
2.74 1.82 l
2.74 1.82 l
2.74 1.82 l
2.75 1.82 l
2.74 1.82 l
2.74 1.82 l
2.74 1.82 l
2.74 1.82 l
2.74 1.83 l
2.75 1.82 l
2.74 1.82 l
2.74 1.82 l
2.74 1.82 l
2.74 1.82 l
2.75 1.82 l
2.74 1.82 l
2.74 1.82 l
331.89 228.49 lineto
o
np
57.71 46.39 m
2.74 1.82 l
2.75 1.82 l
2.74 1.82 l
2.74 1.82 l
2.74 1.82 l
2.74 1.82 l
2.74 1.83 l
2.75 1.82 l
2.74 1.82 l
2.74 1.82 l
2.74 1.82 l
2.74 1.82 l
2.74 1.82 l
2.75 1.82 l
2.74 1.82 l
2.74 1.83 l
2.74 1.82 l
2.74 1.82 l
2.75 1.82 l
2.74 1.82 l
2.74 1.82 l
2.74 1.82 l
2.74 1.82 l
2.74 1.82 l
2.75 1.82 l
2.74 1.83 l
2.74 1.82 l
2.74 1.82 l
2.74 1.82 l
2.75 1.82 l
2.74 1.82 l
2.74 1.82 l
2.74 1.82 l
2.74 1.82 l
2.74 1.83 l
2.75 1.82 l
2.74 1.82 l
2.74 1.82 l
2.74 1.82 l
2.74 1.82 l
2.75 1.82 l
2.74 1.82 l
2.74 1.82 l
2.74 1.82 l
2.74 1.83 l
2.74 1.82 l
2.75 1.82 l
2.74 1.82 l
2.74 1.82 l
2.74 1.82 l
2.74 1.82 l
2.74 1.82 l
2.75 1.82 l
2.74 1.83 l
2.74 1.82 l
2.74 1.82 l
2.74 1.82 l
2.75 1.82 l
2.74 1.82 l
2.74 1.82 l
2.74 1.82 l
2.74 1.82 l
2.74 1.83 l
2.75 1.82 l
2.74 1.82 l
2.74 1.82 l
2.74 1.82 l
2.74 1.82 l
2.75 1.82 l
2.74 1.82 l
2.74 1.82 l
2.74 1.82 l
2.74 1.83 l
2.74 1.82 l
2.75 1.82 l
2.74 1.82 l
2.74 1.82 l
2.74 1.82 l
2.74 1.82 l
2.75 1.82 l
2.74 1.82 l
2.74 1.83 l
2.74 1.82 l
2.74 1.82 l
2.74 1.82 l
2.75 1.82 l
2.74 1.82 l
2.74 1.82 l
2.74 1.82 l
2.74 1.82 l
2.74 1.83 l
2.75 1.82 l
2.74 1.82 l
2.74 1.82 l
2.74 1.82 l
2.74 1.82 l
2.75 1.82 l
2.74 1.82 l
2.74 1.82 l
331.89 228.49 lineto
o
np
57.71 46.39 m
2.74 1.82 l
2.75 1.82 l
2.74 1.82 l
2.74 1.82 l
2.74 1.82 l
2.74 1.82 l
2.74 1.83 l
2.75 1.82 l
2.74 1.82 l
2.74 1.82 l
2.74 1.82 l
2.74 1.82 l
2.74 1.82 l
2.75 1.82 l
2.74 1.82 l
2.74 1.83 l
2.74 1.82 l
2.74 1.82 l
2.75 1.82 l
2.74 1.82 l
2.74 1.82 l
2.74 1.82 l
2.74 1.82 l
2.74 1.82 l
2.75 1.82 l
2.74 1.83 l
2.74 1.82 l
2.74 1.82 l
2.74 1.82 l
2.75 1.82 l
2.74 1.82 l
2.74 1.82 l
2.74 1.82 l
2.74 1.82 l
2.74 1.83 l
2.75 1.82 l
2.74 1.82 l
2.74 1.82 l
2.74 1.82 l
2.74 1.82 l
2.75 1.82 l
2.74 1.82 l
2.74 1.82 l
2.74 1.82 l
2.74 1.83 l
2.74 1.82 l
2.75 1.82 l
2.74 1.82 l
2.74 1.82 l
2.74 1.82 l
2.74 1.82 l
2.74 1.82 l
2.75 1.82 l
2.74 1.83 l
2.74 1.82 l
2.74 1.82 l
2.74 1.82 l
2.75 1.82 l
2.74 1.82 l
2.74 1.82 l
2.74 1.82 l
2.74 1.82 l
2.74 1.83 l
2.75 1.82 l
2.74 1.82 l
2.74 1.82 l
2.74 1.82 l
2.74 1.82 l
2.75 1.82 l
2.74 1.82 l
2.74 1.82 l
2.74 1.82 l
2.74 1.83 l
2.74 1.82 l
2.75 1.82 l
2.74 1.82 l
2.74 1.82 l
2.74 1.82 l
2.74 1.82 l
2.75 1.82 l
2.74 1.82 l
2.74 1.83 l
2.74 1.82 l
2.74 1.82 l
2.74 1.82 l
2.75 1.82 l
2.74 1.82 l
2.74 1.82 l
2.74 1.82 l
2.74 1.82 l
2.74 1.83 l
2.75 1.82 l
2.74 1.82 l
2.74 1.82 l
2.74 1.82 l
2.74 1.82 l
2.75 1.82 l
2.74 1.82 l
2.74 1.82 l
331.89 228.49 lineto
o
np
57.71 46.39 m
2.74 1.82 l
2.75 1.82 l
2.74 1.82 l
2.74 1.82 l
2.74 1.82 l
2.74 1.82 l
2.74 1.83 l
2.75 1.82 l
2.74 1.82 l
2.74 1.82 l
2.74 1.82 l
2.74 1.82 l
2.74 1.82 l
2.75 1.82 l
2.74 1.82 l
2.74 1.83 l
2.74 1.82 l
2.74 1.82 l
2.75 1.82 l
2.74 1.82 l
2.74 1.82 l
2.74 1.82 l
2.74 1.82 l
2.74 1.82 l
2.75 1.82 l
2.74 1.83 l
2.74 1.82 l
2.74 1.82 l
2.74 1.82 l
2.75 1.82 l
2.74 1.82 l
2.74 1.82 l
2.74 1.82 l
2.74 1.82 l
2.74 1.83 l
2.75 1.82 l
2.74 1.82 l
2.74 1.82 l
2.74 1.82 l
2.74 1.82 l
2.75 1.82 l
2.74 1.82 l
2.74 1.82 l
2.74 1.82 l
2.74 1.83 l
2.74 1.82 l
2.75 1.82 l
2.74 1.82 l
2.74 1.82 l
2.74 1.82 l
2.74 1.82 l
2.74 1.82 l
2.75 1.82 l
2.74 1.83 l
2.74 1.82 l
2.74 1.82 l
2.74 1.82 l
2.75 1.82 l
2.74 1.82 l
2.74 1.82 l
2.74 1.82 l
2.74 1.82 l
2.74 1.83 l
2.75 1.82 l
2.74 1.82 l
2.74 1.82 l
2.74 1.82 l
2.74 1.82 l
2.75 1.82 l
2.74 1.82 l
2.74 1.82 l
2.74 1.82 l
2.74 1.83 l
2.74 1.82 l
2.75 1.82 l
2.74 1.82 l
2.74 1.82 l
2.74 1.82 l
2.74 1.82 l
2.75 1.82 l
2.74 1.82 l
2.74 1.83 l
2.74 1.82 l
2.74 1.82 l
2.74 1.82 l
2.75 1.82 l
2.74 1.82 l
2.74 1.82 l
2.74 1.82 l
2.74 1.82 l
2.74 1.83 l
2.75 1.82 l
2.74 1.82 l
2.74 1.82 l
2.74 1.82 l
2.74 1.82 l
2.75 1.82 l
2.74 1.82 l
2.74 1.82 l
331.89 228.49 lineto
o
np
57.71 46.39 m
2.74 1.82 l
2.75 1.82 l
2.74 1.82 l
2.74 1.82 l
2.74 1.82 l
2.74 1.82 l
2.74 1.83 l
2.75 1.82 l
2.74 1.82 l
2.74 1.82 l
2.74 1.82 l
2.74 1.82 l
2.74 1.82 l
2.75 1.82 l
2.74 1.82 l
2.74 1.83 l
2.74 1.82 l
2.74 1.82 l
2.75 1.82 l
2.74 1.82 l
2.74 1.82 l
2.74 1.82 l
2.74 1.82 l
2.74 1.82 l
2.75 1.82 l
2.74 1.83 l
2.74 1.82 l
2.74 1.82 l
2.74 1.82 l
2.75 1.82 l
2.74 1.82 l
2.74 1.82 l
2.74 1.82 l
2.74 1.82 l
2.74 1.83 l
2.75 1.82 l
2.74 1.82 l
2.74 1.82 l
2.74 1.82 l
2.74 1.82 l
2.75 1.82 l
2.74 1.82 l
2.74 1.82 l
2.74 1.82 l
2.74 1.83 l
2.74 1.82 l
2.75 1.82 l
2.74 1.82 l
2.74 1.82 l
2.74 1.82 l
2.74 1.82 l
2.74 1.82 l
2.75 1.82 l
2.74 1.83 l
2.74 1.82 l
2.74 1.82 l
2.74 1.82 l
2.75 1.82 l
2.74 1.82 l
2.74 1.82 l
2.74 1.82 l
2.74 1.82 l
2.74 1.83 l
2.75 1.82 l
2.74 1.82 l
2.74 1.82 l
2.74 1.82 l
2.74 1.82 l
2.75 1.82 l
2.74 1.82 l
2.74 1.82 l
2.74 1.82 l
2.74 1.83 l
2.74 1.82 l
2.75 1.82 l
2.74 1.82 l
2.74 1.82 l
2.74 1.82 l
2.74 1.82 l
2.75 1.82 l
2.74 1.82 l
2.74 1.83 l
2.74 1.82 l
2.74 1.82 l
2.74 1.82 l
2.75 1.82 l
2.74 1.82 l
2.74 1.82 l
2.74 1.82 l
2.74 1.82 l
2.74 1.83 l
2.75 1.82 l
2.74 1.82 l
2.74 1.82 l
2.74 1.82 l
2.74 1.82 l
2.75 1.82 l
2.74 1.82 l
2.74 1.82 l
331.89 228.49 lineto
o
0.4980 0.4980 0.4980 srgb
1.06 setlinewidth
[] 0 setdash
1 setlinecap
10.00 setmiterlimit
44.00 37.28 301.60 200.32 r p1
0.00 0.00 360.00 252.00 cl
0.00 0.00 360.00 252.00 cl
0.00 0.00 360.00 252.00 cl
/Font1 findfont 10 s
0 0 0 srgb
36.92 68.81 (0.4) 1 0 t
36.92 120.84 (0.6) 1 0 t
36.92 172.87 (0.8) 1 0 t
36.92 224.90 (1.0) 1 0 t
0.00 0.00 360.00 252.00 cl
0.00 0.00 360.00 252.00 cl
0 0 0 srgb
1.06 setlinewidth
[] 0 setdash
0 setlinecap
1 setlinejoin
10.00 setmiterlimit
np
39.75 72.40 m
4.25 0 l
o
np
39.75 124.43 m
4.25 0 l
o
np
39.75 176.46 m
4.25 0 l
o
np
39.75 228.49 m
4.25 0 l
o
0.00 0.00 360.00 252.00 cl
0.00 0.00 360.00 252.00 cl
0.00 0.00 360.00 252.00 cl
0.00 0.00 360.00 252.00 cl
0.00 0.00 360.00 252.00 cl
0.00 0.00 360.00 252.00 cl
0 0 0 srgb
1.06 setlinewidth
[] 0 setdash
0 setlinecap
1 setlinejoin
10.00 setmiterlimit
np
96.88 33.03 m
0 4.25 l
o
np
175.22 33.03 m
0 4.25 l
o
np
253.55 33.03 m
0 4.25 l
o
np
331.89 33.03 m
0 4.25 l
o
0.00 0.00 360.00 252.00 cl
0.00 0.00 360.00 252.00 cl
/Font1 findfont 10 s
0 0 0 srgb
96.88 23.02 (0.4) .5 0 t
175.22 23.02 (0.6) .5 0 t
253.55 23.02 (0.8) .5 0 t
331.89 23.02 (1.0) .5 0 t
0.00 0.00 360.00 252.00 cl
0.00 0.00 360.00 252.00 cl
0.00 0.00 360.00 252.00 cl
0.00 0.00 360.00 252.00 cl
0.00 0.00 360.00 252.00 cl
/Font1 findfont 12 s
0 0 0 srgb
175.13 10.80 (br) 0 ta
-0.120 (ack) tb
-0.240 (et) tb gr
0.00 0.00 360.00 252.00 cl
0.00 0.00 360.00 252.00 cl
/Font1 findfont 12 s
0 0 0 srgb
19.42 113.44 (accur) 90 ta
-0.120 (acy) tb gr
0.00 0.00 360.00 252.00 cl
0.00 0.00 360.00 252.00 cl
0.00 0.00 360.00 252.00 cl
0.00 0.00 360.00 252.00 cl
0.00 0.00 360.00 252.00 cl
0.00 0.00 360.00 252.00 cl
/bg { 1 1 1 srgb } def
244.31 47.32 91.25 106.40 r p2
0.00 0.00 360.00 252.00 cl
0.00 0.00 360.00 252.00 cl
/Font2 findfont 10 s
0 0 0 srgb
248.57 142.29 (method) 0 0 t
0.00 0.00 360.00 252.00 cl
0.00 0.00 360.00 252.00 cl
/bg { 1 1 1 srgb } def
0.8000 0.8000 0.8000 srgb
1.06 setlinewidth
[] 0 setdash
1 setlinecap
1 setlinejoin
10.00 setmiterlimit
248.57 120.69 28.35 17.28 r p3
0.00 0.00 360.00 252.00 cl
0.00 0.00 360.00 252.00 cl
0.1333 0.1333 0.1333 srgb
1.59 setlinewidth
[] 0 setdash
0 setlinecap
1 setlinejoin
10.00 setmiterlimit
np
251.40 129.33 m
22.68 0 l
o
0.00 0.00 360.00 252.00 cl
0.00 0.00 360.00 252.00 cl
/bg { 0.1333 0.1333 0.1333 srgb } def
262.74 129.33 2.66 c p2
0.00 0.00 360.00 252.00 cl
0.00 0.00 360.00 252.00 cl
/bg { 1 1 1 srgb } def
0.8000 0.8000 0.8000 srgb
1.06 setlinewidth
[] 0 setdash
1 setlinecap
1 setlinejoin
10.00 setmiterlimit
248.57 103.41 28.35 17.28 r p3
0.00 0.00 360.00 252.00 cl
0.00 0.00 360.00 252.00 cl
0.1333 0.1333 0.1333 srgb
1.59 setlinewidth
[ 3.19 3.19] 0 setdash
0 setlinecap
1 setlinejoin
10.00 setmiterlimit
np
251.40 112.05 m
22.68 0 l
o
0.00 0.00 360.00 252.00 cl
0.00 0.00 360.00 252.00 cl
/bg { 0.1333 0.1333 0.1333 srgb } def
np
 262.74 116.18 m
3.58 -6.20 l
-7.16 0 l
cp p2
0.00 0.00 360.00 252.00 cl
0.00 0.00 360.00 252.00 cl
/bg { 1 1 1 srgb } def
0.8000 0.8000 0.8000 srgb
1.06 setlinewidth
[] 0 setdash
1 setlinecap
1 setlinejoin
10.00 setmiterlimit
248.57 86.13 28.35 17.28 r p3
0.00 0.00 360.00 252.00 cl
0.00 0.00 360.00 252.00 cl
0.1333 0.1333 0.1333 srgb
1.59 setlinewidth
[ 6.38 3.19] 0 setdash
0 setlinecap
1 setlinejoin
10.00 setmiterlimit
np
251.40 94.77 m
22.68 0 l
o
0.00 0.00 360.00 252.00 cl
0.00 0.00 360.00 252.00 cl
/bg { 0.1333 0.1333 0.1333 srgb } def
np
 260.08 92.11 m
5.32 0 l
0 5.32 l
-5.32 0 l
cp p2
0.00 0.00 360.00 252.00 cl
0.00 0.00 360.00 252.00 cl
/bg { 1 1 1 srgb } def
0.8000 0.8000 0.8000 srgb
1.06 setlinewidth
[] 0 setdash
1 setlinecap
1 setlinejoin
10.00 setmiterlimit
248.57 68.85 28.35 17.28 r p3
0.00 0.00 360.00 252.00 cl
0.00 0.00 360.00 252.00 cl
0.1333 0.1333 0.1333 srgb
1.59 setlinewidth
[ 6.38 6.38] 0 setdash
0 setlinecap
1 setlinejoin
10.00 setmiterlimit
np
251.40 77.49 m
22.68 0 l
o
0.00 0.00 360.00 252.00 cl
0.00 0.00 360.00 252.00 cl
0.1333 0.1333 0.1333 srgb
0.75 setlinewidth
[] 0 setdash
1 setlinecap
1 setlinejoin
10.00 setmiterlimit
np
258.98 77.49 m
7.52 0 l
o
np
262.74 73.73 m
0 7.52 l
o
0.00 0.00 360.00 252.00 cl
0.00 0.00 360.00 252.00 cl
/bg { 1 1 1 srgb } def
0.8000 0.8000 0.8000 srgb
1.06 setlinewidth
[] 0 setdash
1 setlinecap
1 setlinejoin
10.00 setmiterlimit
248.57 51.57 28.35 17.28 r p3
0.00 0.00 360.00 252.00 cl
0.00 0.00 360.00 252.00 cl
0.1333 0.1333 0.1333 srgb
1.59 setlinewidth
[ 1.59 4.78] 0 setdash
0 setlinecap
1 setlinejoin
10.00 setmiterlimit
np
251.40 60.21 m
22.68 0 l
o
0.00 0.00 360.00 252.00 cl
0.00 0.00 360.00 252.00 cl
0.1333 0.1333 0.1333 srgb
0.75 setlinewidth
[] 0 setdash
1 setlinecap
1 setlinejoin
10.00 setmiterlimit
260.08 57.55 5.31 5.31 r p1
np
260.08 57.55 m
5.32 5.32 l
o
np
260.08 62.87 m
5.32 -5.32 l
o
0.00 0.00 360.00 252.00 cl
0.00 0.00 360.00 252.00 cl
/Font1 findfont 10 s
0 0 0 srgb
279.07 125.74 (L2R.CoNLL) 0 0 t
0.00 0.00 360.00 252.00 cl
0.00 0.00 360.00 252.00 cl
/Font1 findfont 10 s
0 0 0 srgb
279.07 108.46 (WNED) 0 0 t
0.00 0.00 360.00 252.00 cl
0.00 0.00 360.00 252.00 cl
/Font1 findfont 10 s
0 0 0 srgb
279.07 91.18 (RI) 0 0 t
0.00 0.00 360.00 252.00 cl
0.00 0.00 360.00 252.00 cl
/Font1 findfont 10 s
0 0 0 srgb
279.07 73.90 (MW) 0 0 t
0.00 0.00 360.00 252.00 cl
0.00 0.00 360.00 252.00 cl
/Font1 findfont 10 s
0 0 0 srgb
279.07 56.62 (Han11) 0 0 t
0.00 0.00 360.00 252.00 cl
0.00 0.00 360.00 252.00 cl
0.00 0.00 360.00 252.00 cl
0.00 0.00 360.00 252.00 cl
0.00 0.00 360.00 252.00 cl
0.00 0.00 360.00 252.00 cl
0.00 0.00 360.00 252.00 cl
0.00 0.00 360.00 252.00 cl
0.00 0.00 360.00 252.00 cl
0.00 0.00 360.00 252.00 cl
0.00 0.00 360.00 252.00 cl
0.00 0.00 360.00 252.00 cl
ep
%%Trailer
%%Pages: 1
%%EOF
