%!PS-Adobe-3.0 EPSF-3.0
%%DocumentNeededResources: font Helvetica
%%+ font Helvetica-Bold
%%+ font Helvetica-Oblique
%%+ font Helvetica-BoldOblique
%%+ font Symbol
%%Title: R Graphics Output
%%Creator: R Software
%%Pages: (atend)
%%BoundingBox: 0 0 360 288
%%EndComments
%%BeginProlog
/bp  { gs sRGB gs } def
% begin .ps.prolog
/gs  { gsave } bind def
/gr  { grestore } bind def
/ep  { showpage gr gr } bind def
/m   { moveto } bind def
/l  { rlineto } bind def
/np  { newpath } bind def
/cp  { closepath } bind def
/f   { fill } bind def
/o   { stroke } bind def
/c   { newpath 0 360 arc } bind def
/r   { 4 2 roll moveto 1 copy 3 -1 roll exch 0 exch rlineto 0 rlineto -1 mul 0 exch rlineto closepath } bind def
/p1  { stroke } bind def
/p2  { gsave bg fill grestore newpath } bind def
/p3  { gsave bg fill grestore stroke } bind def
/p6  { gsave bg eofill grestore newpath } bind def
/p7  { gsave bg eofill grestore stroke } bind def
/t   { 5 -2 roll moveto gsave rotate
       1 index stringwidth pop
       mul neg 0 rmoveto show grestore } bind def
/ta  { 4 -2 roll moveto gsave rotate show } bind def
/tb  { 2 -1 roll 0 rmoveto show } bind def
/cl  { grestore gsave newpath 3 index 3 index moveto 1 index
       4 -1 roll lineto  exch 1 index lineto lineto
       closepath clip newpath } bind def
/rgb { setrgbcolor } bind def
/s   { scalefont setfont } bind def
% end   .ps.prolog
/sRGB { [ /CIEBasedABC
          << /DecodeLMN
               [ { dup 0.03928 le
                        {12.92321 div}
                        {0.055 add 1.055 div 2.4 exp }
                     ifelse
                 } bind dup dup
               ]
             /MatrixLMN [0.412457 0.212673 0.019334
                         0.357576 0.715152 0.119192
                         0.180437 0.072175 0.950301]
             /WhitePoint [0.9505 1.0 1.0890]
           >>
         ] setcolorspace } bind def
/srgb { setcolor } bind def
%%IncludeResource: font Helvetica
/Helvetica findfont
dup length dict begin
  {1 index /FID ne {def} {pop pop} ifelse} forall
  /Encoding ISOLatin1Encoding def
  currentdict
  end
/Font1 exch definefont pop
%%IncludeResource: font Helvetica-Bold
/Helvetica-Bold findfont
dup length dict begin
  {1 index /FID ne {def} {pop pop} ifelse} forall
  /Encoding ISOLatin1Encoding def
  currentdict
  end
/Font2 exch definefont pop
%%IncludeResource: font Helvetica-Oblique
/Helvetica-Oblique findfont
dup length dict begin
  {1 index /FID ne {def} {pop pop} ifelse} forall
  /Encoding ISOLatin1Encoding def
  currentdict
  end
/Font3 exch definefont pop
%%IncludeResource: font Helvetica-BoldOblique
/Helvetica-BoldOblique findfont
dup length dict begin
  {1 index /FID ne {def} {pop pop} ifelse} forall
  /Encoding ISOLatin1Encoding def
  currentdict
  end
/Font4 exch definefont pop
%%IncludeResource: font Symbol
/Symbol findfont
dup length dict begin
  {1 index /FID ne {def} {pop pop} ifelse} forall
  currentdict
  end
/Font5 exch definefont pop
%%EndProlog
%%Page: 1 1
bp
0.00 0.00 360.00 288.00 cl
0.00 0.00 360.00 288.00 cl
0.00 0.00 360.00 288.00 cl
/bg { 1 1 1 srgb } def
1 1 1 srgb
1.06 setlinewidth
[] 0 setdash
1 setlinecap
1 setlinejoin
10.00 setmiterlimit
0.00 -0.00 360.00 288.00 r p3
0.00 0.00 360.00 288.00 cl
41.22 213.37 76.12 227.75 cl
/bg { 0.8000 0.8000 0.8000 srgb } def
0.4980 0.4980 0.4980 srgb
0.43 setlinewidth
[] 0 setdash
1 setlinecap
1 setlinejoin
10.00 setmiterlimit
41.22 213.37 34.90 14.38 r p3
/Font1 findfont 10 s
0 0 0 srgb
58.67 216.97 (0.3) .5 0 t
0.00 0.00 360.00 288.00 cl
79.72 213.37 114.62 227.75 cl
/bg { 0.8000 0.8000 0.8000 srgb } def
0.4980 0.4980 0.4980 srgb
0.43 setlinewidth
[] 0 setdash
1 setlinecap
1 setlinejoin
10.00 setmiterlimit
79.72 213.37 34.90 14.38 r p3
/Font1 findfont 10 s
0 0 0 srgb
97.17 216.97 (0.4) .5 0 t
0.00 0.00 360.00 288.00 cl
118.22 213.37 153.11 227.75 cl
/bg { 0.8000 0.8000 0.8000 srgb } def
0.4980 0.4980 0.4980 srgb
0.43 setlinewidth
[] 0 setdash
1 setlinecap
1 setlinejoin
10.00 setmiterlimit
118.22 213.37 34.90 14.38 r p3
/Font1 findfont 10 s
0 0 0 srgb
135.67 216.97 (0.5) .5 0 t
0.00 0.00 360.00 288.00 cl
156.71 213.37 191.61 227.75 cl
/bg { 0.8000 0.8000 0.8000 srgb } def
0.4980 0.4980 0.4980 srgb
0.43 setlinewidth
[] 0 setdash
1 setlinecap
1 setlinejoin
10.00 setmiterlimit
156.71 213.37 34.90 14.38 r p3
/Font1 findfont 10 s
0 0 0 srgb
174.16 216.97 (0.6) .5 0 t
0.00 0.00 360.00 288.00 cl
195.21 213.37 230.11 227.75 cl
/bg { 0.8000 0.8000 0.8000 srgb } def
0.4980 0.4980 0.4980 srgb
0.43 setlinewidth
[] 0 setdash
1 setlinecap
1 setlinejoin
10.00 setmiterlimit
195.21 213.37 34.90 14.38 r p3
/Font1 findfont 10 s
0 0 0 srgb
212.66 216.97 (0.7) .5 0 t
0.00 0.00 360.00 288.00 cl
233.71 213.37 268.61 227.75 cl
/bg { 0.8000 0.8000 0.8000 srgb } def
0.4980 0.4980 0.4980 srgb
0.43 setlinewidth
[] 0 setdash
1 setlinecap
1 setlinejoin
10.00 setmiterlimit
233.71 213.37 34.90 14.38 r p3
/Font1 findfont 10 s
0 0 0 srgb
251.16 216.97 (0.8) .5 0 t
0.00 0.00 360.00 288.00 cl
272.21 213.37 307.10 227.75 cl
/bg { 0.8000 0.8000 0.8000 srgb } def
0.4980 0.4980 0.4980 srgb
0.43 setlinewidth
[] 0 setdash
1 setlinecap
1 setlinejoin
10.00 setmiterlimit
272.21 213.37 34.90 14.38 r p3
/Font1 findfont 10 s
0 0 0 srgb
289.65 216.97 (0.9) .5 0 t
0.00 0.00 360.00 288.00 cl
310.70 213.37 345.60 227.75 cl
/bg { 0.8000 0.8000 0.8000 srgb } def
0.4980 0.4980 0.4980 srgb
0.43 setlinewidth
[] 0 setdash
1 setlinecap
1 setlinejoin
10.00 setmiterlimit
310.70 213.37 34.90 14.38 r p3
/Font1 findfont 10 s
0 0 0 srgb
328.15 216.97 (1) .5 0 t
0.00 0.00 360.00 288.00 cl
41.22 30.10 76.12 213.37 cl
/bg { 1 1 1 srgb } def
41.22 30.10 34.90 183.26 r p2
0.8980 0.8980 0.8980 srgb
0.43 setlinewidth
[] 0 setdash
0 setlinecap
1 setlinejoin
10.00 setmiterlimit
np
41.22 140.47 m
34.90 0 l
o
np
58.67 30.10 m
0 183.27 l
o
0.2000 0.2000 0.2000 srgb
1.06 setlinewidth
[] 0 setdash
np
49.95 107.27 m
0 30.49 l
o
np
49.95 80.32 m
0 -15.96 l
o
/bg { 0.7451 0.7294 0.8549 srgb } def
1 setlinecap
np
 45.58 107.27 m
0 -26.95 l
8.73 0 l
0 26.95 l
-8.73 0 l
cp p3
2.13 setlinewidth
[] 0 setdash
0 setlinecap
np
45.58 88.14 m
8.73 0 l
o
/bg { 0 0 0 srgb } def
58.67 147.87 2.13 c p2
58.67 161.76 2.13 c p2
58.67 147.87 2.13 c p2
1.06 setlinewidth
[] 0 setdash
np
58.67 116.12 m
0 15.96 l
o
np
58.67 101.19 m
0 -17.68 l
o
/bg { 0.9608 0.9608 0.9608 srgb } def
1 setlinecap
np
 54.31 116.12 m
0 -14.93 l
8.72 0 l
0 14.93 l
-8.72 0 l
cp p3
2.13 setlinewidth
[] 0 setdash
0 setlinecap
np
54.31 106.79 m
8.72 0 l
o
1.06 setlinewidth
[] 0 setdash
np
67.40 109.71 m
0 22.65 l
o
np
67.40 92.05 m
0 -18.65 l
o
/bg { 0.8941 0.1020 0.1098 srgb } def
1 setlinecap
np
 63.03 109.71 m
0 -17.66 l
8.73 0 l
0 17.66 l
-8.73 0 l
cp p3
2.13 setlinewidth
[] 0 setdash
0 setlinecap
np
63.03 100.51 m
8.73 0 l
o
0.4980 0.4980 0.4980 srgb
1.06 setlinewidth
[] 0 setdash
1 setlinecap
41.22 30.10 34.90 183.26 r p1
0.00 0.00 360.00 288.00 cl
79.72 30.10 114.62 213.37 cl
/bg { 1 1 1 srgb } def
79.72 30.10 34.90 183.26 r p2
0.8980 0.8980 0.8980 srgb
0.43 setlinewidth
[] 0 setdash
0 setlinecap
1 setlinejoin
10.00 setmiterlimit
np
79.72 140.47 m
34.90 0 l
o
np
97.17 30.10 m
0 183.27 l
o
/bg { 0 0 0 srgb } def
88.44 178.34 2.13 c p2
88.44 172.55 2.13 c p2
88.44 166.81 2.13 c p2
88.44 164.71 2.13 c p2
88.44 179.47 2.13 c p2
0.2000 0.2000 0.2000 srgb
1.06 setlinewidth
[] 0 setdash
np
88.44 114.59 m
0 46.25 l
o
np
88.44 81.61 m
0 -14.56 l
o
/bg { 0.7451 0.7294 0.8549 srgb } def
1 setlinecap
np
 84.08 114.59 m
0 -32.98 l
8.73 0 l
0 32.98 l
-8.73 0 l
cp p3
2.13 setlinewidth
[] 0 setdash
0 setlinecap
np
84.08 95.86 m
8.73 0 l
o
1.06 setlinewidth
[] 0 setdash
np
97.17 127.10 m
0 20.77 l
o
np
97.17 106.23 m
0 -24.30 l
o
/bg { 0.9608 0.9608 0.9608 srgb } def
1 setlinecap
np
 92.81 127.10 m
0 -20.87 l
8.72 0 l
0 20.87 l
-8.72 0 l
cp p3
2.13 setlinewidth
[] 0 setdash
0 setlinecap
np
92.81 112.78 m
8.72 0 l
o
1.06 setlinewidth
[] 0 setdash
np
105.89 104.84 m
0 26.45 l
o
np
105.89 81.93 m
0 -14.68 l
o
/bg { 0.8941 0.1020 0.1098 srgb } def
1 setlinecap
np
 101.53 104.84 m
0 -22.91 l
8.72 0 l
0 22.91 l
-8.72 0 l
cp p3
2.13 setlinewidth
[] 0 setdash
0 setlinecap
np
101.53 97.24 m
8.72 0 l
o
0.4980 0.4980 0.4980 srgb
1.06 setlinewidth
[] 0 setdash
1 setlinecap
79.72 30.10 34.90 183.26 r p1
0.00 0.00 360.00 288.00 cl
118.22 30.10 153.11 213.37 cl
/bg { 1 1 1 srgb } def
118.22 30.10 34.90 183.26 r p2
0.8980 0.8980 0.8980 srgb
0.43 setlinewidth
[] 0 setdash
0 setlinecap
1 setlinejoin
10.00 setmiterlimit
np
118.22 140.47 m
34.89 0 l
o
np
135.67 30.10 m
0 183.27 l
o
/bg { 0 0 0 srgb } def
126.94 40.96 2.13 c p2
126.94 168.40 2.13 c p2
0.2000 0.2000 0.2000 srgb
1.06 setlinewidth
[] 0 setdash
np
126.94 115.25 m
0 40.68 l
o
np
126.94 86.09 m
0 -28.67 l
o
/bg { 0.7451 0.7294 0.8549 srgb } def
1 setlinecap
np
 122.58 115.25 m
0 -29.16 l
8.72 0 l
0 29.16 l
-8.72 0 l
cp p3
2.13 setlinewidth
[] 0 setdash
0 setlinecap
np
122.58 100.28 m
8.72 0 l
o
1.06 setlinewidth
[] 0 setdash
np
135.67 134.77 m
0 20.82 l
o
np
135.67 111.24 m
0 -26.96 l
o
/bg { 0.9608 0.9608 0.9608 srgb } def
1 setlinecap
np
 131.30 134.77 m
0 -23.53 l
8.73 0 l
0 23.53 l
-8.73 0 l
cp p3
2.13 setlinewidth
[] 0 setdash
0 setlinecap
np
131.30 118.77 m
8.73 0 l
o
1.06 setlinewidth
[] 0 setdash
np
144.39 103.17 m
0 13.00 l
o
np
144.39 84.43 m
0 -17.79 l
o
/bg { 0.8941 0.1020 0.1098 srgb } def
1 setlinecap
np
 140.03 103.17 m
0 -18.74 l
8.72 0 l
0 18.74 l
-8.72 0 l
cp p3
2.13 setlinewidth
[] 0 setdash
0 setlinecap
np
140.03 95.48 m
8.72 0 l
o
0.4980 0.4980 0.4980 srgb
1.06 setlinewidth
[] 0 setdash
1 setlinecap
118.22 30.10 34.90 183.26 r p1
0.00 0.00 360.00 288.00 cl
156.71 30.10 191.61 213.37 cl
/bg { 1 1 1 srgb } def
156.71 30.10 34.90 183.26 r p2
0.8980 0.8980 0.8980 srgb
0.43 setlinewidth
[] 0 setdash
0 setlinecap
1 setlinejoin
10.00 setmiterlimit
np
156.71 140.47 m
34.90 0 l
o
np
174.16 30.10 m
0 183.27 l
o
/bg { 0 0 0 srgb } def
165.44 150.55 2.13 c p2
165.44 154.32 2.13 c p2
0.2000 0.2000 0.2000 srgb
1.06 setlinewidth
[] 0 setdash
np
165.44 109.30 m
0 38.95 l
o
np
165.44 82.29 m
0 -28.53 l
o
/bg { 0.7451 0.7294 0.8549 srgb } def
1 setlinecap
np
 161.08 109.30 m
0 -27.01 l
8.72 0 l
0 27.01 l
-8.72 0 l
cp p3
2.13 setlinewidth
[] 0 setdash
0 setlinecap
np
161.08 95.47 m
8.72 0 l
o
1.06 setlinewidth
[] 0 setdash
np
174.16 140.64 m
0 27.76 l
o
np
174.16 101.49 m
0 -26.46 l
o
/bg { 0.9608 0.9608 0.9608 srgb } def
1 setlinecap
np
 169.80 140.64 m
0 -39.15 l
8.72 0 l
0 39.15 l
-8.72 0 l
cp p3
2.13 setlinewidth
[] 0 setdash
0 setlinecap
np
169.80 121.85 m
8.72 0 l
o
1.06 setlinewidth
[] 0 setdash
np
182.89 105.59 m
0 23.59 l
o
np
182.89 79.08 m
0 -15.15 l
o
/bg { 0.8941 0.1020 0.1098 srgb } def
1 setlinecap
np
 178.52 105.59 m
0 -26.51 l
8.73 0 l
0 26.51 l
-8.73 0 l
cp p3
2.13 setlinewidth
[] 0 setdash
0 setlinecap
np
178.52 92.59 m
8.73 0 l
o
0.4980 0.4980 0.4980 srgb
1.06 setlinewidth
[] 0 setdash
1 setlinecap
156.71 30.10 34.90 183.26 r p1
0.00 0.00 360.00 288.00 cl
195.21 30.10 230.11 213.37 cl
/bg { 1 1 1 srgb } def
195.21 30.10 34.90 183.26 r p2
0.8980 0.8980 0.8980 srgb
0.43 setlinewidth
[] 0 setdash
0 setlinecap
1 setlinejoin
10.00 setmiterlimit
np
195.21 140.47 m
34.90 0 l
o
np
212.66 30.10 m
0 183.27 l
o
/bg { 0 0 0 srgb } def
203.94 165.17 2.13 c p2
203.94 163.19 2.13 c p2
0.2000 0.2000 0.2000 srgb
1.06 setlinewidth
[] 0 setdash
np
203.94 116.26 m
0 42.31 l
o
np
203.94 86.54 m
0 -30.08 l
o
/bg { 0.7451 0.7294 0.8549 srgb } def
1 setlinecap
np
 199.57 116.26 m
0 -29.72 l
8.73 0 l
0 29.72 l
-8.73 0 l
cp p3
2.13 setlinewidth
[] 0 setdash
0 setlinecap
np
199.57 100.39 m
8.73 0 l
o
1.06 setlinewidth
[] 0 setdash
np
212.66 147.25 m
0 16.67 l
o
np
212.66 117.02 m
0 -37.52 l
o
/bg { 0.9608 0.9608 0.9608 srgb } def
1 setlinecap
np
 208.30 147.25 m
0 -30.23 l
8.72 0 l
0 30.23 l
-8.72 0 l
cp p3
2.13 setlinewidth
[] 0 setdash
0 setlinecap
np
208.30 128.57 m
8.72 0 l
o
1.06 setlinewidth
[] 0 setdash
np
221.38 101.45 m
0 19.73 l
o
np
221.38 81.29 m
0 -10.12 l
o
/bg { 0.8941 0.1020 0.1098 srgb } def
1 setlinecap
np
 217.02 101.45 m
0 -20.16 l
8.73 0 l
0 20.16 l
-8.73 0 l
cp p3
2.13 setlinewidth
[] 0 setdash
0 setlinecap
np
217.02 87.71 m
8.73 0 l
o
0.4980 0.4980 0.4980 srgb
1.06 setlinewidth
[] 0 setdash
1 setlinecap
195.21 30.10 34.90 183.26 r p1
0.00 0.00 360.00 288.00 cl
233.71 30.10 268.61 213.37 cl
/bg { 1 1 1 srgb } def
233.71 30.10 34.90 183.26 r p2
0.8980 0.8980 0.8980 srgb
0.43 setlinewidth
[] 0 setdash
0 setlinecap
1 setlinejoin
10.00 setmiterlimit
np
233.71 140.47 m
34.90 0 l
o
np
251.16 30.10 m
0 183.27 l
o
/bg { 0 0 0 srgb } def
242.43 194.55 2.13 c p2
242.43 205.04 2.13 c p2
242.43 169.11 2.13 c p2
0.2000 0.2000 0.2000 srgb
1.06 setlinewidth
[] 0 setdash
np
242.43 119.47 m
0 41.94 l
o
np
242.43 87.53 m
0 -29.64 l
o
/bg { 0.7451 0.7294 0.8549 srgb } def
1 setlinecap
np
 238.07 119.47 m
0 -31.94 l
8.72 0 l
0 31.94 l
-8.72 0 l
cp p3
2.13 setlinewidth
[] 0 setdash
0 setlinecap
np
238.07 100.81 m
8.72 0 l
o
/bg { 0 0 0 srgb } def
251.16 66.03 2.13 c p2
1.06 setlinewidth
[] 0 setdash
np
251.16 136.08 m
0 24.08 l
o
np
251.16 109.44 m
0 -36.59 l
o
/bg { 0.9608 0.9608 0.9608 srgb } def
1 setlinecap
np
 246.79 136.08 m
0 -26.64 l
8.73 0 l
0 26.64 l
-8.73 0 l
cp p3
2.13 setlinewidth
[] 0 setdash
0 setlinecap
np
246.79 122.81 m
8.73 0 l
o
1.06 setlinewidth
[] 0 setdash
np
259.88 102.49 m
0 25.18 l
o
np
259.88 78.66 m
0 -10.21 l
o
/bg { 0.8941 0.1020 0.1098 srgb } def
1 setlinecap
np
 255.52 102.49 m
0 -23.83 l
8.72 0 l
0 23.83 l
-8.72 0 l
cp p3
2.13 setlinewidth
[] 0 setdash
0 setlinecap
np
255.52 91.78 m
8.72 0 l
o
0.4980 0.4980 0.4980 srgb
1.06 setlinewidth
[] 0 setdash
1 setlinecap
233.71 30.10 34.90 183.26 r p1
0.00 0.00 360.00 288.00 cl
272.21 30.10 307.10 213.37 cl
/bg { 1 1 1 srgb } def
272.21 30.10 34.90 183.26 r p2
0.8980 0.8980 0.8980 srgb
0.43 setlinewidth
[] 0 setdash
0 setlinecap
1 setlinejoin
10.00 setmiterlimit
np
272.21 140.47 m
34.89 0 l
o
np
289.65 30.10 m
0 183.27 l
o
0.2000 0.2000 0.2000 srgb
1.06 setlinewidth
[] 0 setdash
np
280.93 133.67 m
0 56.14 l
o
np
280.93 92.59 m
0 -26.36 l
o
/bg { 0.7451 0.7294 0.8549 srgb } def
1 setlinecap
np
 276.57 133.67 m
0 -41.08 l
8.72 0 l
0 41.08 l
-8.72 0 l
cp p3
2.13 setlinewidth
[] 0 setdash
0 setlinecap
np
276.57 108.16 m
8.72 0 l
o
/bg { 0 0 0 srgb } def
289.65 81.61 2.13 c p2
289.65 80.32 2.13 c p2
1.06 setlinewidth
[] 0 setdash
np
289.65 141.48 m
0 17.46 l
o
np
289.65 118.45 m
0 -26.80 l
o
/bg { 0.9608 0.9608 0.9608 srgb } def
1 setlinecap
np
 285.29 141.48 m
0 -23.03 l
8.73 0 l
0 23.03 l
-8.73 0 l
cp p3
2.13 setlinewidth
[] 0 setdash
0 setlinecap
np
285.29 133.16 m
8.73 0 l
o
1.06 setlinewidth
[] 0 setdash
np
298.38 103.37 m
0 18.82 l
o
np
298.38 86.20 m
0 -21.21 l
o
/bg { 0.8941 0.1020 0.1098 srgb } def
1 setlinecap
np
 294.02 103.37 m
0 -17.17 l
8.72 0 l
0 17.17 l
-8.72 0 l
cp p3
2.13 setlinewidth
[] 0 setdash
0 setlinecap
np
294.02 92.73 m
8.72 0 l
o
0.4980 0.4980 0.4980 srgb
1.06 setlinewidth
[] 0 setdash
1 setlinecap
272.21 30.10 34.90 183.26 r p1
0.00 0.00 360.00 288.00 cl
310.70 30.10 345.60 213.37 cl
/bg { 1 1 1 srgb } def
310.70 30.10 34.90 183.26 r p2
0.8980 0.8980 0.8980 srgb
0.43 setlinewidth
[] 0 setdash
0 setlinecap
1 setlinejoin
10.00 setmiterlimit
np
310.70 140.47 m
34.90 0 l
o
np
328.15 30.10 m
0 183.27 l
o
/bg { 0 0 0 srgb } def
319.43 142.24 2.13 c p2
319.43 136.78 2.13 c p2
319.43 136.52 2.13 c p2
319.43 144.77 2.13 c p2
319.43 141.45 2.13 c p2
319.43 146.48 2.13 c p2
0.2000 0.2000 0.2000 srgb
1.06 setlinewidth
[] 0 setdash
np
319.43 91.99 m
0 39.73 l
o
np
319.43 63.99 m
0 -25.56 l
o
/bg { 0.7451 0.7294 0.8549 srgb } def
1 setlinecap
np
 315.06 91.99 m
0 -28.00 l
8.73 0 l
0 28.00 l
-8.73 0 l
cp p3
2.13 setlinewidth
[] 0 setdash
0 setlinecap
np
315.06 77.04 m
8.73 0 l
o
1.06 setlinewidth
[] 0 setdash
np
328.15 143.46 m
0 21.05 l
o
np
328.15 99.53 m
0 -26.31 l
o
/bg { 0.9608 0.9608 0.9608 srgb } def
1 setlinecap
np
 323.79 143.46 m
0 -43.93 l
8.72 0 l
0 43.93 l
-8.72 0 l
cp p3
2.13 setlinewidth
[] 0 setdash
0 setlinecap
np
323.79 116.09 m
8.72 0 l
o
1.06 setlinewidth
[] 0 setdash
np
336.88 100.98 m
0 19.52 l
o
np
336.88 79.16 m
0 -23.91 l
o
/bg { 0.8941 0.1020 0.1098 srgb } def
1 setlinecap
np
 332.51 100.98 m
0 -21.82 l
8.73 0 l
0 21.82 l
-8.73 0 l
cp p3
2.13 setlinewidth
[] 0 setdash
0 setlinecap
np
332.51 90.69 m
8.73 0 l
o
0.4980 0.4980 0.4980 srgb
1.06 setlinewidth
[] 0 setdash
1 setlinecap
310.70 30.10 34.90 183.26 r p1
0.00 0.00 360.00 288.00 cl
0.00 0.00 360.00 288.00 cl
0.00 0.00 360.00 288.00 cl
/Font1 findfont 10 s
0 0 0 srgb
34.14 136.88 (10) 1 0 t
0.00 0.00 360.00 288.00 cl
0.00 0.00 360.00 288.00 cl
0.00 0.00 360.00 288.00 cl
0.00 0.00 360.00 288.00 cl
0.00 0.00 360.00 288.00 cl
0.00 0.00 360.00 288.00 cl
0.00 0.00 360.00 288.00 cl
0.00 0.00 360.00 288.00 cl
0.00 0.00 360.00 288.00 cl
0.00 0.00 360.00 288.00 cl
0.00 0.00 360.00 288.00 cl
0.00 0.00 360.00 288.00 cl
0.00 0.00 360.00 288.00 cl
0.00 0.00 360.00 288.00 cl
0.00 0.00 360.00 288.00 cl
0.00 0.00 360.00 288.00 cl
0.00 0.00 360.00 288.00 cl
0.00 0.00 360.00 288.00 cl
0.00 0.00 360.00 288.00 cl
0.00 0.00 360.00 288.00 cl
0.00 0.00 360.00 288.00 cl
0.00 0.00 360.00 288.00 cl
0.00 0.00 360.00 288.00 cl
0.00 0.00 360.00 288.00 cl
0.00 0.00 360.00 288.00 cl
0.00 0.00 360.00 288.00 cl
0.00 0.00 360.00 288.00 cl
0.00 0.00 360.00 288.00 cl
0.00 0.00 360.00 288.00 cl
0.00 0.00 360.00 288.00 cl
0.00 0.00 360.00 288.00 cl
0.00 0.00 360.00 288.00 cl
0.00 0.00 360.00 288.00 cl
0.00 0.00 360.00 288.00 cl
0.00 0.00 360.00 288.00 cl
0.00 0.00 360.00 288.00 cl
0.00 0.00 360.00 288.00 cl
0.00 0.00 360.00 288.00 cl
0.00 0.00 360.00 288.00 cl
0.00 0.00 360.00 288.00 cl
0.00 0.00 360.00 288.00 cl
0.00 0.00 360.00 288.00 cl
0.00 0.00 360.00 288.00 cl
0.00 0.00 360.00 288.00 cl
0.00 0.00 360.00 288.00 cl
0.00 0.00 360.00 288.00 cl
0.00 0.00 360.00 288.00 cl
0.00 0.00 360.00 288.00 cl
0.00 0.00 360.00 288.00 cl
0.00 0.00 360.00 288.00 cl
0.00 0.00 360.00 288.00 cl
0.00 0.00 360.00 288.00 cl
0.00 0.00 360.00 288.00 cl
0.00 0.00 360.00 288.00 cl
0.00 0.00 360.00 288.00 cl
0.00 0.00 360.00 288.00 cl
0.00 0.00 360.00 288.00 cl
0.00 0.00 360.00 288.00 cl
0.00 0.00 360.00 288.00 cl
0.00 0.00 360.00 288.00 cl
0.00 0.00 360.00 288.00 cl
0.00 0.00 360.00 288.00 cl
0.00 0.00 360.00 288.00 cl
0.00 0.00 360.00 288.00 cl
0.00 0.00 360.00 288.00 cl
0.00 0.00 360.00 288.00 cl
0.00 0.00 360.00 288.00 cl
0.00 0.00 360.00 288.00 cl
0.00 0.00 360.00 288.00 cl
0.00 0.00 360.00 288.00 cl
0.00 0.00 360.00 288.00 cl
/Font1 findfont 12 s
0 0 0 srgb
173.74 10.80 (br) 0 ta
-0.120 (ack) tb
-0.240 (et) tb gr
0.00 0.00 360.00 288.00 cl
0.00 0.00 360.00 288.00 cl
0.00 0.00 360.00 288.00 cl
0.00 0.00 360.00 288.00 cl
0.00 0.00 360.00 288.00 cl
0.00 0.00 360.00 288.00 cl
0.00 0.00 360.00 288.00 cl
0.00 0.00 360.00 288.00 cl
/bg { 1 1 1 srgb } def
61.56 237.78 263.70 25.78 r p2
0.00 0.00 360.00 288.00 cl
0.00 0.00 360.00 288.00 cl
/Font2 findfont 10 s
0 0 0 srgb
65.81 247.08 (corpus) 0 0 t
0.00 0.00 360.00 288.00 cl
0.00 0.00 360.00 288.00 cl
/bg { 1 1 1 srgb } def
0.8000 0.8000 0.8000 srgb
1.06 setlinewidth
[] 0 setdash
1 setlinecap
1 setlinejoin
10.00 setmiterlimit
103.47 242.03 17.28 17.28 r p3
0.00 0.00 360.00 288.00 cl
0.00 0.00 360.00 288.00 cl
0.2000 0.2000 0.2000 srgb
1.06 setlinewidth
[] 0 setdash
1 setlinecap
1 setlinejoin
10.00 setmiterlimit
np
112.11 243.76 m
0 2.59 l
o
np
112.11 254.99 m
0 2.60 l
o
/bg { 0.7451 0.7294 0.8549 srgb } def
105.63 246.35 12.96 8.64 r p3
np
105.63 250.67 m
12.96 0 l
o
0.00 0.00 360.00 288.00 cl
0.00 0.00 360.00 288.00 cl
/bg { 1 1 1 srgb } def
0.8000 0.8000 0.8000 srgb
1.06 setlinewidth
[] 0 setdash
1 setlinecap
1 setlinejoin
10.00 setmiterlimit
181.91 242.03 17.28 17.28 r p3
0.00 0.00 360.00 288.00 cl
0.00 0.00 360.00 288.00 cl
0.2000 0.2000 0.2000 srgb
1.06 setlinewidth
[] 0 setdash
1 setlinecap
1 setlinejoin
10.00 setmiterlimit
np
190.55 243.76 m
0 2.59 l
o
np
190.55 254.99 m
0 2.60 l
o
/bg { 0.9608 0.9608 0.9608 srgb } def
184.07 246.35 12.96 8.64 r p3
np
184.07 250.67 m
12.96 0 l
o
0.00 0.00 360.00 288.00 cl
0.00 0.00 360.00 288.00 cl
/bg { 1 1 1 srgb } def
0.8000 0.8000 0.8000 srgb
1.06 setlinewidth
[] 0 setdash
1 setlinecap
1 setlinejoin
10.00 setmiterlimit
258.23 242.03 17.28 17.28 r p3
0.00 0.00 360.00 288.00 cl
0.00 0.00 360.00 288.00 cl
0.2000 0.2000 0.2000 srgb
1.06 setlinewidth
[] 0 setdash
1 setlinecap
1 setlinejoin
10.00 setmiterlimit
np
266.87 243.76 m
0 2.59 l
o
np
266.87 254.99 m
0 2.60 l
o
/bg { 0.8941 0.1020 0.1098 srgb } def
260.39 246.35 12.96 8.64 r p3
np
260.39 250.67 m
12.96 0 l
o
0.00 0.00 360.00 288.00 cl
0.00 0.00 360.00 288.00 cl
/Font1 findfont 10 s
0 0 0 srgb
122.91 247.08 (AID) 0 ta
-0.400 (A CoNLL) tb gr
0.00 0.00 360.00 288.00 cl
0.00 0.00 360.00 288.00 cl
/Font1 findfont 10 s
0 0 0 srgb
201.35 247.08 (ClueW) 0 ta
-0.300 (eb 12) tb gr
0.00 0.00 360.00 288.00 cl
0.00 0.00 360.00 288.00 cl
/Font1 findfont 10 s
0 0 0 srgb
277.67 247.08 (Wikipedia) 0 0 t
0.00 0.00 360.00 288.00 cl
0.00 0.00 360.00 288.00 cl
0.00 0.00 360.00 288.00 cl
0.00 0.00 360.00 288.00 cl
0.00 0.00 360.00 288.00 cl
0.00 0.00 360.00 288.00 cl
0.00 0.00 360.00 288.00 cl
0.00 0.00 360.00 288.00 cl
0.00 0.00 360.00 288.00 cl
0.00 0.00 360.00 288.00 cl
0.00 0.00 360.00 288.00 cl
0.00 0.00 360.00 288.00 cl
ep
%%Trailer
%%Pages: 1
%%EOF
