%!PS-Adobe-3.0 EPSF-3.0
%%DocumentNeededResources: font Helvetica
%%+ font Helvetica-Bold
%%+ font Helvetica-Oblique
%%+ font Helvetica-BoldOblique
%%+ font Symbol
%%Title: R Graphics Output
%%Creator: R Software
%%Pages: (atend)
%%BoundingBox: 0 0 360 288
%%EndComments
%%BeginProlog
/bp  { gs sRGB gs } def
% begin .ps.prolog
/gs  { gsave } bind def
/gr  { grestore } bind def
/ep  { showpage gr gr } bind def
/m   { moveto } bind def
/l  { rlineto } bind def
/np  { newpath } bind def
/cp  { closepath } bind def
/f   { fill } bind def
/o   { stroke } bind def
/c   { newpath 0 360 arc } bind def
/r   { 4 2 roll moveto 1 copy 3 -1 roll exch 0 exch rlineto 0 rlineto -1 mul 0 exch rlineto closepath } bind def
/p1  { stroke } bind def
/p2  { gsave bg fill grestore newpath } bind def
/p3  { gsave bg fill grestore stroke } bind def
/p6  { gsave bg eofill grestore newpath } bind def
/p7  { gsave bg eofill grestore stroke } bind def
/t   { 5 -2 roll moveto gsave rotate
       1 index stringwidth pop
       mul neg 0 rmoveto show grestore } bind def
/ta  { 4 -2 roll moveto gsave rotate show } bind def
/tb  { 2 -1 roll 0 rmoveto show } bind def
/cl  { grestore gsave newpath 3 index 3 index moveto 1 index
       4 -1 roll lineto  exch 1 index lineto lineto
       closepath clip newpath } bind def
/rgb { setrgbcolor } bind def
/s   { scalefont setfont } bind def
% end   .ps.prolog
/sRGB { [ /CIEBasedABC
          << /DecodeLMN
               [ { dup 0.03928 le
                        {12.92321 div}
                        {0.055 add 1.055 div 2.4 exp }
                     ifelse
                 } bind dup dup
               ]
             /MatrixLMN [0.412457 0.212673 0.019334
                         0.357576 0.715152 0.119192
                         0.180437 0.072175 0.950301]
             /WhitePoint [0.9505 1.0 1.0890]
           >>
         ] setcolorspace } bind def
/srgb { setcolor } bind def
%%IncludeResource: font Helvetica
/Helvetica findfont
dup length dict begin
  {1 index /FID ne {def} {pop pop} ifelse} forall
  /Encoding ISOLatin1Encoding def
  currentdict
  end
/Font1 exch definefont pop
%%IncludeResource: font Helvetica-Bold
/Helvetica-Bold findfont
dup length dict begin
  {1 index /FID ne {def} {pop pop} ifelse} forall
  /Encoding ISOLatin1Encoding def
  currentdict
  end
/Font2 exch definefont pop
%%IncludeResource: font Helvetica-Oblique
/Helvetica-Oblique findfont
dup length dict begin
  {1 index /FID ne {def} {pop pop} ifelse} forall
  /Encoding ISOLatin1Encoding def
  currentdict
  end
/Font3 exch definefont pop
%%IncludeResource: font Helvetica-BoldOblique
/Helvetica-BoldOblique findfont
dup length dict begin
  {1 index /FID ne {def} {pop pop} ifelse} forall
  /Encoding ISOLatin1Encoding def
  currentdict
  end
/Font4 exch definefont pop
%%IncludeResource: font Symbol
/Symbol findfont
dup length dict begin
  {1 index /FID ne {def} {pop pop} ifelse} forall
  currentdict
  end
/Font5 exch definefont pop
%%EndProlog
%%Page: 1 1
bp
0.00 0.00 360.00 288.00 cl
0.00 0.00 360.00 288.00 cl
0.00 0.00 360.00 288.00 cl
/bg { 1 1 1 srgb } def
1 1 1 srgb
1.06 setlinewidth
[] 0 setdash
1 setlinecap
1 setlinejoin
10.00 setmiterlimit
0.00 -0.00 360.00 288.00 r p3
0.00 0.00 360.00 288.00 cl
58.18 213.37 90.96 227.75 cl
/bg { 0.8000 0.8000 0.8000 srgb } def
0.4980 0.4980 0.4980 srgb
0.43 setlinewidth
[] 0 setdash
1 setlinecap
1 setlinejoin
10.00 setmiterlimit
58.18 213.37 32.78 14.38 r p3
/Font1 findfont 10 s
0 0 0 srgb
74.57 216.97 (0.3) .5 0 t
0.00 0.00 360.00 288.00 cl
94.56 213.37 127.34 227.75 cl
/bg { 0.8000 0.8000 0.8000 srgb } def
0.4980 0.4980 0.4980 srgb
0.43 setlinewidth
[] 0 setdash
1 setlinecap
1 setlinejoin
10.00 setmiterlimit
94.56 213.37 32.78 14.38 r p3
/Font1 findfont 10 s
0 0 0 srgb
110.95 216.97 (0.4) .5 0 t
0.00 0.00 360.00 288.00 cl
130.94 213.37 163.71 227.75 cl
/bg { 0.8000 0.8000 0.8000 srgb } def
0.4980 0.4980 0.4980 srgb
0.43 setlinewidth
[] 0 setdash
1 setlinecap
1 setlinejoin
10.00 setmiterlimit
130.94 213.37 32.78 14.38 r p3
/Font1 findfont 10 s
0 0 0 srgb
147.33 216.97 (0.5) .5 0 t
0.00 0.00 360.00 288.00 cl
167.31 213.37 200.09 227.75 cl
/bg { 0.8000 0.8000 0.8000 srgb } def
0.4980 0.4980 0.4980 srgb
0.43 setlinewidth
[] 0 setdash
1 setlinecap
1 setlinejoin
10.00 setmiterlimit
167.31 213.37 32.78 14.38 r p3
/Font1 findfont 10 s
0 0 0 srgb
183.70 216.97 (0.6) .5 0 t
0.00 0.00 360.00 288.00 cl
203.69 213.37 236.47 227.75 cl
/bg { 0.8000 0.8000 0.8000 srgb } def
0.4980 0.4980 0.4980 srgb
0.43 setlinewidth
[] 0 setdash
1 setlinecap
1 setlinejoin
10.00 setmiterlimit
203.69 213.37 32.78 14.38 r p3
/Font1 findfont 10 s
0 0 0 srgb
220.08 216.97 (0.7) .5 0 t
0.00 0.00 360.00 288.00 cl
240.07 213.37 272.85 227.75 cl
/bg { 0.8000 0.8000 0.8000 srgb } def
0.4980 0.4980 0.4980 srgb
0.43 setlinewidth
[] 0 setdash
1 setlinecap
1 setlinejoin
10.00 setmiterlimit
240.07 213.37 32.78 14.38 r p3
/Font1 findfont 10 s
0 0 0 srgb
256.46 216.97 (0.8) .5 0 t
0.00 0.00 360.00 288.00 cl
276.45 213.37 309.22 227.75 cl
/bg { 0.8000 0.8000 0.8000 srgb } def
0.4980 0.4980 0.4980 srgb
0.43 setlinewidth
[] 0 setdash
1 setlinecap
1 setlinejoin
10.00 setmiterlimit
276.45 213.37 32.78 14.38 r p3
/Font1 findfont 10 s
0 0 0 srgb
292.83 216.97 (0.9) .5 0 t
0.00 0.00 360.00 288.00 cl
312.82 213.37 345.60 227.75 cl
/bg { 0.8000 0.8000 0.8000 srgb } def
0.4980 0.4980 0.4980 srgb
0.43 setlinewidth
[] 0 setdash
1 setlinecap
1 setlinejoin
10.00 setmiterlimit
312.82 213.37 32.78 14.38 r p3
/Font1 findfont 10 s
0 0 0 srgb
329.21 216.97 (1) .5 0 t
0.00 0.00 360.00 288.00 cl
58.18 30.10 90.96 213.37 cl
/bg { 1 1 1 srgb } def
58.18 30.10 32.78 183.26 r p2
0.9804 0.9804 0.9804 srgb
1.06 setlinewidth
[] 0 setdash
0 setlinecap
1 setlinejoin
10.00 setmiterlimit
np
58.18 60.63 m
32.78 0 l
o
np
58.18 136.52 m
32.78 0 l
o
np
58.18 212.40 m
32.78 0 l
o
0.8980 0.8980 0.8980 srgb
0.43 setlinewidth
[] 0 setdash
np
58.18 98.57 m
32.78 0 l
o
np
58.18 174.46 m
32.78 0 l
o
np
74.57 30.10 m
0 183.27 l
o
/bg { 0 0 0 srgb } def
66.38 166.68 2.13 c p2
66.38 152.38 2.13 c p2
66.38 163.96 2.13 c p2
66.38 166.68 2.13 c p2
66.38 166.53 2.13 c p2
66.38 166.65 2.13 c p2
66.38 165.16 2.13 c p2
66.38 142.78 2.13 c p2
66.38 166.19 2.13 c p2
0.2000 0.2000 0.2000 srgb
1.06 setlinewidth
[] 0 setdash
np
66.38 186.83 m
0 6.86 l
o
np
66.38 179.14 m
0 -10.77 l
o
/bg { 0.7451 0.7294 0.8549 srgb } def
1 setlinecap
np
 62.28 186.83 m
0 -7.69 l
8.19 0 l
0 7.69 l
-8.19 0 l
cp p3
2.13 setlinewidth
[] 0 setdash
0 setlinecap
np
62.28 184.11 m
8.19 0 l
o
1.06 setlinewidth
[] 0 setdash
np
74.57 191.54 m
0 3.19 l
o
np
74.57 182.61 m
0 -6.56 l
o
/bg { 0.9608 0.9608 0.9608 srgb } def
1 setlinecap
np
 70.47 191.54 m
0 -8.93 l
8.20 0 l
0 8.93 l
-8.20 0 l
cp p3
2.13 setlinewidth
[] 0 setdash
0 setlinecap
np
70.47 184.57 m
8.20 0 l
o
/bg { 0 0 0 srgb } def
82.77 142.79 2.13 c p2
1.06 setlinewidth
[] 0 setdash
np
82.77 199.19 m
0 5.85 l
o
np
82.77 185.10 m
0 -9.37 l
o
/bg { 0.8941 0.1020 0.1098 srgb } def
1 setlinecap
np
 78.67 199.19 m
0 -14.09 l
8.19 0 l
0 14.09 l
-8.19 0 l
cp p3
2.13 setlinewidth
[] 0 setdash
0 setlinecap
np
78.67 194.30 m
8.19 0 l
o
0.4980 0.4980 0.4980 srgb
1.06 setlinewidth
[] 0 setdash
1 setlinecap
58.18 30.10 32.78 183.26 r p1
0.00 0.00 360.00 288.00 cl
94.56 30.10 127.34 213.37 cl
/bg { 1 1 1 srgb } def
94.56 30.10 32.78 183.26 r p2
0.9804 0.9804 0.9804 srgb
1.06 setlinewidth
[] 0 setdash
0 setlinecap
1 setlinejoin
10.00 setmiterlimit
np
94.56 60.63 m
32.78 0 l
o
np
94.56 136.52 m
32.78 0 l
o
np
94.56 212.40 m
32.78 0 l
o
0.8980 0.8980 0.8980 srgb
0.43 setlinewidth
[] 0 setdash
np
94.56 98.57 m
32.78 0 l
o
np
94.56 174.46 m
32.78 0 l
o
np
110.95 30.10 m
0 183.27 l
o
/bg { 0 0 0 srgb } def
102.75 146.61 2.13 c p2
102.75 153.71 2.13 c p2
102.75 139.64 2.13 c p2
102.75 141.10 2.13 c p2
102.75 139.26 2.13 c p2
0.2000 0.2000 0.2000 srgb
1.06 setlinewidth
[] 0 setdash
np
102.75 190.70 m
0 3.98 l
o
np
102.75 176.74 m
0 -10.56 l
o
/bg { 0.7451 0.7294 0.8549 srgb } def
1 setlinecap
np
 98.66 190.70 m
0 -13.96 l
8.19 0 l
0 13.96 l
-8.19 0 l
cp p3
2.13 setlinewidth
[] 0 setdash
0 setlinecap
np
98.66 183.79 m
8.19 0 l
o
/bg { 0 0 0 srgb } def
110.95 175.30 2.13 c p2
110.95 175.41 2.13 c p2
1.06 setlinewidth
[] 0 setdash
np
110.95 192.61 m
0 1.92 l
o
np
110.95 186.41 m
0 -8.24 l
o
/bg { 0.9608 0.9608 0.9608 srgb } def
1 setlinecap
np
 106.85 192.61 m
0 -6.20 l
8.20 0 l
0 6.20 l
-8.20 0 l
cp p3
2.13 setlinewidth
[] 0 setdash
0 setlinecap
np
106.85 189.86 m
8.20 0 l
o
1.06 setlinewidth
[] 0 setdash
np
119.14 197.84 m
0 4.68 l
o
np
119.14 181.24 m
0 -12.28 l
o
/bg { 0.8941 0.1020 0.1098 srgb } def
1 setlinecap
np
 115.05 197.84 m
0 -16.60 l
8.19 0 l
0 16.60 l
-8.19 0 l
cp p3
2.13 setlinewidth
[] 0 setdash
0 setlinecap
np
115.05 194.46 m
8.19 0 l
o
0.4980 0.4980 0.4980 srgb
1.06 setlinewidth
[] 0 setdash
1 setlinecap
94.56 30.10 32.78 183.26 r p1
0.00 0.00 360.00 288.00 cl
130.94 30.10 163.71 213.37 cl
/bg { 1 1 1 srgb } def
130.94 30.10 32.78 183.26 r p2
0.9804 0.9804 0.9804 srgb
1.06 setlinewidth
[] 0 setdash
0 setlinecap
1 setlinejoin
10.00 setmiterlimit
np
130.94 60.63 m
32.77 0 l
o
np
130.94 136.52 m
32.77 0 l
o
np
130.94 212.40 m
32.77 0 l
o
0.8980 0.8980 0.8980 srgb
0.43 setlinewidth
[] 0 setdash
np
130.94 98.57 m
32.77 0 l
o
np
130.94 174.46 m
32.77 0 l
o
np
147.33 30.10 m
0 183.27 l
o
/bg { 0 0 0 srgb } def
139.13 154.31 2.13 c p2
139.13 159.65 2.13 c p2
139.13 159.88 2.13 c p2
139.13 143.39 2.13 c p2
139.13 157.96 2.13 c p2
0.2000 0.2000 0.2000 srgb
1.06 setlinewidth
[] 0 setdash
np
139.13 189.23 m
0 5.52 l
o
np
139.13 178.39 m
0 -15.77 l
o
/bg { 0.7451 0.7294 0.8549 srgb } def
1 setlinecap
np
 135.03 189.23 m
0 -10.84 l
8.20 0 l
0 10.84 l
-8.20 0 l
cp p3
2.13 setlinewidth
[] 0 setdash
0 setlinecap
np
135.03 183.25 m
8.20 0 l
o
/bg { 0 0 0 srgb } def
147.33 177.08 2.13 c p2
147.33 180.44 2.13 c p2
147.33 180.45 2.13 c p2
1.06 setlinewidth
[] 0 setdash
np
147.33 192.78 m
0 1.94 l
o
np
147.33 187.86 m
0 -4.56 l
o
/bg { 0.9608 0.9608 0.9608 srgb } def
1 setlinecap
np
 143.23 192.78 m
0 -4.92 l
8.19 0 l
0 4.92 l
-8.19 0 l
cp p3
2.13 setlinewidth
[] 0 setdash
0 setlinecap
np
143.23 191.48 m
8.19 0 l
o
/bg { 0 0 0 srgb } def
155.52 168.42 2.13 c p2
1.06 setlinewidth
[] 0 setdash
np
155.52 198.62 m
0 4.83 l
o
np
155.52 187.19 m
0 -16.62 l
o
/bg { 0.8941 0.1020 0.1098 srgb } def
1 setlinecap
np
 151.42 198.62 m
0 -11.43 l
8.20 0 l
0 11.43 l
-8.20 0 l
cp p3
2.13 setlinewidth
[] 0 setdash
0 setlinecap
np
151.42 194.72 m
8.20 0 l
o
0.4980 0.4980 0.4980 srgb
1.06 setlinewidth
[] 0 setdash
1 setlinecap
130.94 30.10 32.78 183.26 r p1
0.00 0.00 360.00 288.00 cl
167.31 30.10 200.09 213.37 cl
/bg { 1 1 1 srgb } def
167.31 30.10 32.78 183.26 r p2
0.9804 0.9804 0.9804 srgb
1.06 setlinewidth
[] 0 setdash
0 setlinecap
1 setlinejoin
10.00 setmiterlimit
np
167.31 60.63 m
32.78 0 l
o
np
167.31 136.52 m
32.78 0 l
o
np
167.31 212.40 m
32.78 0 l
o
0.8980 0.8980 0.8980 srgb
0.43 setlinewidth
[] 0 setdash
np
167.31 98.57 m
32.78 0 l
o
np
167.31 174.46 m
32.78 0 l
o
np
183.70 30.10 m
0 183.27 l
o
/bg { 0 0 0 srgb } def
175.51 146.43 2.13 c p2
175.51 155.36 2.13 c p2
175.51 134.90 2.13 c p2
175.51 152.84 2.13 c p2
175.51 155.74 2.13 c p2
0.2000 0.2000 0.2000 srgb
1.06 setlinewidth
[] 0 setdash
np
175.51 189.58 m
0 5.14 l
o
np
175.51 176.21 m
0 -20.03 l
o
/bg { 0.7451 0.7294 0.8549 srgb } def
1 setlinecap
np
 171.41 189.58 m
0 -13.37 l
8.20 0 l
0 13.37 l
-8.20 0 l
cp p3
2.13 setlinewidth
[] 0 setdash
0 setlinecap
np
171.41 183.51 m
8.20 0 l
o
/bg { 0 0 0 srgb } def
183.70 177.45 2.13 c p2
183.70 177.08 2.13 c p2
183.70 177.17 2.13 c p2
1.06 setlinewidth
[] 0 setdash
np
183.70 193.53 m
0 1.54 l
o
np
183.70 187.12 m
0 -5.55 l
o
/bg { 0.9608 0.9608 0.9608 srgb } def
1 setlinecap
np
 179.61 193.53 m
0 -6.41 l
8.19 0 l
0 6.41 l
-8.19 0 l
cp p3
2.13 setlinewidth
[] 0 setdash
0 setlinecap
np
179.61 192.05 m
8.19 0 l
o
1.06 setlinewidth
[] 0 setdash
np
191.90 197.40 m
0 5.60 l
o
np
191.90 182.42 m
0 -17.69 l
o
/bg { 0.8941 0.1020 0.1098 srgb } def
1 setlinecap
np
 187.80 197.40 m
0 -14.98 l
8.19 0 l
0 14.98 l
-8.19 0 l
cp p3
2.13 setlinewidth
[] 0 setdash
0 setlinecap
np
187.80 188.21 m
8.19 0 l
o
0.4980 0.4980 0.4980 srgb
1.06 setlinewidth
[] 0 setdash
1 setlinecap
167.31 30.10 32.78 183.26 r p1
0.00 0.00 360.00 288.00 cl
203.69 30.10 236.47 213.37 cl
/bg { 1 1 1 srgb } def
203.69 30.10 32.78 183.26 r p2
0.9804 0.9804 0.9804 srgb
1.06 setlinewidth
[] 0 setdash
0 setlinecap
1 setlinejoin
10.00 setmiterlimit
np
203.69 60.63 m
32.78 0 l
o
np
203.69 136.52 m
32.78 0 l
o
np
203.69 212.40 m
32.78 0 l
o
0.8980 0.8980 0.8980 srgb
0.43 setlinewidth
[] 0 setdash
np
203.69 98.57 m
32.78 0 l
o
np
203.69 174.46 m
32.78 0 l
o
np
220.08 30.10 m
0 183.27 l
o
/bg { 0 0 0 srgb } def
211.89 158.98 2.13 c p2
211.89 157.39 2.13 c p2
211.89 148.52 2.13 c p2
211.89 158.75 2.13 c p2
211.89 158.20 2.13 c p2
0.2000 0.2000 0.2000 srgb
1.06 setlinewidth
[] 0 setdash
np
211.89 190.75 m
0 4.09 l
o
np
211.89 178.46 m
0 -17.78 l
o
/bg { 0.7451 0.7294 0.8549 srgb } def
1 setlinecap
np
 207.79 190.75 m
0 -12.29 l
8.19 0 l
0 12.29 l
-8.19 0 l
cp p3
2.13 setlinewidth
[] 0 setdash
0 setlinecap
np
207.79 184.37 m
8.19 0 l
o
/bg { 0 0 0 srgb } def
220.08 184.31 2.13 c p2
220.08 185.13 2.13 c p2
220.08 178.68 2.13 c p2
220.08 173.46 2.13 c p2
1.06 setlinewidth
[] 0 setdash
np
220.08 194.11 m
0 0.96 l
o
np
220.08 190.97 m
0 -4.16 l
o
/bg { 0.9608 0.9608 0.9608 srgb } def
1 setlinecap
np
 215.98 194.11 m
0 -3.14 l
8.20 0 l
0 3.14 l
-8.20 0 l
cp p3
2.13 setlinewidth
[] 0 setdash
0 setlinecap
np
215.98 192.86 m
8.20 0 l
o
1.06 setlinewidth
[] 0 setdash
np
228.27 193.65 m
0 9.85 l
o
np
228.27 177.54 m
0 -15.73 l
o
/bg { 0.8941 0.1020 0.1098 srgb } def
1 setlinecap
np
 224.18 193.65 m
0 -16.11 l
8.19 0 l
0 16.11 l
-8.19 0 l
cp p3
2.13 setlinewidth
[] 0 setdash
0 setlinecap
np
224.18 187.53 m
8.19 0 l
o
0.4980 0.4980 0.4980 srgb
1.06 setlinewidth
[] 0 setdash
1 setlinecap
203.69 30.10 32.78 183.26 r p1
0.00 0.00 360.00 288.00 cl
240.07 30.10 272.85 213.37 cl
/bg { 1 1 1 srgb } def
240.07 30.10 32.78 183.26 r p2
0.9804 0.9804 0.9804 srgb
1.06 setlinewidth
[] 0 setdash
0 setlinecap
1 setlinejoin
10.00 setmiterlimit
np
240.07 60.63 m
32.78 0 l
o
np
240.07 136.52 m
32.78 0 l
o
np
240.07 212.40 m
32.78 0 l
o
0.8980 0.8980 0.8980 srgb
0.43 setlinewidth
[] 0 setdash
np
240.07 98.57 m
32.78 0 l
o
np
240.07 174.46 m
32.78 0 l
o
np
256.46 30.10 m
0 183.27 l
o
/bg { 0 0 0 srgb } def
248.26 157.37 2.13 c p2
248.26 160.86 2.13 c p2
248.26 148.95 2.13 c p2
248.26 152.30 2.13 c p2
248.26 160.22 2.13 c p2
248.26 153.19 2.13 c p2
248.26 142.06 2.13 c p2
248.26 147.33 2.13 c p2
248.26 153.75 2.13 c p2
248.26 152.17 2.13 c p2
248.26 152.08 2.13 c p2
248.26 160.38 2.13 c p2
0.2000 0.2000 0.2000 srgb
1.06 setlinewidth
[] 0 setdash
np
248.26 191.52 m
0 4.03 l
o
np
248.26 179.33 m
0 -18.17 l
o
/bg { 0.7451 0.7294 0.8549 srgb } def
1 setlinecap
np
 244.17 191.52 m
0 -12.19 l
8.19 0 l
0 12.19 l
-8.19 0 l
cp p3
2.13 setlinewidth
[] 0 setdash
0 setlinecap
np
244.17 186.40 m
8.19 0 l
o
/bg { 0 0 0 srgb } def
256.46 166.47 2.13 c p2
256.46 166.66 2.13 c p2
256.46 171.70 2.13 c p2
1.06 setlinewidth
[] 0 setdash
np
256.46 193.18 m
0 1.58 l
o
np
256.46 187.22 m
0 -8.15 l
o
/bg { 0.9608 0.9608 0.9608 srgb } def
1 setlinecap
np
 252.36 193.18 m
0 -5.96 l
8.19 0 l
0 5.96 l
-8.19 0 l
cp p3
2.13 setlinewidth
[] 0 setdash
0 setlinecap
np
252.36 191.84 m
8.19 0 l
o
/bg { 0 0 0 srgb } def
264.65 157.53 2.13 c p2
1.06 setlinewidth
[] 0 setdash
np
264.65 194.64 m
0 8.31 l
o
np
264.65 180.27 m
0 -18.25 l
o
/bg { 0.8941 0.1020 0.1098 srgb } def
1 setlinecap
np
 260.55 194.64 m
0 -14.37 l
8.20 0 l
0 14.37 l
-8.20 0 l
cp p3
2.13 setlinewidth
[] 0 setdash
0 setlinecap
np
260.55 188.62 m
8.20 0 l
o
0.4980 0.4980 0.4980 srgb
1.06 setlinewidth
[] 0 setdash
1 setlinecap
240.07 30.10 32.78 183.26 r p1
0.00 0.00 360.00 288.00 cl
276.45 30.10 309.22 213.37 cl
/bg { 1 1 1 srgb } def
276.45 30.10 32.78 183.26 r p2
0.9804 0.9804 0.9804 srgb
1.06 setlinewidth
[] 0 setdash
0 setlinecap
1 setlinejoin
10.00 setmiterlimit
np
276.45 60.63 m
32.77 0 l
o
np
276.45 136.52 m
32.77 0 l
o
np
276.45 212.40 m
32.77 0 l
o
0.8980 0.8980 0.8980 srgb
0.43 setlinewidth
[] 0 setdash
np
276.45 98.57 m
32.77 0 l
o
np
276.45 174.46 m
32.77 0 l
o
np
292.83 30.10 m
0 183.27 l
o
/bg { 0 0 0 srgb } def
284.64 162.62 2.13 c p2
284.64 158.75 2.13 c p2
284.64 159.55 2.13 c p2
0.2000 0.2000 0.2000 srgb
1.06 setlinewidth
[] 0 setdash
np
284.64 193.15 m
0 2.10 l
o
np
284.64 181.33 m
0 -14.56 l
o
/bg { 0.7451 0.7294 0.8549 srgb } def
1 setlinecap
np
 280.54 193.15 m
0 -11.82 l
8.20 0 l
0 11.82 l
-8.20 0 l
cp p3
2.13 setlinewidth
[] 0 setdash
0 setlinecap
np
280.54 188.50 m
8.20 0 l
o
/bg { 0 0 0 srgb } def
292.83 172.72 2.13 c p2
292.83 169.96 2.13 c p2
1.06 setlinewidth
[] 0 setdash
np
292.83 193.77 m
0 1.10 l
o
np
292.83 185.99 m
0 -5.71 l
o
/bg { 0.9608 0.9608 0.9608 srgb } def
1 setlinecap
np
 288.74 193.77 m
0 -7.78 l
8.19 0 l
0 7.78 l
-8.19 0 l
cp p3
2.13 setlinewidth
[] 0 setdash
0 setlinecap
np
288.74 192.37 m
8.19 0 l
o
1.06 setlinewidth
[] 0 setdash
np
301.03 195.75 m
0 5.52 l
o
np
301.03 181.11 m
0 -17.36 l
o
/bg { 0.8941 0.1020 0.1098 srgb } def
1 setlinecap
np
 296.93 195.75 m
0 -14.64 l
8.20 0 l
0 14.64 l
-8.20 0 l
cp p3
2.13 setlinewidth
[] 0 setdash
0 setlinecap
np
296.93 189.67 m
8.20 0 l
o
0.4980 0.4980 0.4980 srgb
1.06 setlinewidth
[] 0 setdash
1 setlinecap
276.45 30.10 32.78 183.26 r p1
0.00 0.00 360.00 288.00 cl
312.82 30.10 345.60 213.37 cl
/bg { 1 1 1 srgb } def
312.82 30.10 32.78 183.26 r p2
0.9804 0.9804 0.9804 srgb
1.06 setlinewidth
[] 0 setdash
0 setlinecap
1 setlinejoin
10.00 setmiterlimit
np
312.82 60.63 m
32.78 0 l
o
np
312.82 136.52 m
32.78 0 l
o
np
312.82 212.40 m
32.78 0 l
o
0.8980 0.8980 0.8980 srgb
0.43 setlinewidth
[] 0 setdash
np
312.82 98.57 m
32.78 0 l
o
np
312.82 174.46 m
32.78 0 l
o
np
329.21 30.10 m
0 183.27 l
o
/bg { 0 0 0 srgb } def
321.02 113.99 2.13 c p2
321.02 70.68 2.13 c p2
321.02 82.80 2.13 c p2
321.02 90.80 2.13 c p2
321.02 38.43 2.13 c p2
321.02 127.02 2.13 c p2
0.2000 0.2000 0.2000 srgb
1.06 setlinewidth
[] 0 setdash
np
321.02 186.00 m
0 8.87 l
o
np
321.02 163.23 m
0 -30.94 l
o
/bg { 0.7451 0.7294 0.8549 srgb } def
1 setlinecap
np
 316.92 186.00 m
0 -22.77 l
8.19 0 l
0 22.77 l
-8.19 0 l
cp p3
2.13 setlinewidth
[] 0 setdash
0 setlinecap
np
316.92 175.46 m
8.19 0 l
o
/bg { 0 0 0 srgb } def
329.21 150.03 2.13 c p2
1.06 setlinewidth
[] 0 setdash
np
329.21 193.63 m
0 1.49 l
o
np
329.21 179.58 m
0 -20.31 l
o
/bg { 0.9608 0.9608 0.9608 srgb } def
1 setlinecap
np
 325.11 193.63 m
0 -14.05 l
8.20 0 l
0 14.05 l
-8.20 0 l
cp p3
2.13 setlinewidth
[] 0 setdash
0 setlinecap
np
325.11 191.08 m
8.20 0 l
o
/bg { 0 0 0 srgb } def
337.41 152.37 2.13 c p2
1.06 setlinewidth
[] 0 setdash
np
337.41 193.90 m
0 8.41 l
o
np
337.41 178.81 m
0 -20.86 l
o
/bg { 0.8941 0.1020 0.1098 srgb } def
1 setlinecap
np
 333.31 193.90 m
0 -15.09 l
8.19 0 l
0 15.09 l
-8.19 0 l
cp p3
2.13 setlinewidth
[] 0 setdash
0 setlinecap
np
333.31 188.38 m
8.19 0 l
o
0.4980 0.4980 0.4980 srgb
1.06 setlinewidth
[] 0 setdash
1 setlinecap
312.82 30.10 32.78 183.26 r p1
0.00 0.00 360.00 288.00 cl
0.00 0.00 360.00 288.00 cl
0.00 0.00 360.00 288.00 cl
/Font1 findfont 10 s
0 0 0 srgb
51.10 94.98 (1e+03) 1 0 t
51.10 170.87 (1e+05) 1 0 t
0.00 0.00 360.00 288.00 cl
0.00 0.00 360.00 288.00 cl
0.00 0.00 360.00 288.00 cl
0.00 0.00 360.00 288.00 cl
0.00 0.00 360.00 288.00 cl
0.00 0.00 360.00 288.00 cl
0.00 0.00 360.00 288.00 cl
0.00 0.00 360.00 288.00 cl
0.00 0.00 360.00 288.00 cl
0.00 0.00 360.00 288.00 cl
0.00 0.00 360.00 288.00 cl
0.00 0.00 360.00 288.00 cl
0.00 0.00 360.00 288.00 cl
0.00 0.00 360.00 288.00 cl
0.00 0.00 360.00 288.00 cl
0.00 0.00 360.00 288.00 cl
0.00 0.00 360.00 288.00 cl
0.00 0.00 360.00 288.00 cl
0.00 0.00 360.00 288.00 cl
0.00 0.00 360.00 288.00 cl
0.00 0.00 360.00 288.00 cl
0.00 0.00 360.00 288.00 cl
0.00 0.00 360.00 288.00 cl
0.00 0.00 360.00 288.00 cl
0.00 0.00 360.00 288.00 cl
0.00 0.00 360.00 288.00 cl
0.00 0.00 360.00 288.00 cl
0.00 0.00 360.00 288.00 cl
0.00 0.00 360.00 288.00 cl
0.00 0.00 360.00 288.00 cl
0.00 0.00 360.00 288.00 cl
0.00 0.00 360.00 288.00 cl
0.00 0.00 360.00 288.00 cl
0.00 0.00 360.00 288.00 cl
0.00 0.00 360.00 288.00 cl
0.00 0.00 360.00 288.00 cl
0.00 0.00 360.00 288.00 cl
0.00 0.00 360.00 288.00 cl
0.00 0.00 360.00 288.00 cl
0.00 0.00 360.00 288.00 cl
0.00 0.00 360.00 288.00 cl
0.00 0.00 360.00 288.00 cl
0.00 0.00 360.00 288.00 cl
0.00 0.00 360.00 288.00 cl
0.00 0.00 360.00 288.00 cl
0.00 0.00 360.00 288.00 cl
0.00 0.00 360.00 288.00 cl
0.00 0.00 360.00 288.00 cl
0.00 0.00 360.00 288.00 cl
0.00 0.00 360.00 288.00 cl
0.00 0.00 360.00 288.00 cl
0.00 0.00 360.00 288.00 cl
0.00 0.00 360.00 288.00 cl
0.00 0.00 360.00 288.00 cl
0.00 0.00 360.00 288.00 cl
0.00 0.00 360.00 288.00 cl
0.00 0.00 360.00 288.00 cl
0.00 0.00 360.00 288.00 cl
0.00 0.00 360.00 288.00 cl
0.00 0.00 360.00 288.00 cl
0.00 0.00 360.00 288.00 cl
0.00 0.00 360.00 288.00 cl
0.00 0.00 360.00 288.00 cl
0.00 0.00 360.00 288.00 cl
0.00 0.00 360.00 288.00 cl
0.00 0.00 360.00 288.00 cl
0.00 0.00 360.00 288.00 cl
0.00 0.00 360.00 288.00 cl
0.00 0.00 360.00 288.00 cl
0.00 0.00 360.00 288.00 cl
0.00 0.00 360.00 288.00 cl
/Font1 findfont 12 s
0 0 0 srgb
182.22 10.80 (br) 0 ta
-0.120 (ack) tb
-0.240 (et) tb gr
0.00 0.00 360.00 288.00 cl
0.00 0.00 360.00 288.00 cl
0.00 0.00 360.00 288.00 cl
0.00 0.00 360.00 288.00 cl
0.00 0.00 360.00 288.00 cl
0.00 0.00 360.00 288.00 cl
0.00 0.00 360.00 288.00 cl
0.00 0.00 360.00 288.00 cl
/bg { 1 1 1 srgb } def
70.04 237.78 263.70 25.78 r p2
0.00 0.00 360.00 288.00 cl
0.00 0.00 360.00 288.00 cl
/Font2 findfont 10 s
0 0 0 srgb
74.29 247.08 (corpus) 0 0 t
0.00 0.00 360.00 288.00 cl
0.00 0.00 360.00 288.00 cl
/bg { 1 1 1 srgb } def
0.8000 0.8000 0.8000 srgb
1.06 setlinewidth
[] 0 setdash
1 setlinecap
1 setlinejoin
10.00 setmiterlimit
111.95 242.03 17.28 17.28 r p3
0.00 0.00 360.00 288.00 cl
0.00 0.00 360.00 288.00 cl
0.2000 0.2000 0.2000 srgb
1.06 setlinewidth
[] 0 setdash
1 setlinecap
1 setlinejoin
10.00 setmiterlimit
np
120.59 243.76 m
0 2.59 l
o
np
120.59 254.99 m
0 2.60 l
o
/bg { 0.7451 0.7294 0.8549 srgb } def
114.11 246.35 12.96 8.64 r p3
np
114.11 250.67 m
12.96 0 l
o
0.00 0.00 360.00 288.00 cl
0.00 0.00 360.00 288.00 cl
/bg { 1 1 1 srgb } def
0.8000 0.8000 0.8000 srgb
1.06 setlinewidth
[] 0 setdash
1 setlinecap
1 setlinejoin
10.00 setmiterlimit
190.39 242.03 17.28 17.28 r p3
0.00 0.00 360.00 288.00 cl
0.00 0.00 360.00 288.00 cl
0.2000 0.2000 0.2000 srgb
1.06 setlinewidth
[] 0 setdash
1 setlinecap
1 setlinejoin
10.00 setmiterlimit
np
199.03 243.76 m
0 2.59 l
o
np
199.03 254.99 m
0 2.60 l
o
/bg { 0.9608 0.9608 0.9608 srgb } def
192.55 246.35 12.96 8.64 r p3
np
192.55 250.67 m
12.96 0 l
o
0.00 0.00 360.00 288.00 cl
0.00 0.00 360.00 288.00 cl
/bg { 1 1 1 srgb } def
0.8000 0.8000 0.8000 srgb
1.06 setlinewidth
[] 0 setdash
1 setlinecap
1 setlinejoin
10.00 setmiterlimit
266.71 242.03 17.28 17.28 r p3
0.00 0.00 360.00 288.00 cl
0.00 0.00 360.00 288.00 cl
0.2000 0.2000 0.2000 srgb
1.06 setlinewidth
[] 0 setdash
1 setlinecap
1 setlinejoin
10.00 setmiterlimit
np
275.35 243.76 m
0 2.59 l
o
np
275.35 254.99 m
0 2.60 l
o
/bg { 0.8941 0.1020 0.1098 srgb } def
268.87 246.35 12.96 8.64 r p3
np
268.87 250.67 m
12.96 0 l
o
0.00 0.00 360.00 288.00 cl
0.00 0.00 360.00 288.00 cl
/Font1 findfont 10 s
0 0 0 srgb
131.39 247.08 (AID) 0 ta
-0.400 (A CoNLL) tb gr
0.00 0.00 360.00 288.00 cl
0.00 0.00 360.00 288.00 cl
/Font1 findfont 10 s
0 0 0 srgb
209.83 247.08 (ClueW) 0 ta
-0.300 (eb 12) tb gr
0.00 0.00 360.00 288.00 cl
0.00 0.00 360.00 288.00 cl
/Font1 findfont 10 s
0 0 0 srgb
286.15 247.08 (Wikipedia) 0 0 t
0.00 0.00 360.00 288.00 cl
0.00 0.00 360.00 288.00 cl
0.00 0.00 360.00 288.00 cl
0.00 0.00 360.00 288.00 cl
0.00 0.00 360.00 288.00 cl
0.00 0.00 360.00 288.00 cl
0.00 0.00 360.00 288.00 cl
0.00 0.00 360.00 288.00 cl
0.00 0.00 360.00 288.00 cl
0.00 0.00 360.00 288.00 cl
0.00 0.00 360.00 288.00 cl
0.00 0.00 360.00 288.00 cl
ep
%%Trailer
%%Pages: 1
%%EOF
