%!PS-Adobe-3.0 EPSF-3.0
%%DocumentNeededResources: font Helvetica
%%+ font Helvetica-Bold
%%+ font Helvetica-Oblique
%%+ font Helvetica-BoldOblique
%%+ font Symbol
%%Title: R Graphics Output
%%Creator: R Software
%%Pages: (atend)
%%BoundingBox: 0 0 360 288
%%EndComments
%%BeginProlog
/bp  { gs sRGB gs } def
% begin .ps.prolog
/gs  { gsave } bind def
/gr  { grestore } bind def
/ep  { showpage gr gr } bind def
/m   { moveto } bind def
/l  { rlineto } bind def
/np  { newpath } bind def
/cp  { closepath } bind def
/f   { fill } bind def
/o   { stroke } bind def
/c   { newpath 0 360 arc } bind def
/r   { 4 2 roll moveto 1 copy 3 -1 roll exch 0 exch rlineto 0 rlineto -1 mul 0 exch rlineto closepath } bind def
/p1  { stroke } bind def
/p2  { gsave bg fill grestore newpath } bind def
/p3  { gsave bg fill grestore stroke } bind def
/p6  { gsave bg eofill grestore newpath } bind def
/p7  { gsave bg eofill grestore stroke } bind def
/t   { 5 -2 roll moveto gsave rotate
       1 index stringwidth pop
       mul neg 0 rmoveto show grestore } bind def
/ta  { 4 -2 roll moveto gsave rotate show } bind def
/tb  { 2 -1 roll 0 rmoveto show } bind def
/cl  { grestore gsave newpath 3 index 3 index moveto 1 index
       4 -1 roll lineto  exch 1 index lineto lineto
       closepath clip newpath } bind def
/rgb { setrgbcolor } bind def
/s   { scalefont setfont } bind def
% end   .ps.prolog
/sRGB { [ /CIEBasedABC
          << /DecodeLMN
               [ { dup 0.03928 le
                        {12.92321 div}
                        {0.055 add 1.055 div 2.4 exp }
                     ifelse
                 } bind dup dup
               ]
             /MatrixLMN [0.412457 0.212673 0.019334
                         0.357576 0.715152 0.119192
                         0.180437 0.072175 0.950301]
             /WhitePoint [0.9505 1.0 1.0890]
           >>
         ] setcolorspace } bind def
/srgb { setcolor } bind def
%%IncludeResource: font Helvetica
/Helvetica findfont
dup length dict begin
  {1 index /FID ne {def} {pop pop} ifelse} forall
  /Encoding ISOLatin1Encoding def
  currentdict
  end
/Font1 exch definefont pop
%%IncludeResource: font Helvetica-Bold
/Helvetica-Bold findfont
dup length dict begin
  {1 index /FID ne {def} {pop pop} ifelse} forall
  /Encoding ISOLatin1Encoding def
  currentdict
  end
/Font2 exch definefont pop
%%IncludeResource: font Helvetica-Oblique
/Helvetica-Oblique findfont
dup length dict begin
  {1 index /FID ne {def} {pop pop} ifelse} forall
  /Encoding ISOLatin1Encoding def
  currentdict
  end
/Font3 exch definefont pop
%%IncludeResource: font Helvetica-BoldOblique
/Helvetica-BoldOblique findfont
dup length dict begin
  {1 index /FID ne {def} {pop pop} ifelse} forall
  /Encoding ISOLatin1Encoding def
  currentdict
  end
/Font4 exch definefont pop
%%IncludeResource: font Symbol
/Symbol findfont
dup length dict begin
  {1 index /FID ne {def} {pop pop} ifelse} forall
  currentdict
  end
/Font5 exch definefont pop
%%EndProlog
%%Page: 1 1
bp
0.00 0.00 360.00 288.00 cl
0.00 0.00 360.00 288.00 cl
0.00 0.00 360.00 288.00 cl
/bg { 1 1 1 srgb } def
1 1 1 srgb
1.06 setlinewidth
[] 0 setdash
1 setlinecap
1 setlinejoin
10.00 setmiterlimit
0.00 -0.00 360.00 288.00 r p3
0.00 0.00 360.00 288.00 cl
46.78 213.37 80.98 227.75 cl
/bg { 0.8000 0.8000 0.8000 srgb } def
0.4980 0.4980 0.4980 srgb
0.43 setlinewidth
[] 0 setdash
1 setlinecap
1 setlinejoin
10.00 setmiterlimit
46.78 213.37 34.20 14.38 r p3
/Font1 findfont 10 s
0 0 0 srgb
63.88 216.97 (0.3) .5 0 t
0.00 0.00 360.00 288.00 cl
84.58 213.37 118.79 227.75 cl
/bg { 0.8000 0.8000 0.8000 srgb } def
0.4980 0.4980 0.4980 srgb
0.43 setlinewidth
[] 0 setdash
1 setlinecap
1 setlinejoin
10.00 setmiterlimit
84.58 213.37 34.20 14.38 r p3
/Font1 findfont 10 s
0 0 0 srgb
101.69 216.97 (0.4) .5 0 t
0.00 0.00 360.00 288.00 cl
122.39 213.37 156.59 227.75 cl
/bg { 0.8000 0.8000 0.8000 srgb } def
0.4980 0.4980 0.4980 srgb
0.43 setlinewidth
[] 0 setdash
1 setlinecap
1 setlinejoin
10.00 setmiterlimit
122.39 213.37 34.20 14.38 r p3
/Font1 findfont 10 s
0 0 0 srgb
139.49 216.97 (0.5) .5 0 t
0.00 0.00 360.00 288.00 cl
160.19 213.37 194.39 227.75 cl
/bg { 0.8000 0.8000 0.8000 srgb } def
0.4980 0.4980 0.4980 srgb
0.43 setlinewidth
[] 0 setdash
1 setlinecap
1 setlinejoin
10.00 setmiterlimit
160.19 213.37 34.20 14.38 r p3
/Font1 findfont 10 s
0 0 0 srgb
177.29 216.97 (0.6) .5 0 t
0.00 0.00 360.00 288.00 cl
197.99 213.37 232.19 227.75 cl
/bg { 0.8000 0.8000 0.8000 srgb } def
0.4980 0.4980 0.4980 srgb
0.43 setlinewidth
[] 0 setdash
1 setlinecap
1 setlinejoin
10.00 setmiterlimit
197.99 213.37 34.20 14.38 r p3
/Font1 findfont 10 s
0 0 0 srgb
215.09 216.97 (0.7) .5 0 t
0.00 0.00 360.00 288.00 cl
235.79 213.37 270.00 227.75 cl
/bg { 0.8000 0.8000 0.8000 srgb } def
0.4980 0.4980 0.4980 srgb
0.43 setlinewidth
[] 0 setdash
1 setlinecap
1 setlinejoin
10.00 setmiterlimit
235.79 213.37 34.20 14.38 r p3
/Font1 findfont 10 s
0 0 0 srgb
252.89 216.97 (0.8) .5 0 t
0.00 0.00 360.00 288.00 cl
273.60 213.37 307.80 227.75 cl
/bg { 0.8000 0.8000 0.8000 srgb } def
0.4980 0.4980 0.4980 srgb
0.43 setlinewidth
[] 0 setdash
1 setlinecap
1 setlinejoin
10.00 setmiterlimit
273.60 213.37 34.20 14.38 r p3
/Font1 findfont 10 s
0 0 0 srgb
290.70 216.97 (0.9) .5 0 t
0.00 0.00 360.00 288.00 cl
311.40 213.37 345.60 227.75 cl
/bg { 0.8000 0.8000 0.8000 srgb } def
0.4980 0.4980 0.4980 srgb
0.43 setlinewidth
[] 0 setdash
1 setlinecap
1 setlinejoin
10.00 setmiterlimit
311.40 213.37 34.20 14.38 r p3
/Font1 findfont 10 s
0 0 0 srgb
328.50 216.97 (1) .5 0 t
0.00 0.00 360.00 288.00 cl
46.78 30.10 80.98 213.37 cl
/bg { 1 1 1 srgb } def
46.78 30.10 34.20 183.26 r p2
0.9804 0.9804 0.9804 srgb
1.06 setlinewidth
[] 0 setdash
0 setlinecap
1 setlinejoin
10.00 setmiterlimit
np
46.78 53.29 m
34.20 0 l
o
np
46.78 127.94 m
34.20 0 l
o
np
46.78 202.59 m
34.20 0 l
o
0.8980 0.8980 0.8980 srgb
0.43 setlinewidth
[] 0 setdash
np
46.78 90.61 m
34.20 0 l
o
np
46.78 165.27 m
34.20 0 l
o
np
63.88 30.10 m
0 183.27 l
o
0.2000 0.2000 0.2000 srgb
1.06 setlinewidth
[] 0 setdash
np
55.33 117.62 m
0 37.88 l
o
np
55.33 87.20 m
0 -35.62 l
o
/bg { 0.7451 0.7294 0.8549 srgb } def
1 setlinecap
np
 51.06 117.62 m
0 -30.42 l
8.55 0 l
0 30.42 l
-8.55 0 l
cp p3
2.13 setlinewidth
[] 0 setdash
0 setlinecap
np
51.06 96.52 m
8.55 0 l
o
1.06 setlinewidth
[] 0 setdash
np
63.88 138.09 m
0 4.70 l
o
np
63.88 125.13 m
0 -3.54 l
o
/bg { 0.9608 0.9608 0.9608 srgb } def
1 setlinecap
np
 59.61 138.09 m
0 -12.96 l
8.55 0 l
0 12.96 l
-8.55 0 l
cp p3
2.13 setlinewidth
[] 0 setdash
0 setlinecap
np
59.61 130.76 m
8.55 0 l
o
/bg { 0 0 0 srgb } def
72.43 99.12 2.13 c p2
1.06 setlinewidth
[] 0 setdash
np
72.43 121.59 m
0 11.44 l
o
np
72.43 113.09 m
0 -9.33 l
o
/bg { 0.8941 0.1020 0.1098 srgb } def
1 setlinecap
np
 68.16 121.59 m
0 -8.50 l
8.55 0 l
0 8.50 l
-8.55 0 l
cp p3
2.13 setlinewidth
[] 0 setdash
0 setlinecap
np
68.16 114.67 m
8.55 0 l
o
0.4980 0.4980 0.4980 srgb
1.06 setlinewidth
[] 0 setdash
1 setlinecap
46.78 30.10 34.20 183.26 r p1
0.00 0.00 360.00 288.00 cl
84.58 30.10 118.79 213.37 cl
/bg { 1 1 1 srgb } def
84.58 30.10 34.20 183.26 r p2
0.9804 0.9804 0.9804 srgb
1.06 setlinewidth
[] 0 setdash
0 setlinecap
1 setlinejoin
10.00 setmiterlimit
np
84.58 53.29 m
34.21 0 l
o
np
84.58 127.94 m
34.21 0 l
o
np
84.58 202.59 m
34.21 0 l
o
0.8980 0.8980 0.8980 srgb
0.43 setlinewidth
[] 0 setdash
np
84.58 90.61 m
34.21 0 l
o
np
84.58 165.27 m
34.21 0 l
o
np
101.69 30.10 m
0 183.27 l
o
0.2000 0.2000 0.2000 srgb
1.06 setlinewidth
[] 0 setdash
np
93.14 131.23 m
0 38.85 l
o
np
93.14 99.12 m
0 -30.98 l
o
/bg { 0.7451 0.7294 0.8549 srgb } def
1 setlinecap
np
 88.86 131.23 m
0 -32.11 l
8.55 0 l
0 32.11 l
-8.55 0 l
cp p3
2.13 setlinewidth
[] 0 setdash
0 setlinecap
np
88.86 117.62 m
8.55 0 l
o
1.06 setlinewidth
[] 0 setdash
np
101.69 140.26 m
0 2.53 l
o
np
101.69 130.99 m
0 -8.17 l
o
/bg { 0.9608 0.9608 0.9608 srgb } def
1 setlinecap
np
 97.41 140.26 m
0 -9.27 l
8.55 0 l
0 9.27 l
-8.55 0 l
cp p3
2.13 setlinewidth
[] 0 setdash
0 setlinecap
np
97.41 135.56 m
8.55 0 l
o
/bg { 0 0 0 srgb } def
110.24 129.32 2.13 c p2
110.24 128.32 2.13 c p2
110.24 99.12 2.13 c p2
1.06 setlinewidth
[] 0 setdash
np
110.24 117.62 m
0 8.61 l
o
np
110.24 111.42 m
0 -3.60 l
o
/bg { 0.8941 0.1020 0.1098 srgb } def
1 setlinecap
np
 105.96 117.62 m
0 -6.20 l
8.55 0 l
0 6.20 l
-8.55 0 l
cp p3
2.13 setlinewidth
[] 0 setdash
0 setlinecap
np
105.96 114.67 m
8.55 0 l
o
0.4980 0.4980 0.4980 srgb
1.06 setlinewidth
[] 0 setdash
1 setlinecap
84.58 30.10 34.20 183.26 r p1
0.00 0.00 360.00 288.00 cl
122.39 30.10 156.59 213.37 cl
/bg { 1 1 1 srgb } def
122.39 30.10 34.20 183.26 r p2
0.9804 0.9804 0.9804 srgb
1.06 setlinewidth
[] 0 setdash
0 setlinecap
1 setlinejoin
10.00 setmiterlimit
np
122.39 53.29 m
34.20 0 l
o
np
122.39 127.94 m
34.20 0 l
o
np
122.39 202.59 m
34.20 0 l
o
0.8980 0.8980 0.8980 srgb
0.43 setlinewidth
[] 0 setdash
np
122.39 90.61 m
34.20 0 l
o
np
122.39 165.27 m
34.20 0 l
o
np
139.49 30.10 m
0 183.27 l
o
/bg { 0 0 0 srgb } def
130.94 38.43 2.13 c p2
0.2000 0.2000 0.2000 srgb
1.06 setlinewidth
[] 0 setdash
np
130.94 129.32 m
0 29.90 l
o
np
130.94 96.52 m
0 -44.94 l
o
/bg { 0.7451 0.7294 0.8549 srgb } def
1 setlinecap
np
 126.66 129.32 m
0 -32.80 l
8.55 0 l
0 32.80 l
-8.55 0 l
cp p3
2.13 setlinewidth
[] 0 setdash
0 setlinecap
np
126.66 114.67 m
8.55 0 l
o
1.06 setlinewidth
[] 0 setdash
np
139.49 139.38 m
0 3.41 l
o
np
139.49 130.29 m
0 -12.67 l
o
/bg { 0.9608 0.9608 0.9608 srgb } def
1 setlinecap
np
 135.21 139.38 m
0 -9.09 l
8.55 0 l
0 9.09 l
-8.55 0 l
cp p3
2.13 setlinewidth
[] 0 setdash
0 setlinecap
np
135.21 133.03 m
8.55 0 l
o
/bg { 0 0 0 srgb } def
148.04 131.23 2.13 c p2
1.06 setlinewidth
[] 0 setdash
np
148.04 119.00 m
0 11.29 l
o
np
148.04 111.42 m
0 -9.90 l
o
/bg { 0.8941 0.1020 0.1098 srgb } def
1 setlinecap
np
 143.76 119.00 m
0 -7.58 l
8.55 0 l
0 7.58 l
-8.55 0 l
cp p3
2.13 setlinewidth
[] 0 setdash
0 setlinecap
np
143.76 114.67 m
8.55 0 l
o
0.4980 0.4980 0.4980 srgb
1.06 setlinewidth
[] 0 setdash
1 setlinecap
122.39 30.10 34.20 183.26 r p1
0.00 0.00 360.00 288.00 cl
160.19 30.10 194.39 213.37 cl
/bg { 1 1 1 srgb } def
160.19 30.10 34.20 183.26 r p2
0.9804 0.9804 0.9804 srgb
1.06 setlinewidth
[] 0 setdash
0 setlinecap
1 setlinejoin
10.00 setmiterlimit
np
160.19 53.29 m
34.20 0 l
o
np
160.19 127.94 m
34.20 0 l
o
np
160.19 202.59 m
34.20 0 l
o
0.8980 0.8980 0.8980 srgb
0.43 setlinewidth
[] 0 setdash
np
160.19 90.61 m
34.20 0 l
o
np
160.19 165.27 m
34.20 0 l
o
np
177.29 30.10 m
0 183.27 l
o
0.2000 0.2000 0.2000 srgb
1.06 setlinewidth
[] 0 setdash
np
168.74 126.50 m
0 38.11 l
o
np
168.74 96.52 m
0 -44.94 l
o
/bg { 0.7451 0.7294 0.8549 srgb } def
1 setlinecap
np
 164.46 126.50 m
0 -29.98 l
8.55 0 l
0 29.98 l
-8.55 0 l
cp p3
2.13 setlinewidth
[] 0 setdash
0 setlinecap
np
164.46 113.09 m
8.55 0 l
o
1.06 setlinewidth
[] 0 setdash
np
177.29 140.09 m
0 2.70 l
o
np
177.29 128.32 m
0 -10.70 l
o
/bg { 0.9608 0.9608 0.9608 srgb } def
1 setlinecap
np
 173.01 140.09 m
0 -11.77 l
8.56 0 l
0 11.77 l
-8.56 0 l
cp p3
2.13 setlinewidth
[] 0 setdash
0 setlinecap
np
173.01 133.89 m
8.56 0 l
o
/bg { 0 0 0 srgb } def
185.84 93.70 2.13 c p2
185.84 130.29 2.13 c p2
1.06 setlinewidth
[] 0 setdash
np
185.84 117.62 m
0 6.37 l
o
np
185.84 109.67 m
0 -8.15 l
o
/bg { 0.8941 0.1020 0.1098 srgb } def
1 setlinecap
np
 181.57 117.62 m
0 -7.95 l
8.55 0 l
0 7.95 l
-8.55 0 l
cp p3
2.13 setlinewidth
[] 0 setdash
0 setlinecap
np
181.57 113.09 m
8.55 0 l
o
0.4980 0.4980 0.4980 srgb
1.06 setlinewidth
[] 0 setdash
1 setlinecap
160.19 30.10 34.20 183.26 r p1
0.00 0.00 360.00 288.00 cl
197.99 30.10 232.19 213.37 cl
/bg { 1 1 1 srgb } def
197.99 30.10 34.20 183.26 r p2
0.9804 0.9804 0.9804 srgb
1.06 setlinewidth
[] 0 setdash
0 setlinecap
1 setlinejoin
10.00 setmiterlimit
np
197.99 53.29 m
34.20 0 l
o
np
197.99 127.94 m
34.20 0 l
o
np
197.99 202.59 m
34.20 0 l
o
0.8980 0.8980 0.8980 srgb
0.43 setlinewidth
[] 0 setdash
np
197.99 90.61 m
34.20 0 l
o
np
197.99 165.27 m
34.20 0 l
o
np
215.09 30.10 m
0 183.27 l
o
0.2000 0.2000 0.2000 srgb
1.06 setlinewidth
[] 0 setdash
np
206.54 133.03 m
0 44.28 l
o
np
206.54 101.52 m
0 -40.61 l
o
/bg { 0.7451 0.7294 0.8549 srgb } def
1 setlinecap
np
 202.27 133.03 m
0 -31.51 l
8.55 0 l
0 31.51 l
-8.55 0 l
cp p3
2.13 setlinewidth
[] 0 setdash
0 setlinecap
np
202.27 119.00 m
8.55 0 l
o
1.06 setlinewidth
[] 0 setdash
np
215.09 135.56 m
0 7.23 l
o
np
215.09 122.51 m
0 -4.89 l
o
/bg { 0.9608 0.9608 0.9608 srgb } def
1 setlinecap
np
 210.82 135.56 m
0 -13.05 l
8.55 0 l
0 13.05 l
-8.55 0 l
cp p3
2.13 setlinewidth
[] 0 setdash
0 setlinecap
np
210.82 130.29 m
8.55 0 l
o
/bg { 0 0 0 srgb } def
223.64 90.61 2.13 c p2
223.64 87.20 2.13 c p2
1.06 setlinewidth
[] 0 setdash
np
223.64 117.62 m
0 6.37 l
o
np
223.64 107.82 m
0 -8.70 l
o
/bg { 0.8941 0.1020 0.1098 srgb } def
1 setlinecap
np
 219.37 117.62 m
0 -9.80 l
8.55 0 l
0 9.80 l
-8.55 0 l
cp p3
2.13 setlinewidth
[] 0 setdash
0 setlinecap
np
219.37 113.09 m
8.55 0 l
o
0.4980 0.4980 0.4980 srgb
1.06 setlinewidth
[] 0 setdash
1 setlinecap
197.99 30.10 34.20 183.26 r p1
0.00 0.00 360.00 288.00 cl
235.79 30.10 270.00 213.37 cl
/bg { 1 1 1 srgb } def
235.79 30.10 34.20 183.26 r p2
0.9804 0.9804 0.9804 srgb
1.06 setlinewidth
[] 0 setdash
0 setlinecap
1 setlinejoin
10.00 setmiterlimit
np
235.79 53.29 m
34.21 0 l
o
np
235.79 127.94 m
34.21 0 l
o
np
235.79 202.59 m
34.21 0 l
o
0.8980 0.8980 0.8980 srgb
0.43 setlinewidth
[] 0 setdash
np
235.79 90.61 m
34.21 0 l
o
np
235.79 165.27 m
34.21 0 l
o
np
252.89 30.10 m
0 183.27 l
o
0.2000 0.2000 0.2000 srgb
1.06 setlinewidth
[] 0 setdash
np
244.34 131.23 m
0 38.28 l
o
np
244.34 99.12 m
0 -30.98 l
o
/bg { 0.7451 0.7294 0.8549 srgb } def
1 setlinecap
np
 240.07 131.23 m
0 -32.11 l
8.55 0 l
0 32.11 l
-8.55 0 l
cp p3
2.13 setlinewidth
[] 0 setdash
0 setlinecap
np
240.07 116.90 m
8.55 0 l
o
1.06 setlinewidth
[] 0 setdash
np
252.89 136.55 m
0 6.24 l
o
np
252.89 124.85 m
0 -10.18 l
o
/bg { 0.9608 0.9608 0.9608 srgb } def
1 setlinecap
np
 248.62 136.55 m
0 -11.70 l
8.55 0 l
0 11.70 l
-8.55 0 l
cp p3
2.13 setlinewidth
[] 0 setdash
0 setlinecap
np
248.62 131.69 m
8.55 0 l
o
1.06 setlinewidth
[] 0 setdash
np
261.45 119.00 m
0 9.32 l
o
np
261.45 107.82 m
0 -8.70 l
o
/bg { 0.8941 0.1020 0.1098 srgb } def
1 setlinecap
np
 257.17 119.00 m
0 -11.18 l
8.55 0 l
0 11.18 l
-8.55 0 l
cp p3
2.13 setlinewidth
[] 0 setdash
0 setlinecap
np
257.17 114.67 m
8.55 0 l
o
0.4980 0.4980 0.4980 srgb
1.06 setlinewidth
[] 0 setdash
1 setlinecap
235.79 30.10 34.20 183.26 r p1
0.00 0.00 360.00 288.00 cl
273.60 30.10 307.80 213.37 cl
/bg { 1 1 1 srgb } def
273.60 30.10 34.20 183.26 r p2
0.9804 0.9804 0.9804 srgb
1.06 setlinewidth
[] 0 setdash
0 setlinecap
1 setlinejoin
10.00 setmiterlimit
np
273.60 53.29 m
34.20 0 l
o
np
273.60 127.94 m
34.20 0 l
o
np
273.60 202.59 m
34.20 0 l
o
0.8980 0.8980 0.8980 srgb
0.43 setlinewidth
[] 0 setdash
np
273.60 90.61 m
34.20 0 l
o
np
273.60 165.27 m
34.20 0 l
o
np
290.70 30.10 m
0 183.27 l
o
/bg { 0 0 0 srgb } def
282.15 205.04 2.13 c p2
282.15 201.53 2.13 c p2
0.2000 0.2000 0.2000 srgb
1.06 setlinewidth
[] 0 setdash
np
282.15 141.64 m
0 50.49 l
o
np
282.15 107.82 m
0 -17.21 l
o
/bg { 0.7451 0.7294 0.8549 srgb } def
1 setlinecap
np
 277.87 141.64 m
0 -33.82 l
8.55 0 l
0 33.82 l
-8.55 0 l
cp p3
2.13 setlinewidth
[] 0 setdash
0 setlinecap
np
277.87 123.40 m
8.55 0 l
o
1.06 setlinewidth
[] 0 setdash
np
290.70 138.09 m
0 4.05 l
o
np
290.70 123.70 m
0 -9.03 l
o
/bg { 0.9608 0.9608 0.9608 srgb } def
1 setlinecap
np
 286.42 138.09 m
0 -14.39 l
8.55 0 l
0 14.39 l
-8.55 0 l
cp p3
2.13 setlinewidth
[] 0 setdash
0 setlinecap
np
286.42 128.82 m
8.55 0 l
o
1.06 setlinewidth
[] 0 setdash
np
299.25 117.62 m
0 15.41 l
o
np
299.25 105.85 m
0 -6.73 l
o
/bg { 0.8941 0.1020 0.1098 srgb } def
1 setlinecap
np
 294.97 117.62 m
0 -11.77 l
8.55 0 l
0 11.77 l
-8.55 0 l
cp p3
2.13 setlinewidth
[] 0 setdash
0 setlinecap
np
294.97 113.09 m
8.55 0 l
o
0.4980 0.4980 0.4980 srgb
1.06 setlinewidth
[] 0 setdash
1 setlinecap
273.60 30.10 34.20 183.26 r p1
0.00 0.00 360.00 288.00 cl
311.40 30.10 345.60 213.37 cl
/bg { 1 1 1 srgb } def
311.40 30.10 34.20 183.26 r p2
0.9804 0.9804 0.9804 srgb
1.06 setlinewidth
[] 0 setdash
0 setlinecap
1 setlinejoin
10.00 setmiterlimit
np
311.40 53.29 m
34.20 0 l
o
np
311.40 127.94 m
34.20 0 l
o
np
311.40 202.59 m
34.20 0 l
o
0.8980 0.8980 0.8980 srgb
0.43 setlinewidth
[] 0 setdash
np
311.40 90.61 m
34.20 0 l
o
np
311.40 165.27 m
34.20 0 l
o
np
328.50 30.10 m
0 183.27 l
o
/bg { 0 0 0 srgb } def
319.95 160.75 2.13 c p2
319.95 150.80 2.13 c p2
319.95 150.29 2.13 c p2
0.2000 0.2000 0.2000 srgb
1.06 setlinewidth
[] 0 setdash
np
319.95 103.76 m
0 39.67 l
o
np
319.95 74.05 m
0 -35.62 l
o
/bg { 0.7451 0.7294 0.8549 srgb } def
1 setlinecap
np
 315.67 103.76 m
0 -29.71 l
8.55 0 l
0 29.71 l
-8.55 0 l
cp p3
2.13 setlinewidth
[] 0 setdash
0 setlinecap
np
315.67 87.20 m
8.55 0 l
o
/bg { 0 0 0 srgb } def
328.50 60.91 2.13 c p2
328.50 140.79 2.13 c p2
328.50 140.79 2.13 c p2
1.06 setlinewidth
[] 0 setdash
np
328.50 126.23 m
0 12.42 l
o
np
328.50 117.26 m
0 -2.59 l
o
/bg { 0.9608 0.9608 0.9608 srgb } def
1 setlinecap
np
 324.22 126.23 m
0 -8.97 l
8.55 0 l
0 8.97 l
-8.55 0 l
cp p3
2.13 setlinewidth
[] 0 setdash
0 setlinecap
np
324.22 123.40 m
8.55 0 l
o
/bg { 0 0 0 srgb } def
337.05 83.38 2.13 c p2
1.06 setlinewidth
[] 0 setdash
np
337.05 113.09 m
0 13.14 l
o
np
337.05 103.76 m
0 -7.24 l
o
/bg { 0.8941 0.1020 0.1098 srgb } def
1 setlinecap
np
 332.77 113.09 m
0 -9.33 l
8.55 0 l
0 9.33 l
-8.55 0 l
cp p3
2.13 setlinewidth
[] 0 setdash
0 setlinecap
np
332.77 109.67 m
8.55 0 l
o
0.4980 0.4980 0.4980 srgb
1.06 setlinewidth
[] 0 setdash
1 setlinecap
311.40 30.10 34.20 183.26 r p1
0.00 0.00 360.00 288.00 cl
0.00 0.00 360.00 288.00 cl
0.00 0.00 360.00 288.00 cl
/Font1 findfont 10 s
0 0 0 srgb
39.70 87.02 (10) 1 0 t
39.70 161.68 (100) 1 0 t
0.00 0.00 360.00 288.00 cl
0.00 0.00 360.00 288.00 cl
0.00 0.00 360.00 288.00 cl
0.00 0.00 360.00 288.00 cl
0.00 0.00 360.00 288.00 cl
0.00 0.00 360.00 288.00 cl
0.00 0.00 360.00 288.00 cl
0.00 0.00 360.00 288.00 cl
0.00 0.00 360.00 288.00 cl
0.00 0.00 360.00 288.00 cl
0.00 0.00 360.00 288.00 cl
0.00 0.00 360.00 288.00 cl
0.00 0.00 360.00 288.00 cl
0.00 0.00 360.00 288.00 cl
0.00 0.00 360.00 288.00 cl
0.00 0.00 360.00 288.00 cl
0.00 0.00 360.00 288.00 cl
0.00 0.00 360.00 288.00 cl
0.00 0.00 360.00 288.00 cl
0.00 0.00 360.00 288.00 cl
0.00 0.00 360.00 288.00 cl
0.00 0.00 360.00 288.00 cl
0.00 0.00 360.00 288.00 cl
0.00 0.00 360.00 288.00 cl
0.00 0.00 360.00 288.00 cl
0.00 0.00 360.00 288.00 cl
0.00 0.00 360.00 288.00 cl
0.00 0.00 360.00 288.00 cl
0.00 0.00 360.00 288.00 cl
0.00 0.00 360.00 288.00 cl
0.00 0.00 360.00 288.00 cl
0.00 0.00 360.00 288.00 cl
0.00 0.00 360.00 288.00 cl
0.00 0.00 360.00 288.00 cl
0.00 0.00 360.00 288.00 cl
0.00 0.00 360.00 288.00 cl
0.00 0.00 360.00 288.00 cl
0.00 0.00 360.00 288.00 cl
0.00 0.00 360.00 288.00 cl
0.00 0.00 360.00 288.00 cl
0.00 0.00 360.00 288.00 cl
0.00 0.00 360.00 288.00 cl
0.00 0.00 360.00 288.00 cl
0.00 0.00 360.00 288.00 cl
0.00 0.00 360.00 288.00 cl
0.00 0.00 360.00 288.00 cl
0.00 0.00 360.00 288.00 cl
0.00 0.00 360.00 288.00 cl
0.00 0.00 360.00 288.00 cl
0.00 0.00 360.00 288.00 cl
0.00 0.00 360.00 288.00 cl
0.00 0.00 360.00 288.00 cl
0.00 0.00 360.00 288.00 cl
0.00 0.00 360.00 288.00 cl
0.00 0.00 360.00 288.00 cl
0.00 0.00 360.00 288.00 cl
0.00 0.00 360.00 288.00 cl
0.00 0.00 360.00 288.00 cl
0.00 0.00 360.00 288.00 cl
0.00 0.00 360.00 288.00 cl
0.00 0.00 360.00 288.00 cl
0.00 0.00 360.00 288.00 cl
0.00 0.00 360.00 288.00 cl
0.00 0.00 360.00 288.00 cl
0.00 0.00 360.00 288.00 cl
0.00 0.00 360.00 288.00 cl
0.00 0.00 360.00 288.00 cl
0.00 0.00 360.00 288.00 cl
0.00 0.00 360.00 288.00 cl
0.00 0.00 360.00 288.00 cl
0.00 0.00 360.00 288.00 cl
/Font1 findfont 12 s
0 0 0 srgb
176.52 10.80 (br) 0 ta
-0.120 (ack) tb
-0.240 (et) tb gr
0.00 0.00 360.00 288.00 cl
0.00 0.00 360.00 288.00 cl
0.00 0.00 360.00 288.00 cl
0.00 0.00 360.00 288.00 cl
0.00 0.00 360.00 288.00 cl
0.00 0.00 360.00 288.00 cl
0.00 0.00 360.00 288.00 cl
0.00 0.00 360.00 288.00 cl
/bg { 1 1 1 srgb } def
64.34 237.78 263.70 25.78 r p2
0.00 0.00 360.00 288.00 cl
0.00 0.00 360.00 288.00 cl
/Font2 findfont 10 s
0 0 0 srgb
68.59 247.08 (corpus) 0 0 t
0.00 0.00 360.00 288.00 cl
0.00 0.00 360.00 288.00 cl
/bg { 1 1 1 srgb } def
0.8000 0.8000 0.8000 srgb
1.06 setlinewidth
[] 0 setdash
1 setlinecap
1 setlinejoin
10.00 setmiterlimit
106.25 242.03 17.28 17.28 r p3
0.00 0.00 360.00 288.00 cl
0.00 0.00 360.00 288.00 cl
0.2000 0.2000 0.2000 srgb
1.06 setlinewidth
[] 0 setdash
1 setlinecap
1 setlinejoin
10.00 setmiterlimit
np
114.89 243.76 m
0 2.59 l
o
np
114.89 254.99 m
0 2.60 l
o
/bg { 0.7451 0.7294 0.8549 srgb } def
108.41 246.35 12.96 8.64 r p3
np
108.41 250.67 m
12.96 0 l
o
0.00 0.00 360.00 288.00 cl
0.00 0.00 360.00 288.00 cl
/bg { 1 1 1 srgb } def
0.8000 0.8000 0.8000 srgb
1.06 setlinewidth
[] 0 setdash
1 setlinecap
1 setlinejoin
10.00 setmiterlimit
184.69 242.03 17.28 17.28 r p3
0.00 0.00 360.00 288.00 cl
0.00 0.00 360.00 288.00 cl
0.2000 0.2000 0.2000 srgb
1.06 setlinewidth
[] 0 setdash
1 setlinecap
1 setlinejoin
10.00 setmiterlimit
np
193.33 243.76 m
0 2.59 l
o
np
193.33 254.99 m
0 2.60 l
o
/bg { 0.9608 0.9608 0.9608 srgb } def
186.85 246.35 12.96 8.64 r p3
np
186.85 250.67 m
12.96 0 l
o
0.00 0.00 360.00 288.00 cl
0.00 0.00 360.00 288.00 cl
/bg { 1 1 1 srgb } def
0.8000 0.8000 0.8000 srgb
1.06 setlinewidth
[] 0 setdash
1 setlinecap
1 setlinejoin
10.00 setmiterlimit
261.01 242.03 17.28 17.28 r p3
0.00 0.00 360.00 288.00 cl
0.00 0.00 360.00 288.00 cl
0.2000 0.2000 0.2000 srgb
1.06 setlinewidth
[] 0 setdash
1 setlinecap
1 setlinejoin
10.00 setmiterlimit
np
269.65 243.76 m
0 2.59 l
o
np
269.65 254.99 m
0 2.60 l
o
/bg { 0.8941 0.1020 0.1098 srgb } def
263.17 246.35 12.96 8.64 r p3
np
263.17 250.67 m
12.96 0 l
o
0.00 0.00 360.00 288.00 cl
0.00 0.00 360.00 288.00 cl
/Font1 findfont 10 s
0 0 0 srgb
125.69 247.08 (AID) 0 ta
-0.400 (A CoNLL) tb gr
0.00 0.00 360.00 288.00 cl
0.00 0.00 360.00 288.00 cl
/Font1 findfont 10 s
0 0 0 srgb
204.13 247.08 (ClueW) 0 ta
-0.300 (eb 12) tb gr
0.00 0.00 360.00 288.00 cl
0.00 0.00 360.00 288.00 cl
/Font1 findfont 10 s
0 0 0 srgb
280.45 247.08 (Wikipedia) 0 0 t
0.00 0.00 360.00 288.00 cl
0.00 0.00 360.00 288.00 cl
0.00 0.00 360.00 288.00 cl
0.00 0.00 360.00 288.00 cl
0.00 0.00 360.00 288.00 cl
0.00 0.00 360.00 288.00 cl
0.00 0.00 360.00 288.00 cl
0.00 0.00 360.00 288.00 cl
0.00 0.00 360.00 288.00 cl
0.00 0.00 360.00 288.00 cl
0.00 0.00 360.00 288.00 cl
0.00 0.00 360.00 288.00 cl
ep
%%Trailer
%%Pages: 1
%%EOF
