%!PS-Adobe-3.0 EPSF-3.0
%%DocumentNeededResources: font Helvetica
%%+ font Helvetica-Bold
%%+ font Helvetica-Oblique
%%+ font Helvetica-BoldOblique
%%+ font Symbol
%%Title: R Graphics Output
%%Creator: R Software
%%Pages: (atend)
%%BoundingBox: 0 0 360 288
%%EndComments
%%BeginProlog
/bp  { gs sRGB gs } def
% begin .ps.prolog
/gs  { gsave } bind def
/gr  { grestore } bind def
/ep  { showpage gr gr } bind def
/m   { moveto } bind def
/l  { rlineto } bind def
/np  { newpath } bind def
/cp  { closepath } bind def
/f   { fill } bind def
/o   { stroke } bind def
/c   { newpath 0 360 arc } bind def
/r   { 4 2 roll moveto 1 copy 3 -1 roll exch 0 exch rlineto 0 rlineto -1 mul 0 exch rlineto closepath } bind def
/p1  { stroke } bind def
/p2  { gsave bg fill grestore newpath } bind def
/p3  { gsave bg fill grestore stroke } bind def
/p6  { gsave bg eofill grestore newpath } bind def
/p7  { gsave bg eofill grestore stroke } bind def
/t   { 5 -2 roll moveto gsave rotate
       1 index stringwidth pop
       mul neg 0 rmoveto show grestore } bind def
/ta  { 4 -2 roll moveto gsave rotate show } bind def
/tb  { 2 -1 roll 0 rmoveto show } bind def
/cl  { grestore gsave newpath 3 index 3 index moveto 1 index
       4 -1 roll lineto  exch 1 index lineto lineto
       closepath clip newpath } bind def
/rgb { setrgbcolor } bind def
/s   { scalefont setfont } bind def
% end   .ps.prolog
/sRGB { [ /CIEBasedABC
          << /DecodeLMN
               [ { dup 0.03928 le
                        {12.92321 div}
                        {0.055 add 1.055 div 2.4 exp }
                     ifelse
                 } bind dup dup
               ]
             /MatrixLMN [0.412457 0.212673 0.019334
                         0.357576 0.715152 0.119192
                         0.180437 0.072175 0.950301]
             /WhitePoint [0.9505 1.0 1.0890]
           >>
         ] setcolorspace } bind def
/srgb { setcolor } bind def
%%IncludeResource: font Helvetica
/Helvetica findfont
dup length dict begin
  {1 index /FID ne {def} {pop pop} ifelse} forall
  /Encoding ISOLatin1Encoding def
  currentdict
  end
/Font1 exch definefont pop
%%IncludeResource: font Helvetica-Bold
/Helvetica-Bold findfont
dup length dict begin
  {1 index /FID ne {def} {pop pop} ifelse} forall
  /Encoding ISOLatin1Encoding def
  currentdict
  end
/Font2 exch definefont pop
%%IncludeResource: font Helvetica-Oblique
/Helvetica-Oblique findfont
dup length dict begin
  {1 index /FID ne {def} {pop pop} ifelse} forall
  /Encoding ISOLatin1Encoding def
  currentdict
  end
/Font3 exch definefont pop
%%IncludeResource: font Helvetica-BoldOblique
/Helvetica-BoldOblique findfont
dup length dict begin
  {1 index /FID ne {def} {pop pop} ifelse} forall
  /Encoding ISOLatin1Encoding def
  currentdict
  end
/Font4 exch definefont pop
%%IncludeResource: font Symbol
/Symbol findfont
dup length dict begin
  {1 index /FID ne {def} {pop pop} ifelse} forall
  currentdict
  end
/Font5 exch definefont pop
%%EndProlog
%%Page: 1 1
bp
0.00 0.00 360.00 288.00 cl
0.00 0.00 360.00 288.00 cl
0.00 0.00 360.00 288.00 cl
/bg { 1 1 1 srgb } def
1 1 1 srgb
1.06 setlinewidth
[] 0 setdash
1 setlinecap
1 setlinejoin
10.00 setmiterlimit
0.00 -0.00 360.00 288.00 r p3
0.00 0.00 360.00 288.00 cl
52.34 213.37 85.85 227.75 cl
/bg { 0.8000 0.8000 0.8000 srgb } def
0.4980 0.4980 0.4980 srgb
0.43 setlinewidth
[] 0 setdash
1 setlinecap
1 setlinejoin
10.00 setmiterlimit
52.34 213.37 33.51 14.38 r p3
/Font1 findfont 10 s
0 0 0 srgb
69.10 216.97 (0.3) .5 0 t
0.00 0.00 360.00 288.00 cl
89.45 213.37 122.96 227.75 cl
/bg { 0.8000 0.8000 0.8000 srgb } def
0.4980 0.4980 0.4980 srgb
0.43 setlinewidth
[] 0 setdash
1 setlinecap
1 setlinejoin
10.00 setmiterlimit
89.45 213.37 33.51 14.38 r p3
/Font1 findfont 10 s
0 0 0 srgb
106.20 216.97 (0.4) .5 0 t
0.00 0.00 360.00 288.00 cl
126.56 213.37 160.06 227.75 cl
/bg { 0.8000 0.8000 0.8000 srgb } def
0.4980 0.4980 0.4980 srgb
0.43 setlinewidth
[] 0 setdash
1 setlinecap
1 setlinejoin
10.00 setmiterlimit
126.56 213.37 33.51 14.38 r p3
/Font1 findfont 10 s
0 0 0 srgb
143.31 216.97 (0.5) .5 0 t
0.00 0.00 360.00 288.00 cl
163.66 213.37 197.17 227.75 cl
/bg { 0.8000 0.8000 0.8000 srgb } def
0.4980 0.4980 0.4980 srgb
0.43 setlinewidth
[] 0 setdash
1 setlinecap
1 setlinejoin
10.00 setmiterlimit
163.66 213.37 33.51 14.38 r p3
/Font1 findfont 10 s
0 0 0 srgb
180.42 216.97 (0.6) .5 0 t
0.00 0.00 360.00 288.00 cl
200.77 213.37 234.28 227.75 cl
/bg { 0.8000 0.8000 0.8000 srgb } def
0.4980 0.4980 0.4980 srgb
0.43 setlinewidth
[] 0 setdash
1 setlinecap
1 setlinejoin
10.00 setmiterlimit
200.77 213.37 33.51 14.38 r p3
/Font1 findfont 10 s
0 0 0 srgb
217.52 216.97 (0.7) .5 0 t
0.00 0.00 360.00 288.00 cl
237.88 213.37 271.39 227.75 cl
/bg { 0.8000 0.8000 0.8000 srgb } def
0.4980 0.4980 0.4980 srgb
0.43 setlinewidth
[] 0 setdash
1 setlinecap
1 setlinejoin
10.00 setmiterlimit
237.88 213.37 33.51 14.38 r p3
/Font1 findfont 10 s
0 0 0 srgb
254.63 216.97 (0.8) .5 0 t
0.00 0.00 360.00 288.00 cl
274.99 213.37 308.49 227.75 cl
/bg { 0.8000 0.8000 0.8000 srgb } def
0.4980 0.4980 0.4980 srgb
0.43 setlinewidth
[] 0 setdash
1 setlinecap
1 setlinejoin
10.00 setmiterlimit
274.99 213.37 33.51 14.38 r p3
/Font1 findfont 10 s
0 0 0 srgb
291.74 216.97 (0.9) .5 0 t
0.00 0.00 360.00 288.00 cl
312.09 213.37 345.60 227.75 cl
/bg { 0.8000 0.8000 0.8000 srgb } def
0.4980 0.4980 0.4980 srgb
0.43 setlinewidth
[] 0 setdash
1 setlinecap
1 setlinejoin
10.00 setmiterlimit
312.09 213.37 33.51 14.38 r p3
/Font1 findfont 10 s
0 0 0 srgb
328.85 216.97 (1) .5 0 t
0.00 0.00 360.00 288.00 cl
52.34 30.10 85.85 213.37 cl
/bg { 1 1 1 srgb } def
52.34 30.10 33.51 183.26 r p2
0.9804 0.9804 0.9804 srgb
1.06 setlinewidth
[] 0 setdash
0 setlinecap
1 setlinejoin
10.00 setmiterlimit
np
52.34 68.55 m
33.51 0 l
o
np
52.34 154.73 m
33.51 0 l
o
0.8980 0.8980 0.8980 srgb
0.43 setlinewidth
[] 0 setdash
np
52.34 111.64 m
33.51 0 l
o
np
52.34 197.81 m
33.51 0 l
o
np
69.10 30.10 m
0 183.27 l
o
/bg { 0 0 0 srgb } def
60.72 113.94 2.13 c p2
60.72 111.86 2.13 c p2
60.72 113.94 2.13 c p2
60.72 112.66 2.13 c p2
0.2000 0.2000 0.2000 srgb
1.06 setlinewidth
[] 0 setdash
np
60.72 165.92 m
0 15.55 l
o
np
60.72 147.07 m
0 -16.02 l
o
/bg { 0.7451 0.7294 0.8549 srgb } def
1 setlinecap
np
 56.53 165.92 m
0 -18.85 l
8.38 0 l
0 18.85 l
-8.38 0 l
cp p3
2.13 setlinewidth
[] 0 setdash
0 setlinecap
np
56.53 157.23 m
8.38 0 l
o
1.06 setlinewidth
[] 0 setdash
np
69.10 162.37 m
0 8.76 l
o
np
69.10 142.24 m
0 -1.96 l
o
/bg { 0.9608 0.9608 0.9608 srgb } def
1 setlinecap
np
 64.91 162.37 m
0 -20.13 l
8.37 0 l
0 20.13 l
-8.37 0 l
cp p3
2.13 setlinewidth
[] 0 setdash
0 setlinecap
np
64.91 152.88 m
8.37 0 l
o
/bg { 0 0 0 srgb } def
77.47 103.14 2.13 c p2
1.06 setlinewidth
[] 0 setdash
np
77.47 173.25 m
0 31.79 l
o
np
77.47 145.67 m
0 -28.14 l
o
/bg { 0.8941 0.1020 0.1098 srgb } def
1 setlinecap
np
 73.28 173.25 m
0 -27.58 l
8.38 0 l
0 27.58 l
-8.38 0 l
cp p3
2.13 setlinewidth
[] 0 setdash
0 setlinecap
np
73.28 161.31 m
8.38 0 l
o
0.4980 0.4980 0.4980 srgb
1.06 setlinewidth
[] 0 setdash
1 setlinecap
52.34 30.10 33.51 183.26 r p1
0.00 0.00 360.00 288.00 cl
89.45 30.10 122.96 213.37 cl
/bg { 1 1 1 srgb } def
89.45 30.10 33.51 183.26 r p2
0.9804 0.9804 0.9804 srgb
1.06 setlinewidth
[] 0 setdash
0 setlinecap
1 setlinejoin
10.00 setmiterlimit
np
89.45 68.55 m
33.51 0 l
o
np
89.45 154.73 m
33.51 0 l
o
0.8980 0.8980 0.8980 srgb
0.43 setlinewidth
[] 0 setdash
np
89.45 111.64 m
33.51 0 l
o
np
89.45 197.81 m
33.51 0 l
o
np
106.20 30.10 m
0 183.27 l
o
/bg { 0 0 0 srgb } def
97.83 119.84 2.13 c p2
97.83 96.70 2.13 c p2
97.83 92.10 2.13 c p2
97.83 108.13 2.13 c p2
0.2000 0.2000 0.2000 srgb
1.06 setlinewidth
[] 0 setdash
np
97.83 159.95 m
0 18.83 l
o
np
97.83 144.92 m
0 -22.45 l
o
/bg { 0.7451 0.7294 0.8549 srgb } def
1 setlinecap
np
 93.64 159.95 m
0 -15.03 l
8.37 0 l
0 15.03 l
-8.37 0 l
cp p3
2.13 setlinewidth
[] 0 setdash
0 setlinecap
np
93.64 152.21 m
8.37 0 l
o
1.06 setlinewidth
[] 0 setdash
np
106.20 159.04 m
0 18.03 l
o
np
106.20 145.31 m
0 -14.32 l
o
/bg { 0.9608 0.9608 0.9608 srgb } def
1 setlinecap
np
 102.01 159.04 m
0 -13.73 l
8.38 0 l
0 13.73 l
-8.38 0 l
cp p3
2.13 setlinewidth
[] 0 setdash
0 setlinecap
np
102.01 153.12 m
8.38 0 l
o
/bg { 0 0 0 srgb } def
114.58 198.11 2.13 c p2
114.58 194.68 2.13 c p2
114.58 196.47 2.13 c p2
1.06 setlinewidth
[] 0 setdash
np
114.58 163.94 m
0 26.72 l
o
np
114.58 144.85 m
0 -18.96 l
o
/bg { 0.8941 0.1020 0.1098 srgb } def
1 setlinecap
np
 110.39 163.94 m
0 -19.09 l
8.38 0 l
0 19.09 l
-8.38 0 l
cp p3
2.13 setlinewidth
[] 0 setdash
0 setlinecap
np
110.39 156.32 m
8.38 0 l
o
0.4980 0.4980 0.4980 srgb
1.06 setlinewidth
[] 0 setdash
1 setlinecap
89.45 30.10 33.51 183.26 r p1
0.00 0.00 360.00 288.00 cl
126.56 30.10 160.06 213.37 cl
/bg { 1 1 1 srgb } def
126.56 30.10 33.51 183.26 r p2
0.9804 0.9804 0.9804 srgb
1.06 setlinewidth
[] 0 setdash
0 setlinecap
1 setlinejoin
10.00 setmiterlimit
np
126.56 68.55 m
33.50 0 l
o
np
126.56 154.73 m
33.50 0 l
o
0.8980 0.8980 0.8980 srgb
0.43 setlinewidth
[] 0 setdash
np
126.56 111.64 m
33.50 0 l
o
np
126.56 197.81 m
33.50 0 l
o
np
143.31 30.10 m
0 183.27 l
o
/bg { 0 0 0 srgb } def
134.93 116.80 2.13 c p2
134.93 114.38 2.13 c p2
134.93 116.52 2.13 c p2
134.93 99.22 2.13 c p2
0.2000 0.2000 0.2000 srgb
1.06 setlinewidth
[] 0 setdash
np
134.93 160.83 m
0 18.08 l
o
np
134.93 143.54 m
0 -19.46 l
o
/bg { 0.7451 0.7294 0.8549 srgb } def
1 setlinecap
np
 130.75 160.83 m
0 -17.29 l
8.37 0 l
0 17.29 l
-8.37 0 l
cp p3
2.13 setlinewidth
[] 0 setdash
0 setlinecap
np
130.75 151.70 m
8.37 0 l
o
/bg { 0 0 0 srgb } def
143.31 133.39 2.13 c p2
1.06 setlinewidth
[] 0 setdash
np
143.31 160.04 m
0 13.20 l
o
np
143.31 149.48 m
0 -14.77 l
o
/bg { 0.9608 0.9608 0.9608 srgb } def
1 setlinecap
np
 139.12 160.04 m
0 -10.56 l
8.38 0 l
0 10.56 l
-8.38 0 l
cp p3
2.13 setlinewidth
[] 0 setdash
0 setlinecap
np
139.12 156.59 m
8.38 0 l
o
1.06 setlinewidth
[] 0 setdash
np
151.69 160.80 m
0 29.88 l
o
np
151.69 140.68 m
0 -21.45 l
o
/bg { 0.8941 0.1020 0.1098 srgb } def
1 setlinecap
np
 147.50 160.80 m
0 -20.12 l
8.38 0 l
0 20.12 l
-8.38 0 l
cp p3
2.13 setlinewidth
[] 0 setdash
0 setlinecap
np
147.50 148.98 m
8.38 0 l
o
0.4980 0.4980 0.4980 srgb
1.06 setlinewidth
[] 0 setdash
1 setlinecap
126.56 30.10 33.51 183.26 r p1
0.00 0.00 360.00 288.00 cl
163.66 30.10 197.17 213.37 cl
/bg { 1 1 1 srgb } def
163.66 30.10 33.51 183.26 r p2
0.9804 0.9804 0.9804 srgb
1.06 setlinewidth
[] 0 setdash
0 setlinecap
1 setlinejoin
10.00 setmiterlimit
np
163.66 68.55 m
33.51 0 l
o
np
163.66 154.73 m
33.51 0 l
o
0.8980 0.8980 0.8980 srgb
0.43 setlinewidth
[] 0 setdash
np
163.66 111.64 m
33.51 0 l
o
np
163.66 197.81 m
33.51 0 l
o
np
180.42 30.10 m
0 183.27 l
o
/bg { 0 0 0 srgb } def
172.04 97.86 2.13 c p2
172.04 94.30 2.13 c p2
172.04 112.05 2.13 c p2
172.04 97.86 2.13 c p2
172.04 91.28 2.13 c p2
172.04 115.22 2.13 c p2
0.2000 0.2000 0.2000 srgb
1.06 setlinewidth
[] 0 setdash
np
172.04 159.59 m
0 19.99 l
o
np
172.04 143.06 m
0 -24.65 l
o
/bg { 0.7451 0.7294 0.8549 srgb } def
1 setlinecap
np
 167.85 159.59 m
0 -16.53 l
8.38 0 l
0 16.53 l
-8.38 0 l
cp p3
2.13 setlinewidth
[] 0 setdash
0 setlinecap
np
167.85 151.00 m
8.38 0 l
o
/bg { 0 0 0 srgb } def
180.42 111.51 2.13 c p2
180.42 125.86 2.13 c p2
180.42 125.55 2.13 c p2
1.06 setlinewidth
[] 0 setdash
np
180.42 161.17 m
0 14.83 l
o
np
180.42 147.41 m
0 -12.51 l
o
/bg { 0.9608 0.9608 0.9608 srgb } def
1 setlinecap
np
 176.23 161.17 m
0 -13.76 l
8.38 0 l
0 13.76 l
-8.38 0 l
cp p3
2.13 setlinewidth
[] 0 setdash
0 setlinecap
np
176.23 152.81 m
8.38 0 l
o
/bg { 0 0 0 srgb } def
188.79 185.48 2.13 c p2
1.06 setlinewidth
[] 0 setdash
np
188.79 156.41 m
0 16.23 l
o
np
188.79 137.25 m
0 -20.86 l
o
/bg { 0.8941 0.1020 0.1098 srgb } def
1 setlinecap
np
 184.61 156.41 m
0 -19.16 l
8.37 0 l
0 19.16 l
-8.37 0 l
cp p3
2.13 setlinewidth
[] 0 setdash
0 setlinecap
np
184.61 147.04 m
8.37 0 l
o
0.4980 0.4980 0.4980 srgb
1.06 setlinewidth
[] 0 setdash
1 setlinecap
163.66 30.10 33.51 183.26 r p1
0.00 0.00 360.00 288.00 cl
200.77 30.10 234.28 213.37 cl
/bg { 1 1 1 srgb } def
200.77 30.10 33.51 183.26 r p2
0.9804 0.9804 0.9804 srgb
1.06 setlinewidth
[] 0 setdash
0 setlinecap
1 setlinejoin
10.00 setmiterlimit
np
200.77 68.55 m
33.51 0 l
o
np
200.77 154.73 m
33.51 0 l
o
0.8980 0.8980 0.8980 srgb
0.43 setlinewidth
[] 0 setdash
np
200.77 111.64 m
33.51 0 l
o
np
200.77 197.81 m
33.51 0 l
o
np
217.52 30.10 m
0 183.27 l
o
/bg { 0 0 0 srgb } def
209.15 90.66 2.13 c p2
209.15 105.18 2.13 c p2
209.15 116.46 2.13 c p2
209.15 101.86 2.13 c p2
209.15 111.11 2.13 c p2
209.15 109.18 2.13 c p2
0.2000 0.2000 0.2000 srgb
1.06 setlinewidth
[] 0 setdash
np
209.15 158.83 m
0 16.68 l
o
np
209.15 142.08 m
0 -23.61 l
o
/bg { 0.7451 0.7294 0.8549 srgb } def
1 setlinecap
np
 204.96 158.83 m
0 -16.75 l
8.38 0 l
0 16.75 l
-8.38 0 l
cp p3
2.13 setlinewidth
[] 0 setdash
0 setlinecap
np
204.96 151.37 m
8.38 0 l
o
/bg { 0 0 0 srgb } def
217.52 126.43 2.13 c p2
217.52 130.03 2.13 c p2
1.06 setlinewidth
[] 0 setdash
np
217.52 161.54 m
0 10.98 l
o
np
217.52 149.61 m
0 -14.04 l
o
/bg { 0.9608 0.9608 0.9608 srgb } def
1 setlinecap
np
 213.34 161.54 m
0 -11.93 l
8.37 0 l
0 11.93 l
-8.37 0 l
cp p3
2.13 setlinewidth
[] 0 setdash
0 setlinecap
np
213.34 154.81 m
8.37 0 l
o
/bg { 0 0 0 srgb } def
225.90 175.46 2.13 c p2
1.06 setlinewidth
[] 0 setdash
np
225.90 149.35 m
0 20.89 l
o
np
225.90 134.46 m
0 -22.29 l
o
/bg { 0.8941 0.1020 0.1098 srgb } def
1 setlinecap
np
 221.71 149.35 m
0 -14.89 l
8.38 0 l
0 14.89 l
-8.38 0 l
cp p3
2.13 setlinewidth
[] 0 setdash
0 setlinecap
np
221.71 144.80 m
8.38 0 l
o
0.4980 0.4980 0.4980 srgb
1.06 setlinewidth
[] 0 setdash
1 setlinecap
200.77 30.10 33.51 183.26 r p1
0.00 0.00 360.00 288.00 cl
237.88 30.10 271.39 213.37 cl
/bg { 1 1 1 srgb } def
237.88 30.10 33.51 183.26 r p2
0.9804 0.9804 0.9804 srgb
1.06 setlinewidth
[] 0 setdash
0 setlinecap
1 setlinejoin
10.00 setmiterlimit
np
237.88 68.55 m
33.51 0 l
o
np
237.88 154.73 m
33.51 0 l
o
0.8980 0.8980 0.8980 srgb
0.43 setlinewidth
[] 0 setdash
np
237.88 111.64 m
33.51 0 l
o
np
237.88 197.81 m
33.51 0 l
o
np
254.63 30.10 m
0 183.27 l
o
/bg { 0 0 0 srgb } def
246.26 101.05 2.13 c p2
246.26 111.51 2.13 c p2
246.26 107.46 2.13 c p2
0.2000 0.2000 0.2000 srgb
1.06 setlinewidth
[] 0 setdash
np
246.26 161.90 m
0 14.15 l
o
np
246.26 142.31 m
0 -29.13 l
o
/bg { 0.7451 0.7294 0.8549 srgb } def
1 setlinecap
np
 242.07 161.90 m
0 -19.59 l
8.37 0 l
0 19.59 l
-8.37 0 l
cp p3
2.13 setlinewidth
[] 0 setdash
0 setlinecap
np
242.07 153.14 m
8.37 0 l
o
1.06 setlinewidth
[] 0 setdash
np
254.63 161.24 m
0 12.74 l
o
np
254.63 141.89 m
0 -23.06 l
o
/bg { 0.9608 0.9608 0.9608 srgb } def
1 setlinecap
np
 250.44 161.24 m
0 -19.35 l
8.38 0 l
0 19.35 l
-8.38 0 l
cp p3
2.13 setlinewidth
[] 0 setdash
0 setlinecap
np
250.44 151.88 m
8.38 0 l
o
/bg { 0 0 0 srgb } def
263.01 185.66 2.13 c p2
263.01 97.15 2.13 c p2
1.06 setlinewidth
[] 0 setdash
np
263.01 149.24 m
0 13.76 l
o
np
263.01 129.38 m
0 -23.08 l
o
/bg { 0.8941 0.1020 0.1098 srgb } def
1 setlinecap
np
 258.82 149.24 m
0 -19.86 l
8.38 0 l
0 19.86 l
-8.38 0 l
cp p3
2.13 setlinewidth
[] 0 setdash
0 setlinecap
np
258.82 138.65 m
8.38 0 l
o
0.4980 0.4980 0.4980 srgb
1.06 setlinewidth
[] 0 setdash
1 setlinecap
237.88 30.10 33.51 183.26 r p1
0.00 0.00 360.00 288.00 cl
274.99 30.10 308.49 213.37 cl
/bg { 1 1 1 srgb } def
274.99 30.10 33.51 183.26 r p2
0.9804 0.9804 0.9804 srgb
1.06 setlinewidth
[] 0 setdash
0 setlinecap
1 setlinejoin
10.00 setmiterlimit
np
274.99 68.55 m
33.50 0 l
o
np
274.99 154.73 m
33.50 0 l
o
0.8980 0.8980 0.8980 srgb
0.43 setlinewidth
[] 0 setdash
np
274.99 111.64 m
33.50 0 l
o
np
274.99 197.81 m
33.50 0 l
o
np
291.74 30.10 m
0 183.27 l
o
/bg { 0 0 0 srgb } def
283.36 109.27 2.13 c p2
283.36 108.44 2.13 c p2
283.36 111.36 2.13 c p2
283.36 100.07 2.13 c p2
283.36 99.40 2.13 c p2
0.2000 0.2000 0.2000 srgb
1.06 setlinewidth
[] 0 setdash
np
283.36 163.81 m
0 15.98 l
o
np
283.36 143.08 m
0 -28.03 l
o
/bg { 0.7451 0.7294 0.8549 srgb } def
1 setlinecap
np
 279.17 163.81 m
0 -20.73 l
8.38 0 l
0 20.73 l
-8.38 0 l
cp p3
2.13 setlinewidth
[] 0 setdash
0 setlinecap
np
279.17 156.87 m
8.38 0 l
o
/bg { 0 0 0 srgb } def
291.74 126.43 2.13 c p2
291.74 105.98 2.13 c p2
1.06 setlinewidth
[] 0 setdash
np
291.74 160.86 m
0 10.51 l
o
np
291.74 147.62 m
0 -19.76 l
o
/bg { 0.9608 0.9608 0.9608 srgb } def
1 setlinecap
np
 287.55 160.86 m
0 -13.24 l
8.38 0 l
0 13.24 l
-8.38 0 l
cp p3
2.13 setlinewidth
[] 0 setdash
0 setlinecap
np
287.55 155.05 m
8.38 0 l
o
1.06 setlinewidth
[] 0 setdash
np
300.12 149.18 m
0 12.75 l
o
np
300.12 129.39 m
0 -22.72 l
o
/bg { 0.8941 0.1020 0.1098 srgb } def
1 setlinecap
np
 295.93 149.18 m
0 -19.79 l
8.37 0 l
0 19.79 l
-8.37 0 l
cp p3
2.13 setlinewidth
[] 0 setdash
0 setlinecap
np
295.93 138.13 m
8.37 0 l
o
0.4980 0.4980 0.4980 srgb
1.06 setlinewidth
[] 0 setdash
1 setlinecap
274.99 30.10 33.51 183.26 r p1
0.00 0.00 360.00 288.00 cl
312.09 30.10 345.60 213.37 cl
/bg { 1 1 1 srgb } def
312.09 30.10 33.51 183.26 r p2
0.9804 0.9804 0.9804 srgb
1.06 setlinewidth
[] 0 setdash
0 setlinecap
1 setlinejoin
10.00 setmiterlimit
np
312.09 68.55 m
33.51 0 l
o
np
312.09 154.73 m
33.51 0 l
o
0.8980 0.8980 0.8980 srgb
0.43 setlinewidth
[] 0 setdash
np
312.09 111.64 m
33.51 0 l
o
np
312.09 197.81 m
33.51 0 l
o
np
328.85 30.10 m
0 183.27 l
o
/bg { 0 0 0 srgb } def
320.47 76.99 2.13 c p2
320.47 81.52 2.13 c p2
320.47 47.80 2.13 c p2
320.47 80.85 2.13 c p2
320.47 47.80 2.13 c p2
320.47 40.22 2.13 c p2
320.47 94.49 2.13 c p2
320.47 97.39 2.13 c p2
320.47 79.86 2.13 c p2
320.47 38.43 2.13 c p2
320.47 97.39 2.13 c p2
320.47 94.49 2.13 c p2
0.2000 0.2000 0.2000 srgb
1.06 setlinewidth
[] 0 setdash
np
320.47 158.17 m
0 21.71 l
o
np
320.47 133.89 m
0 -34.56 l
o
/bg { 0.7451 0.7294 0.8549 srgb } def
1 setlinecap
np
 316.28 158.17 m
0 -24.28 l
8.38 0 l
0 24.28 l
-8.38 0 l
cp p3
2.13 setlinewidth
[] 0 setdash
0 setlinecap
np
316.28 148.05 m
8.38 0 l
o
1.06 setlinewidth
[] 0 setdash
np
328.85 166.14 m
0 13.01 l
o
np
328.85 125.60 m
0 -34.82 l
o
/bg { 0.9608 0.9608 0.9608 srgb } def
1 setlinecap
np
 324.66 166.14 m
0 -40.54 l
8.37 0 l
0 40.54 l
-8.37 0 l
cp p3
2.13 setlinewidth
[] 0 setdash
0 setlinecap
np
324.66 152.45 m
8.37 0 l
o
1.06 setlinewidth
[] 0 setdash
np
337.22 148.95 m
0 13.27 l
o
np
337.22 120.27 m
0 -33.48 l
o
/bg { 0.8941 0.1020 0.1098 srgb } def
1 setlinecap
np
 333.03 148.95 m
0 -28.68 l
8.38 0 l
0 28.68 l
-8.38 0 l
cp p3
2.13 setlinewidth
[] 0 setdash
0 setlinecap
np
333.03 136.52 m
8.38 0 l
o
0.4980 0.4980 0.4980 srgb
1.06 setlinewidth
[] 0 setdash
1 setlinecap
312.09 30.10 33.51 183.26 r p1
0.00 0.00 360.00 288.00 cl
0.00 0.00 360.00 288.00 cl
0.00 0.00 360.00 288.00 cl
/Font1 findfont 10 s
0 0 0 srgb
45.26 108.05 (10) 1 0 t
45.26 194.22 (1000) 1 0 t
0.00 0.00 360.00 288.00 cl
0.00 0.00 360.00 288.00 cl
0.00 0.00 360.00 288.00 cl
0.00 0.00 360.00 288.00 cl
0.00 0.00 360.00 288.00 cl
0.00 0.00 360.00 288.00 cl
0.00 0.00 360.00 288.00 cl
0.00 0.00 360.00 288.00 cl
0.00 0.00 360.00 288.00 cl
0.00 0.00 360.00 288.00 cl
0.00 0.00 360.00 288.00 cl
0.00 0.00 360.00 288.00 cl
0.00 0.00 360.00 288.00 cl
0.00 0.00 360.00 288.00 cl
0.00 0.00 360.00 288.00 cl
0.00 0.00 360.00 288.00 cl
0.00 0.00 360.00 288.00 cl
0.00 0.00 360.00 288.00 cl
0.00 0.00 360.00 288.00 cl
0.00 0.00 360.00 288.00 cl
0.00 0.00 360.00 288.00 cl
0.00 0.00 360.00 288.00 cl
0.00 0.00 360.00 288.00 cl
0.00 0.00 360.00 288.00 cl
0.00 0.00 360.00 288.00 cl
0.00 0.00 360.00 288.00 cl
0.00 0.00 360.00 288.00 cl
0.00 0.00 360.00 288.00 cl
0.00 0.00 360.00 288.00 cl
0.00 0.00 360.00 288.00 cl
0.00 0.00 360.00 288.00 cl
0.00 0.00 360.00 288.00 cl
0.00 0.00 360.00 288.00 cl
0.00 0.00 360.00 288.00 cl
0.00 0.00 360.00 288.00 cl
0.00 0.00 360.00 288.00 cl
0.00 0.00 360.00 288.00 cl
0.00 0.00 360.00 288.00 cl
0.00 0.00 360.00 288.00 cl
0.00 0.00 360.00 288.00 cl
0.00 0.00 360.00 288.00 cl
0.00 0.00 360.00 288.00 cl
0.00 0.00 360.00 288.00 cl
0.00 0.00 360.00 288.00 cl
0.00 0.00 360.00 288.00 cl
0.00 0.00 360.00 288.00 cl
0.00 0.00 360.00 288.00 cl
0.00 0.00 360.00 288.00 cl
0.00 0.00 360.00 288.00 cl
0.00 0.00 360.00 288.00 cl
0.00 0.00 360.00 288.00 cl
0.00 0.00 360.00 288.00 cl
0.00 0.00 360.00 288.00 cl
0.00 0.00 360.00 288.00 cl
0.00 0.00 360.00 288.00 cl
0.00 0.00 360.00 288.00 cl
0.00 0.00 360.00 288.00 cl
0.00 0.00 360.00 288.00 cl
0.00 0.00 360.00 288.00 cl
0.00 0.00 360.00 288.00 cl
0.00 0.00 360.00 288.00 cl
0.00 0.00 360.00 288.00 cl
0.00 0.00 360.00 288.00 cl
0.00 0.00 360.00 288.00 cl
0.00 0.00 360.00 288.00 cl
0.00 0.00 360.00 288.00 cl
0.00 0.00 360.00 288.00 cl
0.00 0.00 360.00 288.00 cl
0.00 0.00 360.00 288.00 cl
0.00 0.00 360.00 288.00 cl
0.00 0.00 360.00 288.00 cl
/Font1 findfont 12 s
0 0 0 srgb
179.30 10.80 (br) 0 ta
-0.120 (ack) tb
-0.240 (et) tb gr
0.00 0.00 360.00 288.00 cl
0.00 0.00 360.00 288.00 cl
0.00 0.00 360.00 288.00 cl
0.00 0.00 360.00 288.00 cl
0.00 0.00 360.00 288.00 cl
0.00 0.00 360.00 288.00 cl
0.00 0.00 360.00 288.00 cl
0.00 0.00 360.00 288.00 cl
/bg { 1 1 1 srgb } def
67.12 237.78 263.70 25.78 r p2
0.00 0.00 360.00 288.00 cl
0.00 0.00 360.00 288.00 cl
/Font2 findfont 10 s
0 0 0 srgb
71.37 247.08 (corpus) 0 0 t
0.00 0.00 360.00 288.00 cl
0.00 0.00 360.00 288.00 cl
/bg { 1 1 1 srgb } def
0.8000 0.8000 0.8000 srgb
1.06 setlinewidth
[] 0 setdash
1 setlinecap
1 setlinejoin
10.00 setmiterlimit
109.03 242.03 17.28 17.28 r p3
0.00 0.00 360.00 288.00 cl
0.00 0.00 360.00 288.00 cl
0.2000 0.2000 0.2000 srgb
1.06 setlinewidth
[] 0 setdash
1 setlinecap
1 setlinejoin
10.00 setmiterlimit
np
117.67 243.76 m
0 2.59 l
o
np
117.67 254.99 m
0 2.60 l
o
/bg { 0.7451 0.7294 0.8549 srgb } def
111.19 246.35 12.96 8.64 r p3
np
111.19 250.67 m
12.96 0 l
o
0.00 0.00 360.00 288.00 cl
0.00 0.00 360.00 288.00 cl
/bg { 1 1 1 srgb } def
0.8000 0.8000 0.8000 srgb
1.06 setlinewidth
[] 0 setdash
1 setlinecap
1 setlinejoin
10.00 setmiterlimit
187.47 242.03 17.28 17.28 r p3
0.00 0.00 360.00 288.00 cl
0.00 0.00 360.00 288.00 cl
0.2000 0.2000 0.2000 srgb
1.06 setlinewidth
[] 0 setdash
1 setlinecap
1 setlinejoin
10.00 setmiterlimit
np
196.11 243.76 m
0 2.59 l
o
np
196.11 254.99 m
0 2.60 l
o
/bg { 0.9608 0.9608 0.9608 srgb } def
189.63 246.35 12.96 8.64 r p3
np
189.63 250.67 m
12.96 0 l
o
0.00 0.00 360.00 288.00 cl
0.00 0.00 360.00 288.00 cl
/bg { 1 1 1 srgb } def
0.8000 0.8000 0.8000 srgb
1.06 setlinewidth
[] 0 setdash
1 setlinecap
1 setlinejoin
10.00 setmiterlimit
263.79 242.03 17.28 17.28 r p3
0.00 0.00 360.00 288.00 cl
0.00 0.00 360.00 288.00 cl
0.2000 0.2000 0.2000 srgb
1.06 setlinewidth
[] 0 setdash
1 setlinecap
1 setlinejoin
10.00 setmiterlimit
np
272.43 243.76 m
0 2.59 l
o
np
272.43 254.99 m
0 2.60 l
o
/bg { 0.8941 0.1020 0.1098 srgb } def
265.95 246.35 12.96 8.64 r p3
np
265.95 250.67 m
12.96 0 l
o
0.00 0.00 360.00 288.00 cl
0.00 0.00 360.00 288.00 cl
/Font1 findfont 10 s
0 0 0 srgb
128.47 247.08 (AID) 0 ta
-0.400 (A CoNLL) tb gr
0.00 0.00 360.00 288.00 cl
0.00 0.00 360.00 288.00 cl
/Font1 findfont 10 s
0 0 0 srgb
206.91 247.08 (ClueW) 0 ta
-0.300 (eb 12) tb gr
0.00 0.00 360.00 288.00 cl
0.00 0.00 360.00 288.00 cl
/Font1 findfont 10 s
0 0 0 srgb
283.23 247.08 (Wikipedia) 0 0 t
0.00 0.00 360.00 288.00 cl
0.00 0.00 360.00 288.00 cl
0.00 0.00 360.00 288.00 cl
0.00 0.00 360.00 288.00 cl
0.00 0.00 360.00 288.00 cl
0.00 0.00 360.00 288.00 cl
0.00 0.00 360.00 288.00 cl
0.00 0.00 360.00 288.00 cl
0.00 0.00 360.00 288.00 cl
0.00 0.00 360.00 288.00 cl
0.00 0.00 360.00 288.00 cl
0.00 0.00 360.00 288.00 cl
ep
%%Trailer
%%Pages: 1
%%EOF
